timestamp,timestamp_sample,xyz[0],xyz[1],xyz[2]
96976000,96976000,0.0024678675,-0.003721537,0.0016241404
97060000,97060000,-0.00086041563,-0.0020407345,-0.00085961545
97160000,97160000,0.0016149079,-0.0011696126,0.0024786452
97256000,97256000,0.004719748,-0.0045261215,0.0015417258
97360000,97360000,0.001023939,-0.0011455318,0.0021695571
97460000,97460000,-0.004556087,0.0017651356,0.0033134564
97556000,97556000,-0.00030694195,-0.0037462902,-0.0033133484
97660000,97660000,0.0021480687,0.0013731959,-0.000112963025
97760000,97760000,-0.0023287472,-0.003270018,0.0034142667
97860000,97860000,0.004408458,-0.0047237454,-0.0013816853
97956000,97956000,0.0031190994,0.0019957782,0.00048668045
98060000,98060000,0.003622519,-0.0001584019,-0.0015346983
98160000,98160000,0.0029684068,-0.0031736246,-0.00010294415
98260000,98260000,0.0012745969,0.0015991757,0.0012775075
98360000,98360000,-0.0022973677,0.0008254774,-0.0004116014
98456000,98456000,-0.0007940694,0.00036277424,0.0014776534
98560000,98560000,0.0030057125,-0.00030919106,-0.00116517
98656000,98656000,-0.003555142,-0.005003282,0.0024897887
98760000,98760000,0.0029192902,-0.0007572534,-0.0016835486
98856000,98856000,-0.00031792864,-0.0030676648,-0.0033023455
98956000,98956000,-0.0023374138,-0.00017233344,-0.003241614
99060000,99060000,-0.0037498865,-3.187894e-05,-0.0017190774
99160000,99160000,0.0032904497,-0.0007408024,-0.0014486201
99256000,99256000,0.0010874606,-0.0017815451,-0.003418725
99356000,99356000,-0.0012616165,-0.0051414147,-0.0013239386
99456000,99456000,-0.00399495,-0.004424987,0.0007106953
99556000,99556000,-0.001271958,-0.0037072836,0.0017452347
99660000,99660000,0.002392683,-0.0023401268,0.0018440664
99760000,99760000,0.0009925138,7.773342e-05,-0.004093514
99860000,99860000,0.0004259352,-0.0026857862,0.0010691584
99960000,99960000,-0.00010453674,-0.0010442443,-0.00024126394
100060000,100060000,0.003157782,-0.0006895637,-0.002555564
100156000,100156000,0.0012843444,0.0037322328,0.0017830692
100260000,100260000,0.0013551924,-0.0012097991,0.00028238707
100360000,100360000,0.0005545292,0.0016430282,0.00019563027
100460000,100460000,-0.004555315,0.00091348344,0.00050541025
100560000,100560000,0.00021398955,-6.994908e-05,0.00044066636
100660000,100660000,0.00011970571,0.0016178373,0.002037328
100756000,100756000,0.003513885,0.0012461214,-0.0024155586
100860000,100860000,-0.0008049535,-0.0004096724,-0.0037748036
100956000,100956000,-0.0021616882,-0.0015183233,0.0013467299
101060000,101060000,-0.002106459,-0.002911002,0.003846972
101160000,101160000,0.001242909,0.0005780099,0.0016946832
101260000,101260000,4.0869927e-05,-0.0026162807,0.0010857277
101356000,101356000,0.0040318337,6.8939524e-05,-0.0007966004
101460000,101460000,0.002278438,-0.0007372903,0.00049745705
101560000,101560000,0.004652778,-0.0012293302,0.0010987855
101656000,101656000,0.0011732791,-0.003353542,0.00013574428
101760000,101760000,0.0011806369,0.0020803735,0.0012713331
101856000,101856000,-0.0007180411,-0.0015641476,-0.00257146
101956000,101956000,0.0006441563,-0.0010840595,0.00021412638
102060000,102060000,0.0013615409,-0.0036518453,0.0028404356
102160000,102160000,0.00022912046,-0.006510144,-0.0006726983
102256000,102256000,-0.0016184836,0.0026589008,0.0033456865
102360000,102360000,-0.0030044857,0.0026809904,-0.00028084242
102460000,102460000,-0.0031099394,-0.0051999893,-0.0030989565
102560000,102560000,-0.0014566055,-0.0014175553,0.0011387531
102660000,102660000,-0.0020053494,-0.0014101408,-0.0021841836
102756000,102756000,0.0027274906,-0.0016140918,-0.0016593838
102860000,102860000,-0.0008848725,-0.00051797763,-0.0001593082
102960000,102960000,-0.0025354489,-0.000538526,0.0021003515
103060000,103060000,0.0010459708,-0.005331438,0.003321124
103160000,103160000,-0.002610565,-0.0031116665,0.0043770983
103256000,103256000,0.0006878734,-0.0012407533,0.0021202622
103356000,103356000,0.0036285322,0.0012550204,0.0016138316
103460000,103460000,-0.0010999505,-0.00026613474,0.0007172965
103560000,103560000,0.0005838095,-0.0055791987,0.0017289219
103656000,103656000,-0.00080229016,-0.0021587282,-0.0058554807
103756000,103756000,-0.00012763761,-0.0020515248,0.0010449281
103856000,103856000,-0.0019016828,0.00021765486,0.004753262
103960000,103960000,-0.00083744,-0.0035500308,0.00051496434
104056000,104056000,-0.00081608724,-0.0056834416,-0.0005495137
104156000,104156000,0.0011779759,-0.0022161414,4.321453e-06
104260000,104260000,0.0004791101,-0.00026154832,-0.0023750362
104360000,104360000,0.002932443,-0.0010476233,0.0010013846
104456000,104456000,-1.2457313e-05,-0.0016228107,0.0033597269
104560000,104560000,-0.0028147968,0.0015267784,0.0023481993
104660000,104660000,-0.0012243518,-0.0013298178,-0.0028182627
104760000,104760000,0.0042503225,0.0015444102,-0.00022679177
104860000,104860000,0.00042309627,-0.0005142464,0.00013743539
104956000,104956000,0.00092611846,-0.0024750119,-7.028179e-05
105060000,105060000,0.0015666604,-0.0073118,0.0006104359
105156000,105156000,-0.0008173244,0.0021141581,0.0015649039
105260000,105260000,-0.00022145608,-0.0067757363,0.00036288207
105356000,105356000,0.0011845045,-0.0005329127,0.004261059
105456000,105456000,-0.005121027,-0.0028186648,-0.00060169765
105560000,105560000,0.0022360615,0.0010732493,-0.0027359873
105660000,105660000,0.0043011256,-0.0012203179,-0.0013938879
105760000,105760000,0.00070475903,-0.003037624,-0.002270307
105860000,105860000,0.0012503276,-0.0039198576,0.0003718796
105956000,105956000,0.002377461,-0.001504522,0.0017176602
106060000,106060000,0.0031454137,-0.0029281154,-0.00019567733
106160000,106160000,-6.587061e-05,-0.0043425406,-0.0038427275
106260000,106260000,-0.0039157397,-0.001517565,0.0023367521
106356000,106356000,-0.0033281783,-0.0028763404,0.0012873232
106456000,106456000,0.0035087045,-0.007166783,0.0018579736
106560000,106560000,0.0008346162,-0.0015090578,-0.005145224
106656000,106656000,0.00036843907,0.00069531286,-0.0012654925
106756000,106756000,-0.002157056,-0.00463485,0.00081610633
106860000,106860000,0.0033252,0.0008850987,-0.0024067904
106956000,106956000,0.003811513,-0.0016328911,-0.003152186
107056000,107056000,-0.00039312043,-0.0044846237,0.00013686746
107156000,107156000,0.0014902235,-0.0014787895,-0.001070669
107260000,107260000,0.0029709362,-0.0020684204,0.0018003823
107360000,107360000,-0.0006181693,0.0024493805,0.0015603737
107456000,107456000,0.0050966265,-0.003705569,-0.0025584258
107556000,107556000,0.005323321,0.0027047782,-0.00019244605
107660000,107660000,-0.00532312,-0.0102634765,-0.00292926
107756000,107756000,0.005957215,0.0006606099,-0.00018141884
107860000,107860000,0.0016846973,0.0008694669,0.0017783585
107960000,107960000,0.00038787047,0.003843815,0.00030236907
108056000,108056000,-0.0015673307,-7.388764e-05,0.001857132
108156000,108156000,0.0013298278,-0.0009473518,-0.002474924
108260000,108260000,-0.0020596806,-0.003913788,0.0019325092
108360000,108360000,-0.0016394937,-0.0070281457,0.001608348
108460000,108460000,0.002607614,-0.0033705155,-0.0015672618
108556000,108556000,-0.0016653275,-0.005396164,-0.00039398443
108660000,108660000,-0.0016308555,-0.002439666,-5.6627614e-05
108760000,108760000,-0.0013433348,0.001042004,0.0019111966
108860000,108860000,0.0021689557,-0.0040880525,0.0014170227
108956000,108956000,-0.003115798,0.0015180856,-0.006810477
109056000,109056000,0.0016262202,0.0028176415,0.00019066391
109160000,109160000,0.0068368996,0.0027432644,0.0033902694
109256000,109256000,0.0014141311,-0.0037032275,0.00094094215
109356000,109356000,-0.0037941393,-0.004370323,-0.0026898484
109460000,109460000,-0.0021346621,-0.00475143,-0.002181334
109556000,109556000,-0.0011349255,-0.0021117376,-0.004576471
109660000,109660000,0.0015884131,-0.0008133375,-0.0020709378
109760000,109760000,0.0010504016,-0.0043978863,9.426143e-05
109860000,109860000,-0.001695668,-0.0009425285,0.0041443952
109960000,109960000,0.0033180176,0.0012590548,0.0005537893
110060000,110060000,0.0023257693,-0.004499276,-0.0017586374
110156000,110156000,0.004368567,-0.0029975532,0.0021551275
110260000,110260000,0.0053833374,-0.00041554682,-0.0011646715
110360000,110360000,-0.002271076,-0.004570282,-0.0013355253
110456000,110456000,-0.0015129263,-0.0068873265,0.0014189116
110560000,110560000,-0.0021200893,-0.0020815446,0.00017628854
110656000,110656000,-0.00059981307,-0.00533687,-3.1442672e-05
110760000,110760000,0.0034408544,-0.003471159,0.0041168393
110860000,110860000,-0.0006620196,0.00019513001,-0.0024048486
110960000,110960000,-0.0031906823,-0.0069855265,0.0019108352
111060000,111060000,-0.0019502909,-0.0027024653,0.002493294
111160000,111160000,0.00025070494,0.00026049046,-0.0003232257
111256000,111256000,-0.0032722764,-0.0076908767,0.00020537135
111360000,111360000,-0.0003886186,-0.005451753,-0.00063878595
111460000,111460000,0.002646824,-0.0008370748,0.0012157869
111560000,111560000,3.4923112e-05,-0.0028076188,-3.7478807e-05
111656000,111656000,0.0029375867,-0.0057563763,0.0032425905
111760000,111760000,-0.001976675,-0.0017735694,-0.0022124196
111860000,111860000,-0.0012959176,-0.0029657762,0.003071265
111956000,111956000,0.004197301,-0.002231138,0.005866182
112060000,112060000,0.0029748057,-0.00032104272,-0.00041813793
112156000,112156000,0.0056176125,-0.0045416467,0.0012279872
112260000,112260000,0.003171115,-0.002192941,0.008415397
112360000,112360000,0.0012656288,-0.0084839,-0.00010450138
112456000,112456000,0.0012503384,-0.00059229694,0.000686643
112556000,112556000,0.0008383136,-0.004217935,-0.00038054137
112660000,112660000,-0.00045244553,-0.0040734624,-0.0025348424
112756000,112756000,0.00026373737,-0.0010106554,-1.7826562e-05
112860000,112860000,-0.00082746556,-0.00014508655,0.0013902958
112956000,112956000,0.0001175802,-0.0009292844,0.0038327018
113060000,113060000,-0.0032628924,-0.0075181215,-0.002873047
113160000,113160000,-0.0006396284,-0.00050617964,-0.00054928544
113260000,113260000,0.002634099,-0.0044455333,-0.00046320626
113360000,113360000,-0.004931552,0.00010205223,0.0026653816
113456000,113456000,0.0031414852,-0.0016701011,0.003116358
113560000,113560000,0.00090635824,-0.0052520335,0.0011881425
113656000,113656000,-0.0075396895,-0.004763817,0.005583847
113760000,113760000,-0.0015589979,-0.0009527479,0.004705025
113860000,113860000,0.00063229876,-0.0019124591,0.0018991341
113960000,113960000,-0.00065936265,0.0002136426,-0.0010911375
114056000,114056000,-0.0003857105,-0.004302246,-0.0036800383
114160000,114160000,0.0015769,0.0025958,-0.0017567592
114256000,114256000,-0.0006257665,-0.004346195,0.0026178868
114356000,114356000,0.0037527692,-0.0042382507,0.0019764383
114460000,114460000,0.00016139785,-0.0025382454,-0.0023577316
114560000,114560000,-0.0024605487,-0.0055215936,6.195565e-06
114656000,114656000,-0.00026360754,-0.008532048,2.971536e-05
114760000,114760000,-0.0007286803,-0.0011128727,-0.0038474372
114860000,114860000,0.00073981,-0.005488231,0.0012324434
114960000,114960000,-0.00046404195,-0.0043163993,4.54018e-05
115056000,115056000,-0.0041149086,-0.00050992216,-0.0073687946
115156000,115156000,-0.0009145587,-0.0029621788,0.0018736967
115256000,115256000,0.0004528065,0.0014580663,0.000528186
115360000,115360000,-0.0010798551,-0.0011568824,0.0022200956
115460000,115460000,0.0021955254,-0.002260526,0.0040740105
115556000,115556000,-0.0025593536,-0.0026499885,-0.0019086723
115660000,115660000,-0.0048381146,-0.00032570772,0.002694125
115756000,115756000,-0.0011126106,0.002716099,0.002281834
115860000,115860000,-0.0008593106,-0.00092174474,-0.0018270378
115960000,115960000,0.0021574672,0.0013059019,-0.00091993046
116060000,116060000,0.0035247356,-0.0005498575,-0.0021695422
116160000,116160000,-0.0008913586,-0.0039321,-0.0016928485
116260000,116260000,0.0011796118,-0.0003101558,-0.00043571735
116360000,116360000,0.00045134264,-0.0042563537,0.006665606
116456000,116456000,6.0681894e-05,-0.0019641358,0.0026569818
116560000,116560000,0.0037185596,-0.0021072421,0.0029641853
116656000,116656000,0.0023074516,0.0010817097,0.0039500385
116760000,116760000,-0.00027090215,-0.008043239,0.0032981646
116856000,116856000,0.003693954,-0.005153629,0.003110883
116960000,116960000,-0.0024328702,-0.0008980526,-0.0013531175
117056000,117056000,0.001902909,-0.0068182535,0.0022796448
117160000,117160000,-0.0045678075,-0.00079086015,-0.0054260986
117256000,117256000,-0.00020896687,0.0009689762,-0.0004116366
117356000,117356000,0.003361306,-0.0029759211,0.00022023974
117460000,117460000,-0.0010339749,-0.0042890897,0.0018126701
117556000,117556000,0.0041969786,-0.0048282268,0.00031976678
117656000,117656000,0.00093759474,-0.0009716293,0.0010414261
117756000,117756000,0.00436571,-0.003041808,-0.0016267619
117856000,117856000,-0.0028595182,-0.0014738326,0.000561491
117956000,117956000,-0.005536655,-0.0050868276,0.001245611
118060000,118060000,0.0006341719,-0.006123416,-0.0014540139
118156000,118156000,-0.0048542214,-0.0057334094,0.0036696005
118260000,118260000,0.0013551118,0.0024665436,0.00083579787
118356000,118356000,-0.0012739165,-0.005741559,0.00065072795
118460000,118460000,0.0034503802,-0.0015991505,0.0033327888
118560000,118560000,0.003285076,-0.003347034,-0.000337029
118660000,118660000,0.00037162274,-0.0051309033,-0.0024409895
118756000,118756000,0.00790919,-0.0030821282,-0.002201673
118860000,118860000,0.002062393,-0.004219454,-0.0015432321
118960000,118960000,0.0027677256,-0.0055171517,-0.0011659905
119060000,119060000,-0.0046206177,-0.0009451079,-0.00069647364
119160000,119160000,0.0011376287,-0.0014296719,0.0006322897
119256000,119256000,0.0023004266,-0.004194472,0.0005908104
119360000,119360000,-0.0018078538,-0.0012179168,0.0057897433
119456000,119456000,-0.0007303513,-0.0033557168,0.0070995833
119556000,119556000,-0.0012618701,-0.0044861166,-0.0007255845
119660000,119660000,0.002644482,-0.0031457357,0.0006992714
119756000,119756000,-0.0025874518,-0.00022525073,9.741547e-05
119860000,119860000,0.0037380243,-0.0026995975,7.507141e-05
119960000,119960000,-0.0027578138,0.0013556373,-5.0930365e-05
120060000,120060000,-0.0019958867,-3.563473e-06,0.004494267
120160000,120160000,-0.00105401,-0.005228972,-0.0023289204
120260000,120260000,0.00081402226,-0.003273764,-0.0004086587
120360000,120360000,-0.006884969,-0.0015477034,0.0032513079
120460000,120460000,-0.0014527212,-0.0011891278,-0.00050941255
120560000,120560000,0.0025096133,-0.0030719365,0.002445528
120660000,120660000,-0.0015042028,-0.0034472838,0.0013009311
120756000,120756000,0.0031429036,-0.004363899,0.002318989
120860000,120860000,-0.0008146077,-0.0013943167,0.004634655
120960000,120960000,0.0006059298,-0.0020289537,0.00040904398
121060000,121060000,0.0023232484,-0.0048593953,0.00096643716
121160000,121160000,0.0014144041,-0.00042753667,0.0013857184
121256000,121256000,-0.0028764233,-0.0011513749,-0.0006601077
121360000,121360000,0.0020954325,-0.002489449,0.0032525645
121456000,121456000,0.0019381947,-0.0013587166,-0.0011661793
121560000,121560000,-0.003649547,-0.0021482804,0.00140477
121656000,121656000,-0.0034530796,0.0010783828,-0.0018341193
121756000,121756000,-0.00058528956,0.0025832253,0.0028362884
121860000,121860000,0.0020359424,-0.0017362338,0.002419123
121960000,121960000,0.00072645966,-0.0046362286,0.0026684883
122056000,122056000,-0.0018034596,0.00015437754,-0.0015320587
122160000,122160000,0.0014882109,-0.0032070456,-0.0017549715
122256000,122256000,-0.00046456407,0.0014012745,0.0021589566
122360000,122360000,0.004522021,-0.002548352,-0.00075788255
122460000,122460000,0.0008878414,-0.0023211522,-0.0025710529
122556000,122556000,0.0025691055,-0.0046678875,-0.0038881574
122660000,122660000,0.0027731967,-0.0023812961,0.0029197922
122756000,122756000,0.0038284352,0.00024237751,0.003215826
122856000,122856000,-0.00036014616,-0.0020024288,0.0021935613
122960000,122960000,-0.0002981888,-0.003326056,0.0011268719
123060000,123060000,0.0027975878,-0.003123805,-1.5177298e-05
123160000,123160000,-0.0021011601,-0.00036524073,0.002327634
123260000,123260000,0.0056425342,0.00217239,-0.0043730177
123356000,123356000,-0.0012540139,-0.002349277,-0.0036951578
123456000,123456000,0.0027114544,-0.00088921364,0.00097386166
123560000,123560000,0.0018542905,-0.0041130716,0.0027421764
123660000,123660000,-0.00037798224,-0.0018044474,-0.00038623565
123760000,123760000,0.00010388272,-0.0026826542,-0.0012417601
123860000,123860000,-0.002886547,-0.00038476347,0.0026523066
123960000,123960000,0.0020144528,-0.0017856976,-0.0009309116
124056000,124056000,-0.000788679,-0.0034412593,0.001101628
124156000,124156000,0.0028691932,-0.00039029447,-0.0011414776
124256000,124256000,-0.0026178218,8.288247e-05,0.0029117595
124360000,124360000,-0.0032015108,0.0012089217,-0.0013620048
124456000,124456000,0.0014516594,0.00074176455,-0.00067885104
124560000,124560000,-0.003247899,0.002475128,-0.006006897
124656000,124656000,0.0030388238,-0.0012085934,-0.0029252076
124760000,124760000,-0.0016847217,-0.00081854366,0.0019407771
124856000,124856000,0.0013973884,0.0016716896,0.0036101919
124960000,124960000,-0.0012473442,-0.0015990147,-0.0022331285
125060000,125060000,0.0012871315,-0.0032658465,-6.704661e-05
125156000,125156000,-0.0030773354,-0.005165819,-0.00077282084
125260000,125260000,-0.0030425962,-0.0024842368,-0.0030390513
125360000,125360000,0.00084909034,-0.0026478665,-0.0036187433
125456000,125456000,0.002359871,-0.00137974,-0.00077716174
125560000,125560000,0.0006878162,-0.0052313698,0.00476965
125660000,125660000,-0.0013688044,0.0035565495,0.0060029062
125760000,125760000,0.00016146607,-0.00346547,-0.002213873
125860000,125860000,0.0037106595,0.0002551456,0.0022354666
125960000,125960000,0.003221551,-0.0020503525,0.001920569
126060000,126060000,-8.045815e-05,-0.0018314193,-0.0005644292
126156000,126156000,-0.001757825,-0.0017015329,0.0012788323
126260000,126260000,0.0016120336,-0.0012142698,0.0020495998
126356000,126356000,-0.004730606,0.0024368088,0.0003853078
126456000,126456000,0.0008713889,-0.0012349221,-0.003560823
126556000,126556000,0.006319813,0.00044221547,-0.002670804
126660000,126660000,-0.0050243526,0.0006965869,0.0014896056
126760000,126760000,-0.0029027911,-0.002082699,0.00033167514
126860000,126860000,0.0014417402,0.0015186245,0.0037923127
126956000,126956000,0.0038349084,0.0021629562,-0.0019679563
127060000,127060000,0.00022323756,-0.004721768,0.0007213358
127156000,127156000,-0.0022789754,-0.0003860165,-0.0014158918
127256000,127256000,0.00078759174,0.0024846736,-0.0015888227
127360000,127360000,0.0020836068,-0.0013524251,-0.0015848008
127456000,127456000,-0.0007335695,-0.006014317,0.0025912488
127560000,127560000,0.002740647,-0.0031258492,0.0026805988
127660000,127660000,0.0010324068,-0.006987112,-0.0003926872
127760000,127760000,0.0007274011,-0.003871039,0.0027567465
127860000,127860000,-0.0029740403,-0.00082805817,0.00056514813
127960000,127960000,-0.0026175412,-0.003273303,-0.0067424746
128060000,128060000,0.00037984134,-0.003123022,0.0045964397
128156000,128156000,-0.004776975,0.001324101,-0.0044442983
128260000,128260000,-0.002322964,0.0017923601,0.0054476033
128360000,128360000,-0.00476451,-0.0024610108,-0.00020842417
128460000,128460000,0.0009872678,0.0015648889,0.00075034547
128556000,128556000,-0.0012540368,-0.003993267,-0.00047488703
128660000,128660000,0.0028324556,-0.00266445,0.00060330145
128756000,128756000,0.00048923475,0.00086664665,-4.9984956e-06
128860000,128860000,0.0018950715,-0.0018651912,-0.00010457152
128960000,128960000,0.0019724271,-0.0064553097,9.4657036e-05
129060000,129060000,0.0020341517,0.002108038,0.0008920006
129160000,129160000,-0.0041509056,-0.00034333504,-0.002926183
129256000,129256000,0.001601522,-0.00036540604,-0.0007590988
129360000,129360000,0.003906608,0.0033322172,-0.0017062837
129460000,129460000,-0.0004389622,-0.0007385564,-0.00203366
129556000,129556000,0.00010733958,-0.0029144417,0.0022994527
129656000,129656000,0.0037146655,0.0013981138,0.0006290333
129760000,129760000,-0.00081283436,-0.0015886589,-0.0011966943
129856000,129856000,-0.00048863835,-0.00035432732,-0.0018575583
129960000,129960000,0.0050675417,-0.0033691002,-0.0022011148
130060000,130060000,0.0010459868,-0.006169114,0.0020302285
130160000,130160000,-0.0018199282,0.00056850904,0.0016792391
130260000,130260000,0.00038085418,-0.0017717103,-0.0010166983
130356000,130356000,0.005248126,0.0007103806,-0.00080738286
130456000,130456000,0.0027182223,0.00066883117,-0.00059512694
130560000,130560000,-0.0006396971,0.002121758,-2.7586764e-05
130660000,130660000,-0.003019099,-0.002746133,0.0004257773
130756000,130756000,-0.004436064,0.0016970921,-0.00041296455
130860000,130860000,0.00013169844,0.0011413035,-0.0012654349
130960000,130960000,-0.00030472485,-0.004290664,-0.0016987277
131060000,131060000,0.0009961847,-7.246266e-05,-0.000113906804
131160000,131160000,-0.001959636,-0.0027769045,0.0015486185
131256000,131256000,-7.918544e-05,-0.002753296,0.002872141
131360000,131360000,0.0009492802,0.0054726065,-0.0040036463
131460000,131460000,-0.00032682132,-0.0016078696,0.004412987
131556000,131556000,0.0018941374,-0.0018217522,-0.0021118806
131660000,131660000,-0.0033995428,-0.00042709205,0.0047451546
131756000,131756000,-0.0004903851,0.0005692432,-4.814405e-05
131856000,131856000,0.0025553915,0.0039613284,-0.0014623739
131956000,131956000,-0.003232889,0.0013049982,-0.0053049615
132060000,132060000,-0.002348584,0.0014050344,0.0033458248
132156000,132156000,0.00021597877,0.0012402212,0.0037908866
132260000,132260000,0.0002863444,-0.003510953,0.001019361
132360000,132360000,-0.0009959425,-0.0014522562,-0.0020394316
132460000,132460000,-0.0027713254,-0.00036750478,-0.0016254496
132560000,132560000,-0.0052462346,5.368085e-05,0.00077535043
132660000,132660000,-0.00490725,0.00095824845,-0.00039441147
132756000,132756000,-0.002503484,0.0034369463,0.0014742932
132856000,132856000,0.0019357073,-0.0013439036,0.0025819424
132956000,132956000,0.0010137277,-0.0018852866,0.0032632845
133056000,133056000,0.00027138158,-0.00020740653,0.0007526784
133156000,133156000,-0.0008927112,-0.0013140005,0.0042648413
133256000,133256000,-0.005015972,-0.00012474816,0.0017778623
133360000,133360000,-0.0052299434,0.0018106821,0.0015798334
133456000,133456000,0.0009579102,0.00019596174,0.0010483405
133556000,133556000,-0.0014260509,-0.0009315667,0.0030438881
133656000,133656000,0.00050912896,-0.0031240117,0.0019413679
133760000,133760000,0.0018603469,0.002454916,-0.00011865076
133860000,133860000,-0.0026922368,0.00011545612,-0.0010340263
133956000,133956000,-0.0054291096,0.0017916246,0.001416175
134060000,134060000,0.001767221,0.0023918594,0.0009891343
134160000,134160000,-0.0017139892,0.0046777017,-0.0042069014
134260000,134260000,0.0007215047,-0.0005980381,0.00047184445
134360000,134360000,-0.0028527293,-0.00012165628,0.0004918333
134460000,134460000,-0.003966419,0.0018442462,0.0052167373
134560000,134560000,-0.0006401197,-0.0030076236,-0.00054860103
134656000,134656000,-0.0018634081,0.0018868297,0.0014471215
134760000,134760000,0.0018480987,-0.0017309096,0.0032704487
134856000,134856000,-0.001426821,-0.0026254198,-0.0012862532
134960000,134960000,-4.7031266e-05,-0.0015568286,0.004344385
135060000,135060000,0.0004840176,-0.003847318,0.0015920093
135160000,135160000,0.0017862809,-0.00013941695,-0.00020179476
135260000,135260000,-0.00044985532,0.005218491,0.00036432158
135360000,135360000,-0.0024897354,0.0023618175,0.0018280522
135456000,135456000,-0.004051122,-0.003269471,-0.0013806918
135556000,135556000,-0.0018559205,-0.002941193,0.002583195
135660000,135660000,-0.0006016965,-0.00084154494,0.001736446
135760000,135760000,-0.00082974747,-0.0006027856,0.000417624
135860000,135860000,-0.00035624497,0.0031235116,-0.004685086
135960000,135960000,-0.001616352,-0.0060079778,-0.0035664178
136060000,136060000,0.0012604893,-0.00021682135,-0.0050460123
136160000,136160000,0.0017500547,3.248197e-05,0.0013391702
136260000,136260000,0.0019713817,-0.003503309,0.0036926134
136360000,136360000,-0.0036527873,-0.0024481858,0.0031424258
136460000,136460000,0.0013708215,-0.00048777834,-0.00020796582
136556000,136556000,0.0036518797,-0.0006460512,-0.0024269093
136660000,136660000,-0.00013522658,0.0035936385,-0.0015706276
136756000,136756000,0.0018534074,0.0026717621,0.0020361992
136860000,136860000,0.003298848,0.0007094347,-0.0006185841
136960000,136960000,0.0008277726,-0.0004898363,0.0033776904
137060000,137060000,-0.004481294,-0.006659588,-0.0045400197
137160000,137160000,-0.0012984896,-0.0024554515,-0.0039706
137260000,137260000,-0.00055908744,0.0015828889,-0.0031486745
137356000,137356000,0.00048046416,-0.0014623913,-0.0009722608
137460000,137460000,-0.0014678447,0.0012069906,-0.0033672557
137560000,137560000,0.0001066908,0.0024590995,-0.0007094276
137656000,137656000,0.00018121762,-0.001814656,-0.0026900608
137756000,137756000,-0.0017094776,0.0009316811,-0.0030055027
137860000,137860000,-0.00072834437,0.0005322149,-0.0018402596
137960000,137960000,0.0007368095,-0.0011637595,0.0023685468
138056000,138056000,-0.003300553,-0.00302438,-0.0010588614
138156000,138156000,0.0003251413,0.00018833968,-0.0007226798
138256000,138256000,-0.0008626956,-0.000886074,0.0022566854
138356000,138356000,-0.0016186903,-0.0003592709,0.0018375639
138460000,138460000,-0.0027555828,-0.001258716,-0.0016914911
138560000,138560000,0.0023222496,-0.0031453029,-0.0035588355
138656000,138656000,-0.0059151594,0.0055572344,-0.0010297117
138760000,138760000,-0.0011378602,0.0003400505,-0.00025034347
