timestamp,timestamp_sample,q[0],q[1],q[2],q[3],delta_q_reset[0],delta_q_reset[1],delta_q_reset[2],delta_q_reset[3],quat_reset_counter
96976000,96976000,-0.8769241,0.014464622,0.023723254,0.47982526,0.9999986,-1.1641532e-10,0.0,-0.001671046,1
97056000,97056000,-0.8769589,0.014548673,0.023721745,0.4797592,0.9999986,-1.1641532e-10,0.0,-0.001671046,1
97156000,97156000,-0.87698454,0.014676138,0.023784712,0.4797052,0.9999986,-1.1641532e-10,0.0,-0.001671046,1
97256000,97256000,-0.8770098,0.014698893,0.023945125,0.4796502,0.9999986,-1.1641532e-10,0.0,-0.001671046,1
97356000,97356000,-0.8770015,0.014683385,0.024044411,0.47966105,0.9999986,-1.1641532e-10,0.0,-0.001671046,1
97456000,97456000,-0.8770279,0.014771554,0.024121907,0.47960606,0.9999986,-1.1641532e-10,0.0,-0.001671046,1
97556000,97556000,-0.8770396,0.014859692,0.024183204,0.4795787,0.9999986,-1.1641532e-10,0.0,-0.001671046,1
97656000,97656000,-0.8770778,0.0148407975,0.024184072,0.47950974,0.9999986,-1.1641532e-10,0.0,-0.001671046,1
97756000,97756000,-0.87708986,0.014839188,0.024264017,0.47948375,0.9999986,-1.1641532e-10,0.0,-0.001671046,1
97856000,97856000,-0.87706304,0.014914416,0.024212563,0.4795328,0.9999986,-1.1641532e-10,0.0,-0.001671046,1
97956000,97956000,-0.87707573,0.01498238,0.024325203,0.47950175,0.9999986,-1.1641532e-10,0.0,-0.001671046,1
98056000,98056000,-0.8770164,0.015082201,0.024402546,0.47960314,0.9999986,-1.1641532e-10,0.0,-0.001671046,1
98156000,98156000,-0.87701815,0.015129582,0.024440696,0.47959659,0.9999986,-1.1641532e-10,0.0,-0.001671046,1
98256000,98256000,-0.8769993,0.015257121,0.024492998,0.47962457,0.9999986,-1.1641532e-10,0.0,-0.001671046,1
98356000,98356000,-0.87699866,0.015359028,0.024553025,0.47961912,0.9999986,-1.1641532e-10,0.0,-0.001671046,1
98456000,98456000,-0.87703943,0.015557041,0.024580896,0.47953692,0.9999986,-1.1641532e-10,0.0,-0.001671046,1
98556000,98556000,-0.8770053,0.015723925,0.024656279,0.47959006,0.9999986,-1.1641532e-10,0.0,-0.001671046,1
98656000,98656000,-0.8770182,0.015765509,0.02473989,0.47956085,0.9999986,-1.1641532e-10,0.0,-0.001671046,1
98756000,98756000,-0.87702435,0.01590546,0.024908299,0.47953635,0.9999986,-1.1641532e-10,0.0,-0.001671046,1
98856000,98856000,-0.8770471,0.015994933,0.024940664,0.47948983,0.9999986,-1.1641532e-10,0.0,-0.001671046,1
98956000,98956000,-0.8770236,0.016129065,0.024986126,0.47952595,0.9999986,-1.1641532e-10,0.0,-0.001671046,1
99056000,99056000,-0.87707657,0.016245274,0.025002697,0.47942427,0.9999986,-1.1641532e-10,0.0,-0.001671046,1
99156000,99156000,-0.8770871,0.016431527,0.02502887,0.4793973,0.9999986,-1.1641532e-10,0.0,-0.001671046,1
99256000,99256000,-0.8770679,0.016538719,0.025052719,0.47942746,0.9999986,-1.1641532e-10,0.0,-0.001671046,1
99356000,99356000,-0.87708443,0.01663395,0.02514325,0.4793892,0.9999986,-1.1641532e-10,0.0,-0.001671046,1
99456000,99456000,-0.87710416,0.016804038,0.025169434,0.47934583,0.9999986,-1.1641532e-10,0.0,-0.001671046,1
99556000,99556000,-0.87711394,0.017090745,0.025268827,0.47931248,0.9999986,-1.1641532e-10,0.0,-0.001671046,1
99656000,99656000,-0.87711555,0.017207984,0.0253735,0.47930014,0.9999986,-1.1641532e-10,0.0,-0.001671046,1
99756000,99756000,-0.87714475,0.017361721,0.02537572,0.47924072,0.9999986,-1.1641532e-10,0.0,-0.001671046,1
99856000,99856000,-0.87716174,0.017449887,0.025425598,0.47920382,0.9999986,-1.1641532e-10,0.0,-0.001671046,1
99956000,99956000,-0.8771725,0.017503154,0.025408933,0.47918302,0.9999986,-1.1641532e-10,0.0,-0.001671046,1
100056000,100056000,-0.87720776,0.017565222,0.025403079,0.47911662,0.9999986,-1.1641532e-10,0.0,-0.001671046,1
100156000,100156000,-0.8772376,0.017579911,0.0254422,0.47905952,0.9999986,-1.1641532e-10,0.0,-0.001671046,1
100256000,100256000,-0.87726724,0.01770235,0.025367746,0.47900438,0.9999986,-1.1641532e-10,0.0,-0.001671046,1
100356000,100356000,-0.8773027,0.017810948,0.025493521,0.47892877,0.9999986,-1.1641532e-10,0.0,-0.001671046,1
100456000,100456000,-0.8773204,0.01788481,0.025569903,0.4788898,0.9999986,-1.1641532e-10,0.0,-0.001671046,1
100556000,100556000,-0.8773257,0.017962161,0.025626272,0.47887406,0.9999986,-1.1641532e-10,0.0,-0.001671046,1
100656000,100656000,-0.8773965,0.018138198,0.02558292,0.4787398,0.9999986,-1.1641532e-10,0.0,-0.001671046,1
100756000,100756000,-0.8773613,0.018225698,0.02553211,0.47880387,0.9999986,-1.1641532e-10,0.0,-0.001671046,1
100856000,100856000,-0.87739015,0.018440843,0.02557709,0.4787405,0.9999986,-1.1641532e-10,0.0,-0.001671046,1
100956000,100956000,-0.8773831,0.018561022,0.025576867,0.47874853,0.9999986,-1.1641532e-10,0.0,-0.001671046,1
101056000,101056000,-0.8774035,0.018638112,0.025590442,0.47870755,0.9999986,-1.1641532e-10,0.0,-0.001671046,1
101156000,101156000,-0.8774426,0.018797787,0.025648572,0.47862652,0.9999986,-1.1641532e-10,0.0,-0.001671046,1
101256000,101256000,-0.87748104,0.018938592,0.025717031,0.47854677,0.9999986,-1.1641532e-10,0.0,-0.001671046,1
101356000,101356000,-0.8775261,0.0189871,0.02580597,0.4784575,0.9999986,-1.1641532e-10,0.0,-0.001671046,1
101456000,101456000,-0.87755567,0.019034108,0.025818607,0.47840065,0.9999986,-1.1641532e-10,0.0,-0.001671046,1
101556000,101556000,-0.8775557,0.01911879,0.02587514,0.47839403,0.9999986,-1.1641532e-10,0.0,-0.001671046,1
101656000,101656000,-0.8775634,0.019239744,0.025910411,0.4783733,0.9999986,-1.1641532e-10,0.0,-0.001671046,1
101756000,101756000,-0.8776088,0.019390985,0.025975274,0.4782804,0.9999986,-1.1641532e-10,0.0,-0.001671046,1
101856000,101856000,-0.87762445,0.019525837,0.025935486,0.47824836,0.9999986,-1.1641532e-10,0.0,-0.001671046,1
101956000,101956000,-0.877585,0.019595735,0.02600961,0.47831404,0.9999986,-1.1641532e-10,0.0,-0.001671046,1
102056000,102056000,-0.8775803,0.019748041,0.026141977,0.47830898,0.9999986,-1.1641532e-10,0.0,-0.001671046,1
102160000,102160000,-0.8775492,0.019846702,0.02629915,0.47835353,0.9999986,-1.1641532e-10,0.0,-0.001671046,1
102256000,102256000,-0.87759525,0.019942436,0.026225982,0.478269,0.9999986,-1.1641532e-10,0.0,-0.001671046,1
102356000,102356000,-0.87761736,0.020072527,0.026278635,0.47822002,0.9999986,-1.1641532e-10,0.0,-0.001671046,1
102456000,102456000,-0.8776195,0.020197725,0.026347809,0.47820702,0.9999986,-1.1641532e-10,0.0,-0.001671046,1
102560000,102560000,-0.87764144,0.02024672,0.0263551,0.47816432,0.9999986,-1.1641532e-10,0.0,-0.001671046,1
102656000,102656000,-0.87767154,0.020350564,0.026366549,0.47810394,0.9999986,-1.1641532e-10,0.0,-0.001671046,1
102756000,102756000,-0.87769413,0.020440683,0.026516004,0.4780504,0.9999986,-1.1641532e-10,0.0,-0.001671046,1
102856000,102856000,-0.8777096,0.020538427,0.026560614,0.47801524,0.9999986,-1.1641532e-10,0.0,-0.001671046,1
102956000,102956000,-0.8777421,0.020683618,0.026623275,0.47794586,0.9999986,-1.1641532e-10,0.0,-0.001671046,1
103056000,103056000,-0.8777867,0.020753574,0.026698742,0.4778567,0.9999986,-1.1641532e-10,0.0,-0.001671046,1
103156000,103156000,-0.8778156,0.020872205,0.02669463,0.47779864,0.9999986,-1.1641532e-10,0.0,-0.001671046,1
103256000,103256000,-0.87782794,0.021066438,0.026845928,0.477759,0.9999986,-1.1641532e-10,0.0,-0.001671046,1
103356000,103356000,-0.87786233,0.021170935,0.026867101,0.47769007,0.9999986,-1.1641532e-10,0.0,-0.001671046,1
103456000,103456000,-0.87789243,0.021231085,0.026891747,0.47763053,0.9999986,-1.1641532e-10,0.0,-0.001671046,1
103556000,103556000,-0.87790275,0.021346932,0.0269588,0.4776027,0.9999986,-1.1641532e-10,0.0,-0.001671046,1
103656000,103656000,-0.87788075,0.02146016,0.02702431,0.47763437,0.9999986,-1.1641532e-10,0.0,-0.001671046,1
103756000,103756000,-0.8779128,0.021537164,0.02705875,0.47756994,0.9999986,-1.1641532e-10,0.0,-0.001671046,1
103856000,103856000,-0.87795436,0.02166932,0.02702164,0.47748977,0.9999986,-1.1641532e-10,0.0,-0.001671046,1
103956000,103956000,-0.8779513,0.021758694,0.026966719,0.4774944,0.9999986,-1.1641532e-10,0.0,-0.001671046,1
104056000,104056000,-0.8779404,0.021990992,0.02704751,0.47749916,0.9999986,-1.1641532e-10,0.0,-0.001671046,1
104156000,104156000,-0.8779306,0.022185177,0.027032344,0.47750914,0.9999986,-1.1641532e-10,0.0,-0.001671046,1
104260000,104260000,-0.87797534,0.022288527,0.027027085,0.47742218,0.9999986,-1.1641532e-10,0.0,-0.001671046,1
104356000,104356000,-0.8780047,0.022434969,0.026993994,0.4773634,0.9999986,-1.1641532e-10,0.0,-0.001671046,1
104456000,104456000,-0.8780424,0.022504775,0.027161757,0.4772813,0.9999986,-1.1641532e-10,0.0,-0.001671046,1
104556000,104556000,-0.87805337,0.022664111,0.027274922,0.47724718,0.9999986,-1.1641532e-10,0.0,-0.001671046,1
104656000,104656000,-0.8780909,0.022752397,0.027235826,0.47717592,0.9999986,-1.1641532e-10,0.0,-0.001671046,1
104756000,104756000,-0.87807435,0.022823852,0.027230747,0.47720334,0.9999986,-1.1641532e-10,0.0,-0.001671046,1
104856000,104856000,-0.8780761,0.022992855,0.027301969,0.47718805,0.9999986,-1.1641532e-10,0.0,-0.001671046,1
104956000,104956000,-0.8781114,0.023037657,0.027327018,0.4771195,0.9999986,-1.1641532e-10,0.0,-0.001671046,1
105056000,105056000,-0.8781538,0.023118785,0.027351085,0.47703603,0.9999986,-1.1641532e-10,0.0,-0.001671046,1
105156000,105156000,-0.8781785,0.023251874,0.02737195,0.476983,0.9999986,-1.1641532e-10,0.0,-0.001671046,1
105256000,105256000,-0.8781926,0.02341139,0.027487416,0.47694254,0.9999986,-1.1641532e-10,0.0,-0.001671046,1
105356000,105356000,-0.87821126,0.023457747,0.027569843,0.47690096,0.9999986,-1.1641532e-10,0.0,-0.001671046,1
105456000,105456000,-0.87822884,0.023637453,0.02761336,0.47685727,0.9999986,-1.1641532e-10,0.0,-0.001671046,1
105556000,105556000,-0.87821066,0.023811186,0.027760247,0.4768737,0.9999986,-1.1641532e-10,0.0,-0.001671046,1
105656000,105656000,-0.87819296,0.023904337,0.027933683,0.47689134,0.9999986,-1.1641532e-10,0.0,-0.001671046,1
105756000,105756000,-0.8782336,0.024014818,0.028032083,0.4768054,0.9999986,-1.1641532e-10,0.0,-0.001671046,1
105856000,105856000,-0.8782148,0.024118965,0.028040998,0.47683406,0.9999986,-1.1641532e-10,0.0,-0.001671046,1
105956000,105956000,-0.87823004,0.024251707,0.028261133,0.47678635,0.9999986,-1.1641532e-10,0.0,-0.001671046,1
106056000,106056000,-0.8782465,0.024487205,0.028487694,0.47673038,0.9999986,-1.1641532e-10,0.0,-0.001671046,1
106156000,106156000,-0.87825507,0.024652386,0.02864775,0.4766965,0.9999986,-1.1641532e-10,0.0,-0.001671046,1
106256000,106256000,-0.87831974,0.024782531,0.02866908,0.47656935,0.9999986,-1.1641532e-10,0.0,-0.001671046,1
106356000,106356000,-0.8783388,0.025106018,0.028897194,0.47650352,0.9999986,-1.1641532e-10,0.0,-0.001671046,1
106456000,106456000,-0.8783519,0.025394997,0.029259516,0.47644183,0.9999986,-1.1641532e-10,0.0,-0.001671046,1
106556000,106556000,-0.87836707,0.02564348,0.02937502,0.47639373,0.9999986,-1.1641532e-10,0.0,-0.001671046,1
106656000,106656000,-0.87835073,0.025733268,0.029488916,0.476412,0.9999986,-1.1641532e-10,0.0,-0.001671046,1
106756000,106756000,-0.87839013,0.026058173,0.029866917,0.476298,0.9999986,-1.1641532e-10,0.0,-0.001671046,1
106856000,106856000,-0.87836665,0.026293973,0.030292654,0.47630137,0.9999986,-1.1641532e-10,0.0,-0.001671046,1
106956000,106956000,-0.87834775,0.026550166,0.030583724,0.47630367,0.9999986,-1.1641532e-10,0.0,-0.001671046,1
107056000,107056000,-0.87833726,0.026728194,0.030752316,0.47630185,0.9999986,-1.1641532e-10,0.0,-0.001671046,1
107156000,107156000,-0.87833124,0.02710054,0.031280402,0.47625774,0.9999986,-1.1641532e-10,0.0,-0.001671046,1
107256000,107256000,-0.8783599,0.027408728,0.031796522,0.47615302,0.9999986,-1.1641532e-10,0.0,-0.001671046,1
107356000,107356000,-0.87836826,0.0276018,0.03206715,0.47610846,0.9999986,-1.1641532e-10,0.0,-0.001671046,1
107456000,107456000,-0.8783894,0.027737066,0.032094773,0.47605965,0.9999986,-1.1641532e-10,0.0,-0.001671046,1
107556000,107556000,-0.8783825,0.028025629,0.03266223,0.4760167,0.9999986,-1.1641532e-10,0.0,-0.001671046,1
107656000,107656000,-0.87837416,0.028341375,0.033331737,0.47596696,0.9999986,-1.1641532e-10,0.0,-0.001671046,1
107756000,107756000,-0.87837744,0.028488737,0.03368859,0.47592694,0.9999986,-1.1641532e-10,0.0,-0.001671046,1
107856000,107856000,-0.8783652,0.02854265,0.03380148,0.4759385,0.9999986,-1.1641532e-10,0.0,-0.001671046,1
107956000,107956000,-0.87838537,0.02874357,0.034382988,0.47584733,0.9999986,-1.1641532e-10,0.0,-0.001671046,1
108056000,108056000,-0.8783672,0.02900991,0.034951817,0.47582325,0.9999986,-1.1641532e-10,0.0,-0.001671046,1
108156000,108156000,-0.8783612,0.029156005,0.035249855,0.47580335,0.9999986,-1.1641532e-10,0.0,-0.001671046,1
108256000,108256000,-0.8783598,0.029193977,0.035294138,0.4758007,0.9999986,-1.1641532e-10,0.0,-0.001671046,1
108356000,108356000,-0.8783697,0.029507509,0.035886705,0.47571853,0.9999986,-1.1641532e-10,0.0,-0.001671046,1
108456000,108456000,-0.8783691,0.029764684,0.036459386,0.47566012,0.9999986,-1.1641532e-10,0.0,-0.001671046,1
108556000,108556000,-0.87839735,0.029896976,0.03677289,0.4755754,0.9999986,-1.1641532e-10,0.0,-0.001671046,1
108656000,108656000,-0.87842995,0.030097058,0.03691027,0.47549197,0.9999986,-1.1641532e-10,0.0,-0.001671046,1
108756000,108756000,-0.87846,0.030361839,0.037428293,0.4753791,0.9999986,-1.1641532e-10,0.0,-0.001671046,1
108856000,108856000,-0.8784633,0.03044598,0.03795886,0.47532567,0.9999986,-1.1641532e-10,0.0,-0.001671046,1
108956000,108956000,-0.8784361,0.030664422,0.03827762,0.47533637,0.9999986,-1.1641532e-10,0.0,-0.001671046,1
109056000,109056000,-0.87840486,0.030645465,0.038330827,0.47539082,0.9999986,-1.1641532e-10,0.0,-0.001671046,1
109156000,109156000,-0.8784401,0.030768417,0.03877736,0.47528175,0.9999986,-1.1641532e-10,0.0,-0.001671046,1
109256000,109256000,-0.8784439,0.030838273,0.039300352,0.47522724,0.9999986,-1.1641532e-10,0.0,-0.001671046,1
109356000,109356000,-0.87844956,0.031006984,0.039490677,0.47519,0.9999986,-1.1641532e-10,0.0,-0.001671046,1
109460000,109460000,-0.87850034,0.031176202,0.039625634,0.47507358,0.9999986,-1.1641532e-10,0.0,-0.001671046,1
109556000,109556000,-0.87849694,0.0313268,0.040141046,0.47502685,0.9999986,-1.1641532e-10,0.0,-0.001671046,1
109656000,109656000,-0.87845737,0.031318627,0.04060256,0.47506148,0.9999986,-1.1641532e-10,0.0,-0.001671046,1
109756000,109756000,-0.87844676,0.03146004,0.04089679,0.47504634,0.9999986,-1.1641532e-10,0.0,-0.001671046,1
109856000,109856000,-0.8784708,0.031606354,0.04099961,0.47498336,0.9999986,-1.1641532e-10,0.0,-0.001671046,1
109956000,109956000,-0.87848014,0.03161461,0.041398447,0.47493088,0.9999986,-1.1641532e-10,0.0,-0.001671046,1
110056000,110056000,-0.87849176,0.031574503,0.041908275,0.47486722,0.9999986,-1.1641532e-10,0.0,-0.001671046,1
110156000,110156000,-0.8785216,0.031567033,0.042072877,0.47479808,0.9999986,-1.1641532e-10,0.0,-0.001671046,1
110256000,110256000,-0.87854946,0.03164057,0.042231508,0.4747275,0.9999986,-1.1641532e-10,0.0,-0.001671046,1
110356000,110356000,-0.8785557,0.03166341,0.042588063,0.47468272,0.9999986,-1.1641532e-10,0.0,-0.001671046,1
110456000,110456000,-0.87854534,0.03168823,0.043090772,0.47465476,0.9999986,-1.1641532e-10,0.0,-0.001671046,1
110556000,110556000,-0.87855244,0.031737983,0.04329847,0.47461945,0.9999986,-1.1641532e-10,0.0,-0.001671046,1
110660000,110660000,-0.8785834,0.031891644,0.043422673,0.47454038,0.9999986,-1.1641532e-10,0.0,-0.001671046,1
110756000,110756000,-0.8786049,0.031827938,0.043718245,0.47447777,0.9999986,-1.1641532e-10,0.0,-0.001671046,1
110856000,110856000,-0.87859696,0.031823542,0.04407565,0.47445974,0.9999986,-1.1641532e-10,0.0,-0.001671046,1
110956000,110956000,-0.8786022,0.031951662,0.044273484,0.47442314,0.9999986,-1.1641532e-10,0.0,-0.001671046,1
111056000,111056000,-0.8786449,0.032061003,0.044343013,0.47433025,0.9999986,-1.1641532e-10,0.0,-0.001671046,1
111156000,111156000,-0.87866926,0.03205233,0.044616625,0.4742599,0.9999986,-1.1641532e-10,0.0,-0.001671046,1
111256000,111256000,-0.878654,0.032100942,0.044837635,0.47426388,0.9999986,-1.1641532e-10,0.0,-0.001671046,1
111356000,111356000,-0.8786822,0.032065265,0.045000974,0.47419882,0.9999986,-1.1641532e-10,0.0,-0.001671046,1
111456000,111456000,-0.87867665,0.032207076,0.045090035,0.474191,0.9999986,-1.1641532e-10,0.0,-0.001671046,1
111560000,111560000,-0.8787129,0.0321954,0.045278925,0.47410652,0.9999986,-1.1641532e-10,0.0,-0.001671046,1
111656000,111656000,-0.8787061,0.032184422,0.045648992,0.4740846,0.9999986,-1.1641532e-10,0.0,-0.001671046,1
111756000,111756000,-0.87872523,0.032134842,0.04571318,0.47404602,0.9999986,-1.1641532e-10,0.0,-0.001671046,1
111856000,111856000,-0.8787562,0.03221829,0.045810636,0.4739736,0.9999986,-1.1641532e-10,0.0,-0.001671046,1
111956000,111956000,-0.87876076,0.03220983,0.04610816,0.47393692,0.9999986,-1.1641532e-10,0.0,-0.001671046,1
112056000,112056000,-0.87878335,0.032212805,0.04632293,0.47387388,0.9999986,-1.1641532e-10,0.0,-0.001671046,1
112156000,112156000,-0.8788044,0.032239024,0.04648444,0.47381714,0.9999986,-1.1641532e-10,0.0,-0.001671046,1
112256000,112256000,-0.87887293,0.032329027,0.046491396,0.47368318,0.9999986,-1.1641532e-10,0.0,-0.001671046,1
112356000,112356000,-0.87891775,0.03226161,0.04668225,0.473586,0.9999986,-1.1641532e-10,0.0,-0.001671046,1
112456000,112456000,-0.87893414,0.03225928,0.046748005,0.4735492,0.9999986,-1.1641532e-10,0.0,-0.001671046,1
112556000,112556000,-0.8789431,0.032222886,0.046866905,0.47352344,0.9999986,-1.1641532e-10,0.0,-0.001671046,1
112656000,112656000,-0.87895256,0.032436725,0.04687117,0.47349074,0.9999986,-1.1641532e-10,0.0,-0.001671046,1
112756000,112756000,-0.878937,0.03239713,0.047049917,0.47350442,0.9999986,-1.1641532e-10,0.0,-0.001671046,1
112856000,112856000,-0.8789229,0.032468412,0.047140025,0.47351694,0.9999986,-1.1641532e-10,0.0,-0.001671046,1
112956000,112956000,-0.8789355,0.032550033,0.047264565,0.4734755,0.9999986,-1.1641532e-10,0.0,-0.001671046,1
113056000,113056000,-0.87890005,0.032733552,0.047280572,0.47352684,0.9999986,-1.1641532e-10,0.0,-0.001671046,1
113156000,113156000,-0.8788787,0.032844532,0.04743431,0.47354347,0.9999986,-1.1641532e-10,0.0,-0.001671046,1
113256000,113256000,-0.87887365,0.032986425,0.04756842,0.47352967,0.9999986,-1.1641532e-10,0.0,-0.001671046,1
113356000,113356000,-0.8788804,0.03304434,0.04761214,0.4735086,0.9999986,-1.1641532e-10,0.0,-0.001671046,1
113456000,113456000,-0.87893885,0.033240937,0.04771919,0.4733755,0.9999986,-1.1641532e-10,0.0,-0.001671046,1
113556000,113556000,-0.8789553,0.033329505,0.04783614,0.47332722,0.9999986,-1.1641532e-10,0.0,-0.001671046,1
113656000,113656000,-0.878924,0.03335967,0.0479608,0.4733703,0.9999986,-1.1641532e-10,0.0,-0.001671046,1
113756000,113756000,-0.8789449,0.03345399,0.048008252,0.47332028,0.9999986,-1.1641532e-10,0.0,-0.001671046,1
113856000,113856000,-0.87899077,0.03352936,0.04801273,0.47322938,0.9999986,-1.1641532e-10,0.0,-0.001671046,1
113956000,113956000,-0.8789855,0.033562407,0.048109442,0.47322685,0.9999986,-1.1641532e-10,0.0,-0.001671046,1
114056000,114056000,-0.87897164,0.033456318,0.04816172,0.47325483,0.9999986,-1.1641532e-10,0.0,-0.001671046,1
114156000,114156000,-0.8789622,0.033529382,0.04816634,0.4732667,0.9999986,-1.1641532e-10,0.0,-0.001671046,1
114256000,114256000,-0.8789797,0.03361394,0.048186388,0.47322616,0.9999986,-1.1641532e-10,0.0,-0.001671046,1
114356000,114356000,-0.8789833,0.03364803,0.048291706,0.4732063,0.9999986,-1.1641532e-10,0.0,-0.001671046,1
114456000,114456000,-0.87896025,0.033732437,0.048374273,0.4732347,0.9999986,-1.1641532e-10,0.0,-0.001671046,1
114556000,114556000,-0.87898237,0.033847217,0.04834553,0.47318813,0.9999986,-1.1641532e-10,0.0,-0.001671046,1
114656000,114656000,-0.87899005,0.033915456,0.04841068,0.4731624,0.9999986,-1.1641532e-10,0.0,-0.001671046,1
114756000,114756000,-0.8789558,0.033830028,0.048432242,0.47323003,0.9999986,-1.1641532e-10,0.0,-0.001671046,1
114856000,114856000,-0.8789622,0.033808246,0.04845097,0.4732178,0.9999986,-1.1641532e-10,0.0,-0.001671046,1
114956000,114956000,-0.8789371,0.033797406,0.048511416,0.4732588,0.9999986,-1.1641532e-10,0.0,-0.001671046,1
115056000,115056000,-0.878945,0.033938747,0.048493393,0.47323593,0.9999986,-1.1641532e-10,0.0,-0.001671046,1
115156000,115156000,-0.8789323,0.033906836,0.048532218,0.4732579,0.9999986,-1.1641532e-10,0.0,-0.001671046,1
115256000,115256000,-0.8789613,0.033769052,0.048543185,0.4732127,0.9999986,-1.1641532e-10,0.0,-0.001671046,1
115356000,115356000,-0.8789983,0.033761565,0.04849534,0.4731496,0.9999986,-1.1641532e-10,0.0,-0.001671046,1
115456000,115456000,-0.87903696,0.0338387,0.0485435,0.47306725,0.9999986,-1.1641532e-10,0.0,-0.001671046,1
115556000,115556000,-0.87908244,0.033807743,0.04847662,0.47299173,0.9999986,-1.1641532e-10,0.0,-0.001671046,1
115656000,115656000,-0.87907887,0.03372499,0.048426684,0.47300935,0.9999986,-1.1641532e-10,0.0,-0.001671046,1
115756000,115756000,-0.8791051,0.033633415,0.04836112,0.47297385,0.9999986,-1.1641532e-10,0.0,-0.001671046,1
115856000,115856000,-0.8790838,0.033747267,0.048434712,0.47299778,0.9999986,-1.1641532e-10,0.0,-0.001671046,1
115956000,115956000,-0.87907356,0.03361284,0.048362073,0.47303396,0.9999986,-1.1641532e-10,0.0,-0.001671046,1
116056000,116056000,-0.87907445,0.033535685,0.048356324,0.47303823,0.9999986,-1.1641532e-10,0.0,-0.001671046,1
116156000,116156000,-0.8790559,0.033606827,0.048364613,0.47306663,0.9999986,-1.1641532e-10,0.0,-0.001671046,1
116256000,116256000,-0.8790436,0.033691812,0.04839942,0.47308022,0.9999986,-1.1641532e-10,0.0,-0.001671046,1
116356000,116356000,-0.879081,0.033643827,0.048421483,0.47301176,0.9999986,-1.1641532e-10,0.0,-0.001671046,1
116456000,116456000,-0.8790925,0.033519313,0.048327018,0.47300875,0.9999986,-1.1641532e-10,0.0,-0.001671046,1
116556000,116556000,-0.87909496,0.033510767,0.048406634,0.47299698,0.9999986,-1.1641532e-10,0.0,-0.001671046,1
116656000,116656000,-0.87912166,0.03357146,0.048451316,0.47293815,0.9999986,-1.1641532e-10,0.0,-0.001671046,1
116756000,116756000,-0.8791343,0.033563647,0.048448943,0.47291568,0.9999986,-1.1641532e-10,0.0,-0.001671046,1
116856000,116856000,-0.87915766,0.033404145,0.04848215,0.47288,0.9999986,-1.1641532e-10,0.0,-0.001671046,1
116956000,116956000,-0.87916106,0.033425435,0.048515726,0.47286868,0.9999986,-1.1641532e-10,0.0,-0.001671046,1
117056000,117056000,-0.8791595,0.033567786,0.04847129,0.4728661,0.9999986,-1.1641532e-10,0.0,-0.001671046,1
117156000,117156000,-0.8791481,0.033544827,0.04839812,0.4728964,0.9999986,-1.1641532e-10,0.0,-0.001671046,1
117256000,117256000,-0.8791777,0.033509262,0.04832567,0.47285134,0.9999986,-1.1641532e-10,0.0,-0.001671046,1
117356000,117356000,-0.8791798,0.03354129,0.048312727,0.47284654,0.9999986,-1.1641532e-10,0.0,-0.001671046,1
117456000,117456000,-0.87921053,0.0336484,0.048300587,0.47278318,0.9999986,-1.1641532e-10,0.0,-0.001671046,1
117556000,117556000,-0.87920445,0.033566758,0.048321582,0.47279793,0.9999986,-1.1641532e-10,0.0,-0.001671046,1
117656000,117656000,-0.879204,0.033500127,0.048246823,0.47281125,0.9999986,-1.1641532e-10,0.0,-0.001671046,1
117756000,117756000,-0.8792274,0.033514023,0.04821858,0.4727696,0.9999986,-1.1641532e-10,0.0,-0.001671046,1
117856000,117856000,-0.8792013,0.033664536,0.048183385,0.47281086,0.9999986,-1.1641532e-10,0.0,-0.001671046,1
117956000,117956000,-0.8792489,0.03363068,0.048008803,0.47274247,0.9999986,-1.1641532e-10,0.0,-0.001671046,1
118056000,118056000,-0.87926763,0.03348042,0.04788348,0.47273108,0.9999986,-1.1641532e-10,0.0,-0.001671046,1
118156000,118156000,-0.8792811,0.03359108,0.047853284,0.47270134,0.9999986,-1.1641532e-10,0.0,-0.001671046,1
118256000,118256000,-0.879262,0.033685178,0.0478442,0.47273117,0.9999986,-1.1641532e-10,0.0,-0.001671046,1
118356000,118356000,-0.87924856,0.033732533,0.04781028,0.472756,0.9999986,-1.1641532e-10,0.0,-0.001671046,1
118456000,118456000,-0.8792245,0.033677652,0.04780285,0.47280553,0.9999986,-1.1641532e-10,0.0,-0.001671046,1
118556000,118556000,-0.8792204,0.03367413,0.04787586,0.4728059,0.9999986,-1.1641532e-10,0.0,-0.001671046,1
118656000,118656000,-0.8792138,0.03369097,0.04799476,0.47280493,0.9999986,-1.1641532e-10,0.0,-0.001671046,1
118756000,118756000,-0.8792176,0.033626657,0.047939003,0.47280797,0.9999986,-1.1641532e-10,0.0,-0.001671046,1
118856000,118856000,-0.8792338,0.03360026,0.047911923,0.47278264,0.9999986,-1.1641532e-10,0.0,-0.001671046,1
118956000,118956000,-0.8792383,0.033663012,0.047919687,0.47276917,0.9999986,-1.1641532e-10,0.0,-0.001671046,1
119056000,119056000,-0.8792718,0.03373454,0.047844563,0.4727092,0.9999986,-1.1641532e-10,0.0,-0.001671046,1
119156000,119156000,-0.8793031,0.033675157,0.047730036,0.4726669,0.9999986,-1.1641532e-10,0.0,-0.001671046,1
119256000,119256000,-0.87925696,0.033604957,0.04760329,0.47277033,0.9999986,-1.1641532e-10,0.0,-0.001671046,1
119356000,119356000,-0.8792468,0.033613082,0.047620464,0.4727871,0.9999986,-1.1641532e-10,0.0,-0.001671046,1
119456000,119456000,-0.8792902,0.03367451,0.047629613,0.472701,0.9999986,-1.1641532e-10,0.0,-0.001671046,1
119556000,119556000,-0.8793088,0.03372073,0.04750332,0.4726757,0.9999986,-1.1641532e-10,0.0,-0.001671046,1
119656000,119656000,-0.8793172,0.033695802,0.047379527,0.47267428,0.9999986,-1.1641532e-10,0.0,-0.001671046,1
119756000,119756000,-0.879336,0.033692256,0.047389712,0.4726387,0.9999986,-1.1641532e-10,0.0,-0.001671046,1
119856000,119856000,-0.8793287,0.033755217,0.04738493,0.47264823,0.9999986,-1.1641532e-10,0.0,-0.001671046,1
119956000,119956000,-0.87931937,0.03374181,0.04726011,0.472679,0.9999986,-1.1641532e-10,0.0,-0.001671046,1
120056000,120056000,-0.8793254,0.033626437,0.047147945,0.4726873,0.9999986,-1.1641532e-10,0.0,-0.001671046,1
120156000,120156000,-0.8793278,0.03364685,0.047054473,0.4726906,0.9999986,-1.1641532e-10,0.0,-0.001671046,1
120256000,120256000,-0.8793235,0.033674315,0.047049575,0.47269738,0.9999986,-1.1641532e-10,0.0,-0.001671046,1
120356000,120356000,-0.87935615,0.033636976,0.04698224,0.47264573,0.9999986,-1.1641532e-10,0.0,-0.001671046,1
120456000,120456000,-0.87934774,0.03354533,0.04685407,0.47268063,0.9999986,-1.1641532e-10,0.0,-0.001671046,1
120560000,120560000,-0.8793485,0.03358313,0.046810225,0.47268084,0.9999986,-1.1641532e-10,0.0,-0.001671046,1
120656000,120656000,-0.87936515,0.03369295,0.04686479,0.4726369,0.9999986,-1.1641532e-10,0.0,-0.001671046,1
120756000,120756000,-0.87935936,0.03366389,0.046829782,0.47265318,0.9999986,-1.1641532e-10,0.0,-0.001671046,1
120856000,120856000,-0.8793421,0.033592355,0.046778835,0.47269532,0.9999986,-1.1641532e-10,0.0,-0.001671046,1
120956000,120956000,-0.8793756,0.033611115,0.046739377,0.47263578,0.9999986,-1.1641532e-10,0.0,-0.001671046,1
121056000,121056000,-0.87939155,0.03370878,0.046788234,0.472594,0.9999986,-1.1641532e-10,0.0,-0.001671046,1
121156000,121156000,-0.87937427,0.033612378,0.046623703,0.4726494,0.9999986,-1.1641532e-10,0.0,-0.001671046,1
121256000,121256000,-0.87938035,0.03359364,0.04654777,0.47264698,0.9999986,-1.1641532e-10,0.0,-0.001671046,1
121360000,121360000,-0.87938356,0.033626836,0.04655595,0.47263774,0.9999986,-1.1641532e-10,0.0,-0.001671046,1
121456000,121456000,-0.8793573,0.03372235,0.046653558,0.47267032,0.9999986,-1.1641532e-10,0.0,-0.001671046,1
121556000,121556000,-0.87937176,0.033676803,0.046540912,0.47265762,0.9999986,-1.1641532e-10,0.0,-0.001671046,1
121656000,121656000,-0.8793399,0.033651344,0.046441924,0.47272837,0.9999986,-1.1641532e-10,0.0,-0.001671046,1
121756000,121756000,-0.87930286,0.033673733,0.046321865,0.47280732,0.9999986,-1.1641532e-10,0.0,-0.001671046,1
121856000,121856000,-0.8792835,0.03372124,0.04628899,0.47284335,0.9999986,-1.1641532e-10,0.0,-0.001671046,1
121956000,121956000,-0.87927604,0.03367223,0.04623246,0.47286633,0.9999986,-1.1641532e-10,0.0,-0.001671046,1
122056000,122056000,-0.87926346,0.03355701,0.046186324,0.4729022,0.9999986,-1.1641532e-10,0.0,-0.001671046,1
122156000,122156000,-0.87926537,0.03350868,0.04620453,0.47290036,0.9999986,-1.1641532e-10,0.0,-0.001671046,1
122256000,122256000,-0.8792508,0.033536088,0.046226293,0.47292328,0.9999986,-1.1641532e-10,0.0,-0.001671046,1
122356000,122356000,-0.8791955,0.03351767,0.046198104,0.47303027,0.9999986,-1.1641532e-10,0.0,-0.001671046,1
122456000,122456000,-0.8791585,0.033398394,0.04614825,0.4731124,0.9999986,-1.1641532e-10,0.0,-0.001671046,1
122556000,122556000,-0.87914413,0.033386573,0.046142098,0.47314063,0.9999986,-1.1641532e-10,0.0,-0.001671046,1
122656000,122656000,-0.87914383,0.033481386,0.046145342,0.4731339,0.9999986,-1.1641532e-10,0.0,-0.001671046,1
122756000,122756000,-0.87913984,0.033407357,0.046040505,0.4731569,0.9999986,-1.1641532e-10,0.0,-0.001671046,1
122856000,122856000,-0.87912387,0.03343338,0.04604105,0.4731848,0.9999986,-1.1641532e-10,0.0,-0.001671046,1
122960000,122960000,-0.8791277,0.03357566,0.04616379,0.47315556,0.9999986,-1.1641532e-10,0.0,-0.001671046,1
123056000,123056000,-0.8791269,0.03360585,0.046230704,0.4731483,0.9999986,-1.1641532e-10,0.0,-0.001671046,1
123156000,123156000,-0.87914866,0.033597607,0.0461988,0.47311145,0.9999986,-1.1641532e-10,0.0,-0.001671046,1
123256000,123256000,-0.8791581,0.033586036,0.04602855,0.47311145,0.9999986,-1.1641532e-10,0.0,-0.001671046,1
123356000,123356000,-0.8791355,0.03356307,0.046035662,0.4731544,0.9999986,-1.1641532e-10,0.0,-0.001671046,1
123456000,123456000,-0.8791061,0.033680398,0.046095118,0.47319478,0.9999986,-1.1641532e-10,0.0,-0.001671046,1
123556000,123556000,-0.87910956,0.033597607,0.046085566,0.47319543,0.9999986,-1.1641532e-10,0.0,-0.001671046,1
123656000,123656000,-0.87913823,0.03354887,0.045994144,0.47315437,0.9999986,-1.1641532e-10,0.0,-0.001671046,1
123756000,123756000,-0.8791174,0.03360838,0.045885645,0.4731995,0.9999986,-1.1641532e-10,0.0,-0.001671046,1
123856000,123856000,-0.8791103,0.033667773,0.0459463,0.47320238,0.9999986,-1.1641532e-10,0.0,-0.001671046,1
123956000,123956000,-0.8791082,0.033681568,0.045918,0.47320822,0.9999986,-1.1641532e-10,0.0,-0.001671046,1
124056000,124056000,-0.87910473,0.033649106,0.045790456,0.47322932,0.9999986,-1.1641532e-10,0.0,-0.001671046,1
124156000,124156000,-0.8790879,0.03366091,0.045795128,0.47325924,0.9999986,-1.1641532e-10,0.0,-0.001671046,1
124256000,124256000,-0.8790984,0.033681273,0.04570967,0.4732463,0.9999986,-1.1641532e-10,0.0,-0.001671046,1
124356000,124356000,-0.87905604,0.03361536,0.045589544,0.47334144,0.9999986,-1.1641532e-10,0.0,-0.001671046,1
124456000,124456000,-0.8790279,0.033508457,0.045474112,0.4734123,0.9999986,-1.1641532e-10,0.0,-0.001671046,1
124556000,124556000,-0.8790079,0.033581425,0.04542443,0.47344905,0.9999986,-1.1641532e-10,0.0,-0.001671046,1
124656000,124656000,-0.87901515,0.033652972,0.045439336,0.47342926,0.9999986,-1.1641532e-10,0.0,-0.001671046,1
124756000,124756000,-0.8790561,0.033541493,0.045449413,0.47336003,0.9999986,-1.1641532e-10,0.0,-0.001671046,1
124856000,124856000,-0.8790964,0.033496313,0.045365322,0.4732964,0.9999986,-1.1641532e-10,0.0,-0.001671046,1
124956000,124956000,-0.8791294,0.033530578,0.0453443,0.47323483,0.9999986,-1.1641532e-10,0.0,-0.001671046,1
125056000,125056000,-0.8790843,0.03352301,0.045374006,0.47331637,0.9999986,-1.1641532e-10,0.0,-0.001671046,1
125156000,125156000,-0.8790857,0.033480216,0.045404185,0.47331378,0.9999986,-1.1641532e-10,0.0,-0.001671046,1
125256000,125256000,-0.8790834,0.03343207,0.04540197,0.4733216,0.9999986,-1.1641532e-10,0.0,-0.001671046,1
125356000,125356000,-0.8791013,0.033464998,0.045400325,0.47328633,0.9999986,-1.1641532e-10,0.0,-0.001671046,1
125456000,125456000,-0.8790835,0.033454925,0.04541268,0.47331887,0.9999986,-1.1641532e-10,0.0,-0.001671046,1
125556000,125556000,-0.8790716,0.033454716,0.04545059,0.4733372,0.9999986,-1.1641532e-10,0.0,-0.001671046,1
125656000,125656000,-0.8791286,0.033436526,0.04542512,0.47323528,0.9999986,-1.1641532e-10,0.0,-0.001671046,1
125756000,125756000,-0.8790961,0.033433855,0.04548545,0.4732901,0.9999986,-1.1641532e-10,0.0,-0.001671046,1
125856000,125856000,-0.879107,0.033429403,0.04541331,0.47327685,0.9999986,-1.1641532e-10,0.0,-0.001671046,1
125956000,125956000,-0.8791131,0.033444986,0.045390576,0.4732669,0.9999986,-1.1641532e-10,0.0,-0.001671046,1
126056000,126056000,-0.8791242,0.03333579,0.04541341,0.47325137,0.9999986,-1.1641532e-10,0.0,-0.001671046,1
126156000,126156000,-0.8791098,0.03333273,0.045367826,0.473283,0.9999986,-1.1641532e-10,0.0,-0.001671046,1
126256000,126256000,-0.8790935,0.03336031,0.04533373,0.47331437,0.9999986,-1.1641532e-10,0.0,-0.001671046,1
126356000,126356000,-0.8791332,0.03331446,0.045158193,0.47326064,0.9999986,-1.1641532e-10,0.0,-0.001671046,1
126456000,126456000,-0.87913245,0.033249024,0.045190834,0.47326365,0.9999986,-1.1641532e-10,0.0,-0.001671046,1
126556000,126556000,-0.8791612,0.03318242,0.04515204,0.47321862,0.9999986,-1.1641532e-10,0.0,-0.001671046,1
126656000,126656000,-0.87913114,0.033282384,0.045148365,0.4732678,0.9999986,-1.1641532e-10,0.0,-0.001671046,1
126756000,126756000,-0.8791307,0.03318581,0.045047496,0.47328484,0.9999986,-1.1641532e-10,0.0,-0.001671046,1
126856000,126856000,-0.87912,0.033112507,0.045021277,0.47331268,0.9999986,-1.1641532e-10,0.0,-0.001671046,1
126956000,126956000,-0.8791321,0.033055816,0.044983167,0.47329777,0.9999986,-1.1641532e-10,0.0,-0.001671046,1
127060000,127060000,-0.87912005,0.03307936,0.044893593,0.47332686,0.9999986,-1.1641532e-10,0.0,-0.001671046,1
127156000,127156000,-0.8790605,0.0329974,0.044859536,0.47344643,0.9999986,-1.1641532e-10,0.0,-0.001671046,1
127256000,127256000,-0.8790446,0.033006202,0.044803686,0.4734806,0.9999986,-1.1641532e-10,0.0,-0.001671046,1
127356000,127356000,-0.87906146,0.033008564,0.044824626,0.47344717,0.9999986,-1.1641532e-10,0.0,-0.001671046,1
127456000,127456000,-0.87907356,0.033001404,0.044823248,0.4734252,0.9999986,-1.1641532e-10,0.0,-0.001671046,1
127556000,127556000,-0.87909484,0.03299436,0.04468614,0.4733991,0.9999986,-1.1641532e-10,0.0,-0.001671046,1
127656000,127656000,-0.8790962,0.03293575,0.04470162,0.4733995,0.9999986,-1.1641532e-10,0.0,-0.001671046,1
127756000,127756000,-0.8791071,0.03285136,0.04471869,0.47338322,0.9999986,-1.1641532e-10,0.0,-0.001671046,1
127856000,127856000,-0.8791066,0.03292606,0.044763874,0.47337475,0.9999986,-1.1641532e-10,0.0,-0.001671046,1
127956000,127956000,-0.87910676,0.032842156,0.04477488,0.47337922,0.9999986,-1.1641532e-10,0.0,-0.001671046,1
128056000,128056000,-0.8790941,0.032830123,0.044687588,0.47341183,0.9999986,-1.1641532e-10,0.0,-0.001671046,1
128156000,128156000,-0.87908953,0.032878976,0.044642743,0.4734212,0.9999986,-1.1641532e-10,0.0,-0.001671046,1
128256000,128256000,-0.87906843,0.032848127,0.044516586,0.47347426,0.9999986,-1.1641532e-10,0.0,-0.001671046,1
128356000,128356000,-0.8790622,0.03281383,0.04445919,0.47349373,0.9999986,-1.1641532e-10,0.0,-0.001671046,1
128456000,128456000,-0.87903064,0.032809705,0.044405937,0.47355756,0.9999986,-1.1641532e-10,0.0,-0.001671046,1
128556000,128556000,-0.8790426,0.03283423,0.044393945,0.47353488,0.9999986,-1.1641532e-10,0.0,-0.001671046,1
128656000,128656000,-0.87902904,0.032830242,0.044377033,0.4735619,0.9999986,-1.1641532e-10,0.0,-0.001671046,1
128756000,128756000,-0.8790262,0.032776054,0.04427345,0.47358084,0.9999986,-1.1641532e-10,0.0,-0.001671046,1
128856000,128856000,-0.8790561,0.032645695,0.044246286,0.47353664,0.9999986,-1.1641532e-10,0.0,-0.001671046,1
128956000,128956000,-0.8790545,0.03269832,0.04424071,0.47353655,0.9999986,-1.1641532e-10,0.0,-0.001671046,1
129056000,129056000,-0.87904394,0.03269833,0.044266436,0.4735538,0.9999986,-1.1641532e-10,0.0,-0.001671046,1
129156000,129156000,-0.87903583,0.032704987,0.044165034,0.4735777,0.9999986,-1.1641532e-10,0.0,-0.001671046,1
129256000,129256000,-0.8789919,0.03270792,0.044100605,0.47366512,0.9999986,-1.1641532e-10,0.0,-0.001671046,1
129360000,129360000,-0.8789661,0.03263059,0.044095777,0.47371888,0.9999986,-1.1641532e-10,0.0,-0.001671046,1
129460000,129460000,-0.8789765,0.032631822,0.044110045,0.47369796,0.9999986,-1.1641532e-10,0.0,-0.001671046,1
129556000,129556000,-0.87896585,0.032580514,0.04406348,0.4737257,0.9999986,-1.1641532e-10,0.0,-0.001671046,1
129656000,129656000,-0.8789485,0.03246287,0.04401888,0.47377014,0.9999986,-1.1641532e-10,0.0,-0.001671046,1
129756000,129756000,-0.8789422,0.03248886,0.044031054,0.47377878,0.9999986,-1.1641532e-10,0.0,-0.001671046,1
129856000,129856000,-0.87896824,0.03254988,0.044009715,0.47372824,0.9999986,-1.1641532e-10,0.0,-0.001671046,1
129956000,129956000,-0.87897456,0.032500964,0.04396706,0.4737238,0.9999986,-1.1641532e-10,0.0,-0.001671046,1
130060000,130060000,-0.8789591,0.032441344,0.043926653,0.4737603,0.9999986,-1.1641532e-10,0.0,-0.001671046,1
130156000,130156000,-0.8789564,0.03249405,0.043919034,0.47376263,0.9999986,-1.1641532e-10,0.0,-0.001671046,1
130256000,130256000,-0.8789838,0.032553732,0.043918975,0.47370768,0.9999986,-1.1641532e-10,0.0,-0.001671046,1
130356000,130356000,-0.87897253,0.032471683,0.043749362,0.47374985,0.9999986,-1.1641532e-10,0.0,-0.001671046,1
130456000,130456000,-0.87894344,0.032459706,0.043717876,0.47380745,0.9999986,-1.1641532e-10,0.0,-0.001671046,1
130556000,130556000,-0.87894875,0.032444727,0.043709856,0.47379947,0.9999986,-1.1641532e-10,0.0,-0.001671046,1
130656000,130656000,-0.878958,0.03252901,0.043762933,0.4737717,0.9999986,-1.1641532e-10,0.0,-0.001671046,1
130756000,130756000,-0.87898,0.032602906,0.043649632,0.4737363,0.9999986,-1.1641532e-10,0.0,-0.001671046,1
130856000,130856000,-0.8790248,0.03261353,0.043599326,0.47365698,0.9999986,-1.1641532e-10,0.0,-0.001671046,1
130956000,130956000,-0.87900627,0.032608956,0.04355257,0.473696,0.9999986,-1.1641532e-10,0.0,-0.001671046,1
131056000,131056000,-0.87898916,0.032527648,0.043481894,0.47373974,0.9999986,-1.1641532e-10,0.0,-0.001671046,1
131156000,131156000,-0.8790335,0.032463383,0.043409813,0.4736685,0.9999986,-1.1641532e-10,0.0,-0.001671046,1
131256000,131256000,-0.87907666,0.032463465,0.04337075,0.4735921,0.9999986,-1.1641532e-10,0.0,-0.001671046,1
131356000,131356000,-0.87904054,0.032361556,0.043390814,0.47366422,0.9999986,-1.1641532e-10,0.0,-0.001671046,1
131456000,131456000,-0.87906307,0.032435574,0.043430794,0.47361353,0.9999986,-1.1641532e-10,0.0,-0.001671046,1
131556000,131556000,-0.8791073,0.032497793,0.04335783,0.4735339,0.9999986,-1.1641532e-10,0.0,-0.001671046,1
131656000,131656000,-0.8791135,0.032498777,0.043267522,0.47353062,0.9999986,-1.1641532e-10,0.0,-0.001671046,1
131756000,131756000,-0.87909865,0.032495033,0.043225218,0.47356215,0.9999986,-1.1641532e-10,0.0,-0.001671046,1
131856000,131856000,-0.87913895,0.032538358,0.043241046,0.47348303,0.9999986,-1.1641532e-10,0.0,-0.001671046,1
131956000,131956000,-0.8791386,0.03253853,0.043175887,0.47348985,0.9999986,-1.1641532e-10,0.0,-0.001671046,1
132056000,132056000,-0.8791287,0.03252076,0.0430733,0.47351876,0.9999986,-1.1641532e-10,0.0,-0.001671046,1
132156000,132156000,-0.8791248,0.03257344,0.04304331,0.4735248,0.9999986,-1.1641532e-10,0.0,-0.001671046,1
132256000,132256000,-0.8791511,0.032585464,0.043057103,0.47347414,0.9999986,-1.1641532e-10,0.0,-0.001671046,1
132356000,132356000,-0.87915474,0.03264731,0.043060094,0.47346264,0.9999986,-1.1641532e-10,0.0,-0.001671046,1
132456000,132456000,-0.87911564,0.03274196,0.042959537,0.47353783,0.9999986,-1.1641532e-10,0.0,-0.001671046,1
132556000,132556000,-0.8791426,0.032710154,0.04289881,0.47349557,0.9999986,-1.1641532e-10,0.0,-0.001671046,1
132656000,132656000,-0.8791786,0.032842647,0.04281694,0.47342697,0.9999986,-1.1641532e-10,0.0,-0.001671046,1
132756000,132756000,-0.8791514,0.03275921,0.042688813,0.47349468,0.9999986,-1.1641532e-10,0.0,-0.001671046,1
132856000,132856000,-0.87915903,0.032712877,0.042698447,0.4734831,0.9999986,-1.1641532e-10,0.0,-0.001671046,1
132956000,132956000,-0.87917656,0.03274184,0.04275042,0.47344378,0.9999986,-1.1641532e-10,0.0,-0.001671046,1
133056000,133056000,-0.87921625,0.032748383,0.04275949,0.47336873,0.9999986,-1.1641532e-10,0.0,-0.001671046,1
133156000,133156000,-0.8792095,0.032783363,0.042717036,0.47338286,0.9999986,-1.1641532e-10,0.0,-0.001671046,1
133256000,133256000,-0.87917656,0.032751314,0.04270454,0.47344732,0.9999986,-1.1641532e-10,0.0,-0.001671046,1
133356000,133356000,-0.879154,0.03276688,0.04257137,0.4735001,0.9999986,-1.1641532e-10,0.0,-0.001671046,1
133456000,133456000,-0.8791696,0.03281798,0.04261856,0.4734634,0.9999986,-1.1641532e-10,0.0,-0.001671046,1
133556000,133556000,-0.8791697,0.03283845,0.04259928,0.47346342,0.9999986,-1.1641532e-10,0.0,-0.001671046,1
133656000,133656000,-0.879163,0.03283652,0.04266913,0.47346956,0.9999986,-1.1641532e-10,0.0,-0.001671046,1
133760000,133760000,-0.8791739,0.032797053,0.042598918,0.4734586,0.9999986,-1.1641532e-10,0.0,-0.001671046,1
133856000,133856000,-0.8792126,0.03287073,0.042629853,0.47337884,0.9999986,-1.1641532e-10,0.0,-0.001671046,1
133956000,133956000,-0.8791928,0.032964773,0.042502463,0.47342065,0.9999986,-1.1641532e-10,0.0,-0.001671046,1
134056000,134056000,-0.87917185,0.032899566,0.042488556,0.4734652,0.9999986,-1.1641532e-10,0.0,-0.001671046,1
134156000,134156000,-0.87918437,0.032894365,0.04233953,0.47345558,0.9999986,-1.1641532e-10,0.0,-0.001671046,1
134256000,134256000,-0.8791412,0.032911908,0.042357348,0.4735328,0.9999986,-1.1641532e-10,0.0,-0.001671046,1
134356000,134356000,-0.8791372,0.032958537,0.042410593,0.47353223,0.9999986,-1.1641532e-10,0.0,-0.001671046,1
134456000,134456000,-0.8791203,0.033038627,0.04243696,0.4735558,0.9999986,-1.1641532e-10,0.0,-0.001671046,1
134556000,134556000,-0.87912494,0.03312328,0.04251244,0.47353438,0.9999986,-1.1641532e-10,0.0,-0.001671046,1
134656000,134656000,-0.87908924,0.03311203,0.042464424,0.47360572,0.9999986,-1.1641532e-10,0.0,-0.001671046,1
134756000,134756000,-0.87911946,0.033119008,0.042348452,0.4735596,0.9999986,-1.1641532e-10,0.0,-0.001671046,1
134856000,134856000,-0.87907195,0.033098426,0.04235338,0.47364894,0.9999986,-1.1641532e-10,0.0,-0.001671046,1
134956000,134956000,-0.879116,0.033160187,0.04232057,0.47356567,0.9999986,-1.1641532e-10,0.0,-0.001671046,1
135056000,135056000,-0.8791508,0.0331971,0.04226584,0.47350338,0.9999986,-1.1641532e-10,0.0,-0.001671046,1
135160000,135160000,-0.87917125,0.033209536,0.042280864,0.4734633,0.9999986,-1.1641532e-10,0.0,-0.001671046,1
135256000,135256000,-0.87917763,0.033161663,0.042259555,0.47345656,0.9999986,-1.1641532e-10,0.0,-0.001671046,1
135356000,135356000,-0.87917566,0.033136744,0.042224087,0.47346506,0.9999986,-1.1641532e-10,0.0,-0.001671046,1
135456000,135456000,-0.87918514,0.033233117,0.042216986,0.47344142,0.9999986,-1.1641532e-10,0.0,-0.001671046,1
135556000,135556000,-0.87918407,0.033217665,0.042215165,0.47344488,0.9999986,-1.1641532e-10,0.0,-0.001671046,1
135656000,135656000,-0.87920946,0.033226848,0.042175338,0.4734005,0.9999986,-1.1641532e-10,0.0,-0.001671046,1
135756000,135756000,-0.8792082,0.033157364,0.042106725,0.4734139,0.9999986,-1.1641532e-10,0.0,-0.001671046,1
135860000,135860000,-0.87914723,0.033198185,0.04204931,0.4735292,0.9999986,-1.1641532e-10,0.0,-0.001671046,1
135956000,135956000,-0.8791317,0.03320243,0.042011507,0.47356117,0.9999986,-1.1641532e-10,0.0,-0.001671046,1
136056000,136056000,-0.8791233,0.033175997,0.04204529,0.47357556,0.9999986,-1.1641532e-10,0.0,-0.001671046,1
136156000,136156000,-0.8791135,0.03314853,0.042025585,0.47359756,0.9999986,-1.1641532e-10,0.0,-0.001671046,1
136256000,136256000,-0.87908816,0.033156984,0.04202889,0.47364366,0.9999986,-1.1641532e-10,0.0,-0.001671046,1
136356000,136356000,-0.87912536,0.033163164,0.041958813,0.4735802,0.9999986,-1.1641532e-10,0.0,-0.001671046,1
136456000,136456000,-0.8791055,0.033089273,0.0419223,0.47362554,0.9999986,-1.1641532e-10,0.0,-0.001671046,1
136556000,136556000,-0.879121,0.033078074,0.041873697,0.47360197,0.9999986,-1.1641532e-10,0.0,-0.001671046,1
136660000,136660000,-0.8790941,0.033096332,0.04186925,0.4736509,0.9999986,-1.1641532e-10,0.0,-0.001671046,1
136756000,136756000,-0.87910205,0.033066515,0.041790683,0.47364503,0.9999986,-1.1641532e-10,0.0,-0.001671046,1
136856000,136856000,-0.879117,0.03311625,0.041732576,0.47361922,0.9999986,-1.1641532e-10,0.0,-0.001671046,1
136956000,136956000,-0.87913996,0.03308569,0.04176176,0.47357622,0.9999986,-1.1641532e-10,0.0,-0.001671046,1
137056000,137056000,-0.879119,0.033145055,0.041709695,0.47361562,0.9999986,-1.1641532e-10,0.0,-0.001671046,1
137156000,137156000,-0.87913835,0.033191204,0.041816268,0.4735667,0.9999986,-1.1641532e-10,0.0,-0.001671046,1
137260000,137260000,-0.8791184,0.03320137,0.04189607,0.47359604,0.9999986,-1.1641532e-10,0.0,-0.001671046,1
137356000,137356000,-0.87914026,0.033191398,0.04197072,0.47354963,0.9999986,-1.1641532e-10,0.0,-0.001671046,1
137456000,137456000,-0.87913465,0.033191282,0.041898314,0.47356638,0.9999986,-1.1641532e-10,0.0,-0.001671046,1
137556000,137556000,-0.87915117,0.03318707,0.041802045,0.4735446,0.9999986,-1.1641532e-10,0.0,-0.001671046,1
137656000,137656000,-0.8791666,0.033151492,0.041761298,0.47352192,0.9999986,-1.1641532e-10,0.0,-0.001671046,1
137756000,137756000,-0.8791345,0.033229478,0.041677076,0.47358355,0.9999986,-1.1641532e-10,0.0,-0.001671046,1
137856000,137856000,-0.8791258,0.033191126,0.04162257,0.4736072,0.9999986,-1.1641532e-10,0.0,-0.001671046,1
137956000,137956000,-0.8791098,0.033144664,0.041565094,0.47364518,0.9999986,-1.1641532e-10,0.0,-0.001671046,1
138056000,138056000,-0.8790738,0.03311176,0.041629218,0.47370875,0.9999986,-1.1641532e-10,0.0,-0.001671046,1
138156000,138156000,-0.8790979,0.033181906,0.04162315,0.47365987,0.9999986,-1.1641532e-10,0.0,-0.001671046,1
138256000,138256000,-0.8791319,0.03326821,0.041518502,0.47359952,0.9999986,-1.1641532e-10,0.0,-0.001671046,1
138356000,138356000,-0.87913465,0.03322338,0.04156368,0.47359368,0.9999986,-1.1641532e-10,0.0,-0.001671046,1
138456000,138456000,-0.87909573,0.033240587,0.041555487,0.47366557,0.9999986,-1.1641532e-10,0.0,-0.001671046,1
138556000,138556000,-0.87908626,0.033202447,0.04156751,0.47368464,0.9999986,-1.1641532e-10,0.0,-0.001671046,1
138656000,138656000,-0.87911266,0.033194795,0.041481562,0.4736435,0.9999986,-1.1641532e-10,0.0,-0.001671046,1
138756000,138756000,-0.8791616,0.033081796,0.04142492,0.47356573,0.9999986,-1.1641532e-10,0.0,-0.001671046,1
