timestamp,timestamp_sample,xyz[0],xyz[1],xyz[2]
84808000,84808000,0.0109753115,0.00043512875,0.016291281
84884000,84884000,0.009047879,0.0004320185,0.01669037
84980000,84980000,0.009414427,-0.00049140205,0.016405724
85080000,85080000,0.0074067265,-0.0032992978,0.018690249
85180000,85180000,0.0051332274,-0.0041324296,0.019970387
85280000,85280000,0.005629397,-0.001847674,0.023561073
85380000,85380000,0.007877791,-0.0022431745,0.025824994
85480000,85480000,0.0071320725,-0.00011244318,0.022468388
85580000,85580000,0.0077094273,-0.0022616133,0.024581589
85680000,85680000,0.0105049005,0.0027101808,0.019066289
85780000,85780000,0.010769049,-0.009505192,0.027690738
85880000,85880000,0.008733696,-3.8754544e-05,0.020565087
85980000,85980000,0.010351609,0.0056905383,0.02183785
86080000,86080000,0.008857431,0.0054019713,0.024064552
86180000,86180000,0.007668301,0.008247975,0.028151829
86280000,86280000,0.013664142,0.009893903,0.025773961
86380000,86380000,0.0012141257,0.0035104824,0.030213019
86480000,86480000,0.008503431,-0.0007043836,0.026183879
86580000,86580000,0.006874472,0.004709985,0.03448229
86680000,86680000,0.014153376,-0.00204285,0.02551415
86780000,86780000,0.009266498,0.00622181,0.03267083
86880000,86880000,0.009949252,0.0027195716,0.030031301
86980000,86980000,0.010653343,0.005417449,0.02942688
87080000,87080000,0.0103910025,0.0025000267,0.029827943
87184000,87184000,0.007697463,0.0060716625,0.029543353
87280000,87280000,0.012147077,0.009722105,0.032887254
87380000,87380000,0.009777193,0.0030195233,0.028947003
87480000,87480000,0.004717494,0.003101487,0.038272563
87580000,87580000,0.006203522,-0.001571327,0.031624038
87684000,87684000,0.0076700756,-0.0005942284,0.033428248
87784000,87784000,0.011696091,-0.002829954,0.036680736
87884000,87884000,0.012191854,-0.003903049,0.032208074
87980000,87980000,0.010750996,-0.0024234194,0.03869248
88080000,88080000,0.008899091,-0.0076092617,0.035737824
88180000,88180000,0.0098283375,-0.004877568,0.039021946
88280000,88280000,0.008795296,0.0005641675,0.037277784
88380000,88380000,0.006854382,0.00084550213,0.032551505
88484000,88484000,0.004640505,0.0011633951,0.042887717
88584000,88584000,0.006657516,-0.0004772962,0.04489532
88680000,88680000,0.008749845,0.00045203406,0.04102075
88784000,88784000,0.006763972,-0.001703888,0.040358447
88880000,88880000,0.0124836145,0.002588907,0.041555747
88980000,88980000,0.007960021,0.00027621724,0.046021122
89080000,89080000,0.008430521,0.00032423867,0.042368583
89180000,89180000,0.0071164174,0.008689881,0.045059673
89280000,89280000,0.011200357,0.007981125,0.042539813
89384000,89384000,0.011507617,0.006125172,0.04452688
89484000,89484000,0.009627548,0.011294756,0.04558464
89580000,89580000,0.0064010667,-7.123861e-05,0.05131331
89680000,89680000,0.012563392,-0.0005910102,0.04937967
89780000,89780000,0.010612974,0.003534059,0.04530104
89880000,89880000,0.011801476,0.0050297203,0.047719214
89980000,89980000,0.010028057,0.0066852374,0.04602281
90080000,90080000,0.0077675465,0.011998966,0.05419779
90180000,90180000,0.012715451,0.007333462,0.04818257
90284000,90284000,0.009374075,0.013247046,0.05146119
90380000,90380000,0.013764868,0.006219636,0.055176333
90484000,90484000,0.00859899,0.0045448113,0.051432952
90584000,90584000,0.008659251,0.003809922,0.058313996
90680000,90680000,0.55162334,-0.0040776352,0.023399033
90780000,90780000,1.2616163,0.050255902,-0.018622842
90884000,90884000,1.4366461,0.06078645,-0.044967037
90980000,90980000,1.4439225,0.081022315,0.00047619146
91080000,91080000,1.0445386,0.13645774,0.16799742
91184000,91184000,-0.34244186,0.17301744,0.5255711
91280000,91280000,-1.1534086,0.2465474,0.56841147
91380000,91380000,-1.3737559,0.21845698,0.5131413
91480000,91480000,-1.3926152,0.14040841,0.47530773
91580000,91580000,-0.98921597,0.12991062,0.3474574
91680000,91680000,-0.17350262,0.05253052,0.09781374
91780000,91780000,-0.026022356,0.030946583,-0.043576114
91884000,91884000,-0.0049968823,0.027968192,-0.09182687
91980000,91980000,-0.003727852,0.02729566,-0.0745711
92080000,92080000,0.0030478588,0.02192738,-0.0074165245
92180000,92180000,0.008025492,0.016316855,0.06872762
92280000,92280000,0.0128596565,0.014730284,0.12224547
92380000,92380000,0.01877189,0.015038058,0.14666624
92480000,92480000,0.016309353,0.010370263,0.13581839
92584000,92584000,0.022814604,0.010371388,0.11407944
92680000,92680000,0.012787482,0.012749569,0.08704582
92780000,92780000,0.014586307,0.005451737,0.05978986
92884000,92884000,0.013551362,0.0076926416,0.04812688
92984000,92984000,0.014419837,0.004951122,0.054081593
93080000,93080000,0.011634658,0.0022022512,0.06650748
93180000,93180000,0.014837744,0.007234713,0.083121985
93280000,93280000,0.016098889,0.005694858,0.08972629
93380000,93380000,0.01265498,0.0039406084,0.102094114
93480000,93480000,0.014342599,-0.00029933965,0.09945916
93584000,93584000,0.018666593,0.0026840647,0.09336775
93680000,93680000,0.014954215,0.002386759,0.09250775
93784000,93784000,0.013770869,0.0066235377,0.08970968
93884000,93884000,0.012651646,0.0072870636,0.08342205
93980000,93980000,0.01814172,0.0006512844,0.08382088
94084000,94084000,0.01675048,0.006352041,0.08917348
94180000,94180000,0.011635201,0.008165803,0.08977309
94280000,94280000,0.016219402,0.0071037654,0.08879682
94380000,94380000,0.013118427,0.010204143,0.09736457
94480000,94480000,0.019086517,0.009342492,0.09847462
94580000,94580000,0.012064541,0.010348507,0.100598425
94680000,94680000,0.0115977265,0.016074847,0.09855283
94784000,94784000,0.0149613125,0.019686991,0.09417729
94880000,94880000,0.01438046,0.017623644,0.101798065
94980000,94980000,0.01324231,0.025354527,0.09633953
95084000,95084000,0.011399683,0.021594265,0.09751683
95180000,95180000,0.017714692,0.02485359,0.096987724
95280000,95280000,0.019193642,0.020231878,0.1047892
95384000,95384000,0.018736852,0.019699194,0.106933415
95480000,95480000,0.017651532,0.014545179,0.1086482
95584000,95584000,0.023220055,0.023452885,0.11026094
95680000,95680000,0.018685859,0.012568969,0.103945225
95780000,95780000,0.016609902,0.016543772,0.10891818
95880000,95880000,0.017043322,0.013399905,0.109675415
95980000,95980000,0.023149852,0.020833563,0.10490334
96080000,96080000,0.019510929,0.02629727,0.1094466
96180000,96180000,0.016398642,0.021632677,0.116171926
96280000,96280000,0.017209198,0.019074738,0.11129129
96384000,96384000,0.018417004,0.022011215,0.113603145
96480000,96480000,0.018772556,0.021839675,0.11596801
96584000,96584000,0.02240411,0.02245684,0.11914126
96680000,96680000,0.019476112,0.025628122,0.11778795
96784000,96784000,0.015974086,0.022706077,0.11637763
96880000,96880000,0.01838709,0.018902875,0.11820708
96980000,96980000,0.016613068,0.02714485,0.118438296
97080000,97080000,0.016299104,0.030578848,0.12203442
97180000,97180000,0.021832574,0.03461362,0.12124191
97280000,97280000,0.019681007,0.021291846,0.12643062
97380000,97380000,0.02243912,0.023124717,0.121820256
97480000,97480000,0.02097161,0.027662128,0.12307847
97580000,97580000,0.018944722,0.028994016,0.12623776
97680000,97680000,0.024741054,0.031263433,0.12791279
97784000,97784000,0.019680776,0.024358263,0.13037787
97880000,97880000,0.02183583,0.033343066,0.13300003
97980000,97980000,0.022973042,0.031951327,0.12790027
98080000,98080000,0.02345699,0.03101713,0.13579248
98180000,98180000,0.019683674,0.032553785,0.1292583
98280000,98280000,0.023129618,0.025740728,0.13562618
98380000,98380000,0.01688437,0.03157945,0.13817686
98484000,98484000,0.021955866,0.03388615,0.13715532
98580000,98580000,0.023579452,0.03573354,0.14107145
98680000,98680000,0.02795953,0.03359045,0.14230192
98780000,98780000,0.02165002,0.030468997,0.14109829
98880000,98880000,0.021662807,0.033846755,0.14109504
98984000,98984000,0.026409267,0.034590237,0.14512771
99080000,99080000,0.024489786,0.027406212,0.14474106
99180000,99180000,0.022056665,0.034433268,0.14610784
99280000,99280000,0.021263544,0.032686297,0.15109207
99380000,99380000,0.020860262,0.037405614,0.14747033
99480000,99480000,0.021701869,0.036377776,0.15243512
99580000,99580000,0.018176671,0.035485573,0.15461019
99680000,99680000,0.019598227,0.040492702,0.15628259
99780000,99780000,0.02375159,0.038876984,0.15436476
99880000,99880000,0.021772377,0.03975136,0.15685941
99980000,99980000,0.022808645,0.03498537,0.15613337
100080000,100080000,0.026320178,0.039683014,0.16059974
100180000,100180000,0.020808948,0.039205562,0.15892458
100284000,100284000,0.026939724,0.041239463,0.16350268
100380000,100380000,0.023448633,0.04091609,0.16360903
100480000,100480000,0.02714146,0.0426761,0.16783181
100580000,100580000,0.023062557,0.046480536,0.17108765
100680000,100680000,0.02129962,0.038647678,0.16608867
100780000,100780000,0.021788677,0.0408305,0.17287418
100880000,100880000,0.022424087,0.04523299,0.16679397
100980000,100980000,0.022055406,0.049926136,0.16907196
101080000,101080000,0.024635164,0.05286084,0.17186987
101180000,101180000,0.019178906,0.061229117,0.17580244
101280000,101280000,0.025107654,0.06405105,0.17945302
101384000,101384000,0.025673147,0.057404824,0.1748409
101480000,101480000,0.024383388,0.05741716,0.17904559
101584000,101584000,0.024287364,0.059297968,0.17724758
101680000,101680000,0.02692253,0.05733558,0.18653962
101780000,101780000,0.02267373,0.059041798,0.1838783
101884000,101884000,0.027248455,0.054713886,0.18299055
101980000,101980000,0.027207073,0.060439408,0.18478887
102080000,102080000,0.023284538,0.053212434,0.18395731
102180000,102180000,0.024460452,0.057827648,0.1879668
102284000,102284000,0.030192329,0.05870748,0.19005972
102380000,102380000,0.031347435,0.05187199,0.19033766
102480000,102480000,0.03211469,0.05750089,0.19586477
102584000,102584000,0.02097168,0.05939479,0.19244297
102680000,102680000,0.03375487,0.06124986,0.1947358
102780000,102780000,0.026363287,0.05874195,0.19682083
102880000,102880000,0.027765842,0.06600243,0.20054136
102980000,102980000,0.03207042,0.06432955,0.19947737
103080000,103080000,0.025182907,0.07009271,0.19830734
103180000,103180000,0.027561668,0.06746272,0.20428762
103280000,103280000,0.028229706,0.07285037,0.20532164
103380000,103380000,0.031609856,0.07430157,0.20490628
103484000,103484000,0.027969819,0.07136947,0.20951907
103580000,103580000,0.03340081,0.07487917,0.20714793
103684000,103684000,0.02843323,0.08062817,0.20945153
103780000,103780000,0.027515493,0.07715546,0.2204182
103880000,103880000,0.025905237,0.08157875,0.2123643
103980000,103980000,0.02802971,0.087433726,0.21400915
104080000,104080000,0.028547296,0.08390367,0.21646371
104180000,104180000,0.031592067,0.08283851,0.22515859
104280000,104280000,0.030673519,0.0827997,0.22321784
104380000,104380000,0.038068533,0.083784945,0.22030361
104480000,104480000,0.033567466,0.08791043,0.22491035
104580000,104580000,0.030787028,0.08577577,0.22873701
104680000,104680000,0.029050428,0.08805798,0.22564265
104780000,104780000,0.032389242,0.09431459,0.2281113
104884000,104884000,0.03071034,0.092263184,0.23218665
104980000,104980000,0.035604235,0.0945334,0.2363019
105084000,105084000,0.030255906,0.09355867,0.23376046
105180000,105180000,0.02973163,0.09305992,0.23891225
105280000,105280000,0.03509705,0.09378352,0.24094976
