timestamp,timestamp_sample,ref_timestamp,ref_lat,ref_lon,x,y,z,delta_xy[0],delta_xy[1],delta_z,vx,vy,vz,z_deriv,delta_vxy[0],delta_vxy[1],delta_vz,ax,ay,az,heading,delta_heading,ref_alt,dist_bottom,eph,epv,evh,evv,vxy_max,vz_max,hagl_min,hagl_max,xy_valid,z_valid,v_xy_valid,v_z_valid,xy_reset_counter,z_reset_counter,vxy_reset_counter,vz_reset_counter,heading_reset_counter,xy_global,z_global,dist_bottom_valid,dist_bottom_sensor_bitfield
84800000,84800000,1016000,1.3274169999999998,103.7850778,263.1783,86.01264,-30.790482,0.17867279,0.011898041,-0.00459671,13.848033,4.534933,0.0139952125,0.0026871732,0.0051231384,0.02074653,0.0074878335,-0.08956215,0.29911327,0.027698463,0.31061646,6.2807426,0.32793528,31.14108,0.49649256,0.47792274,0.18428665,0.12525918,inf,inf,inf,inf,1,1,1,1,3,2,3,3,4,1,1,0,0
84880000,84880000,1016000,1.3274169999999998,103.7850778,264.2866,86.37738,-30.793957,0.17867279,0.011898041,-0.00459671,13.839013,4.5580697,0.015834706,0.00094611745,0.0051231384,0.02074653,0.0074878335,-0.06349757,0.23785095,0.024631618,0.31224388,6.2807426,0.32793528,31.144556,0.46176592,0.4718832,0.16905087,0.12168084,inf,inf,inf,inf,1,1,1,1,3,2,3,3,4,1,1,0,0
84980000,84980000,1016000,1.3274169999999998,103.7850778,265.6705,86.83558,-30.797167,0.17867279,0.011898041,-0.00459671,13.825078,4.5860705,0.017866626,-0.00016968139,0.0051231384,0.02074653,0.0074878335,-0.11419069,0.28666678,-0.04893634,0.31415513,6.2807426,0.32793528,31.147766,0.47233757,0.4716849,0.17371644,0.122591175,inf,inf,inf,inf,1,1,1,1,3,2,3,3,4,1,1,0,0
85080000,85080000,1016000,1.3274169999999998,103.7850778,267.05292,87.29617,-30.798542,0.17867279,0.011898041,-0.00459671,13.8141165,4.6155996,0.023564216,0.004325221,0.0051231384,0.02074653,0.0074878335,-0.08527573,0.32060188,0.07750838,0.31606108,6.2807426,0.32793528,31.149141,0.48343855,0.4758404,0.17844783,0.124018066,inf,inf,inf,inf,1,1,1,1,3,2,3,3,4,1,1,0,0
85180000,85180000,1016000,1.3274169999999998,103.7850778,268.4341,87.75971,-30.79835,0.17867279,0.011898041,-0.00459671,13.8044195,4.64683,0.031385127,0.011717498,0.0051231384,0.02074653,0.0074878335,-0.109930284,0.26042363,0.037614252,0.31827,6.2807426,0.32793528,31.148949,0.49508026,0.4756506,0.18323682,0.12488319,inf,inf,inf,inf,1,1,1,1,3,2,3,3,4,1,1,0,0
85280000,85280000,1016000,1.3274169999999998,103.7850778,269.81775,88.22581,-30.799608,0.17867279,0.011898041,-0.00459671,13.793258,4.675427,0.036531016,0.014428121,0.0051231384,0.02074653,0.0074878335,-0.11685507,0.26291946,-0.027952714,0.32043317,6.2807426,0.32793528,31.150208,0.4625462,0.471371,0.16895203,0.12169955,inf,inf,inf,inf,1,1,1,1,3,2,3,3,4,1,1,0,0
85380000,85380000,1016000,1.3274169999999998,103.7850778,271.2007,88.69449,-30.800406,0.17867279,0.011898041,-0.00459671,13.783819,4.7035065,0.040969227,0.016726708,0.0051231384,0.02074653,0.0074878335,-0.044108406,0.33982843,0.01183804,0.3227058,6.2807426,0.32793528,31.151005,0.47312108,0.47546735,0.17357628,0.12312885,inf,inf,inf,inf,1,1,1,1,3,2,3,3,4,1,1,0,0
85480000,85480000,1016000,1.3274169999999998,103.7850778,272.58124,89.16619,-30.799458,0.17867279,0.011898041,-0.00459671,13.773095,4.7355666,0.04531618,0.02048553,0.0051231384,0.02074653,0.0074878335,-0.07595315,0.28817716,0.026451422,0.32494262,6.2807426,0.32793528,31.150057,0.4842277,0.47524643,0.17828979,0.12400904,inf,inf,inf,inf,1,1,1,1,3,2,3,3,4,1,1,0,0
85580000,85580000,1016000,1.3274169999999998,103.7850778,273.96002,89.64096,-30.797157,0.17867279,0.011898041,-0.00459671,13.765891,4.7662926,0.053933367,0.029364057,0.0051231384,0.02074653,0.0074878335,-0.07675749,0.37027496,0.15081091,0.32738945,6.2807426,0.32793528,31.147757,0.4958725,0.4794593,0.18306857,0.12542312,inf,inf,inf,inf,1,1,1,1,3,2,3,3,4,1,1,0,0
85680000,85680000,1016000,1.3274169999999998,103.7850778,275.34027,90.12069,-30.796255,0.17867279,0.011898041,-0.00459671,13.757808,4.798261,0.06231768,0.035586897,0.0051231384,0.02074653,0.0074878335,-0.07729163,0.3706436,0.12905802,0.32976884,6.2807426,0.32793528,31.146854,0.4631876,0.47068617,0.168797,0.12165874,inf,inf,inf,inf,1,1,1,1,3,2,3,3,4,1,1,0,0
85780000,85780000,1016000,1.3274169999999998,103.7850778,276.71982,90.6038,-30.79454,0.17867279,0.011898041,-0.00459671,13.753128,4.83139,0.06546499,0.037112847,0.0051231384,0.02074653,0.0074878335,-0.08088831,0.34952325,0.06349198,0.33216333,6.2807426,0.32793528,31.14514,0.47376865,0.47474754,0.17341866,0.12307828,inf,inf,inf,inf,1,1,1,1,3,2,3,3,4,1,1,0,0
85880000,85880000,1016000,1.3274169999999998,103.7850778,278.09766,91.08977,-30.790878,0.17867279,0.011898041,-0.00459671,13.748993,4.865079,0.07354447,0.045077488,0.0051231384,0.02074653,0.0074878335,-0.105431125,0.31392688,0.08629727,0.3346448,6.2807426,0.32793528,31.141478,0.48487425,0.47890058,0.17812379,0.12449624,inf,inf,inf,inf,1,1,1,1,3,2,3,3,4,1,1,0,0
85980000,85980000,1016000,1.3274169999999998,103.7850778,279.4745,91.57882,-30.786135,0.17867279,0.011898041,-0.00459671,13.7447815,4.900477,0.07649552,0.048438124,0.0051231384,0.02074653,0.0074878335,-0.03616453,0.31063834,0.07175374,0.3371463,6.2807426,0.32793528,31.136734,0.4965158,0.47863877,0.18287726,0.12534326,inf,inf,inf,inf,1,1,1,1,3,2,3,3,4,1,1,0,0
86080000,86080000,1016000,1.3274169999999998,103.7850778,280.8507,92.07112,-30.784668,0.17867279,0.011898041,-0.00459671,13.733541,4.9352427,0.0727509,0.04175814,0.0051231384,0.02074653,0.0074878335,-0.18783157,0.31533915,-0.12358184,0.33967346,6.2807426,0.32793528,31.135267,0.46371356,0.47416812,0.16863173,0.12209851,inf,inf,inf,inf,1,1,1,1,3,2,3,3,4,1,1,0,0
86180000,86180000,1016000,1.3274169999999998,103.7850778,282.2252,92.566696,-30.7839,0.17867279,0.011898041,-0.00459671,13.721213,4.9711833,0.06773782,0.03403006,0.0051231384,0.02074653,0.0074878335,-0.074434325,0.3217043,-0.08506048,0.342403,6.2807426,0.32793528,31.134499,0.4742901,0.47385475,0.17328714,0.122976564,inf,inf,inf,inf,1,1,1,1,3,2,3,3,4,1,1,0,0
86280000,86280000,1016000,1.3274169999999998,103.7850778,283.59763,93.065735,-30.78187,0.17867279,0.011898041,-0.00459671,13.708945,5.0072045,0.06264305,0.028251514,0.0051231384,0.02074653,0.0074878335,-0.085377686,0.37629655,-0.080931924,0.34522188,6.2807426,0.32793528,31.13247,0.4853913,0.47796935,0.17802224,0.124385454,inf,inf,inf,inf,1,1,1,1,3,2,3,3,4,1,1,0,0
86380000,86380000,1016000,1.3274169999999998,103.7850778,284.96835,93.56834,-30.77917,0.17867279,0.011898041,-0.00459671,13.696171,5.044778,0.060251653,0.026280811,0.0051231384,0.02074653,0.0074878335,-0.11170799,0.40007725,0.003916211,0.34796482,6.2807426,0.32793528,31.129768,0.49702874,0.47767857,0.18282658,0.12522312,inf,inf,inf,inf,1,1,1,1,3,2,3,3,4,1,1,0,0
86480000,86480000,1016000,1.3274169999999998,103.7850778,286.3386,94.07827,-30.77869,0.17867279,0.011898041,-0.00459671,13.679914,5.084273,0.054929543,0.01945949,0.0051231384,0.02074653,0.0074878335,-0.181769,0.44710463,0.06582215,0.3507451,6.2807426,0.32793528,31.12929,0.4641417,0.47326756,0.16861978,0.12199414,inf,inf,inf,inf,1,1,1,1,3,2,3,3,4,1,1,0,0
86580000,86580000,1016000,1.3274169999999998,103.7850778,287.70706,94.59254,-30.777542,0.17867279,0.011898041,-0.00459671,13.66355,5.124295,0.052988797,0.017153505,0.0051231384,0.02074653,0.0074878335,-0.18203218,0.37540847,-0.011258758,0.35360208,6.2807426,0.32793528,31.128141,0.47470954,0.4773512,0.17326693,0.12341501,inf,inf,inf,inf,1,1,1,1,3,2,3,3,4,1,1,0,0
86680000,86680000,1016000,1.3274169999999998,103.7850778,289.07333,95.10969,-30.775953,0.17867279,0.011898041,-0.00459671,13.645702,5.163682,0.049012225,0.013657635,0.0051231384,0.02074653,0.0074878335,-0.16539718,0.35465986,-0.04818197,0.35656056,6.2807426,0.32793528,31.126553,0.48580602,0.47706503,0.17798166,0.1242793,inf,inf,inf,inf,1,1,1,1,3,2,3,3,4,1,1,0,0
86780000,86780000,1016000,1.3274169999999998,103.7850778,290.4376,95.62999,-30.774153,0.17867279,0.011898041,-0.00459671,13.62849,5.203408,0.048159532,0.013637842,0.0051231384,0.02074653,0.0074878335,-0.17941555,0.38989043,-0.042553056,0.35959056,6.2807426,0.32793528,31.124752,0.49743772,0.48126286,0.18277554,0.12568492,inf,inf,inf,inf,1,1,1,1,3,2,3,3,4,1,1,0,0
86880000,86880000,1016000,1.3274169999999998,103.7850778,291.80292,96.15756,-30.773022,0.17867279,0.011898041,-0.00459671,13.6126585,5.2447715,0.048591115,0.014167465,0.0051231384,0.02074653,0.0074878335,-0.22145036,0.39575857,-0.0017164274,0.36277378,6.2807426,0.32793528,31.123621,0.46448606,0.4723303,0.1685654,0.121877976,inf,inf,inf,inf,1,1,1,1,3,2,3,3,4,1,1,0,0
86980000,86980000,1016000,1.3274169999999998,103.7850778,293.1665,96.68926,-30.7717,0.17867279,0.011898041,-0.00459671,13.592762,5.288261,0.04864546,0.014512827,0.0051231384,0.02074653,0.0074878335,-0.23465672,0.42205554,0.068285495,0.36582738,6.2807426,0.32793528,31.1223,0.47505283,0.47637576,0.17320578,0.123290256,inf,inf,inf,inf,1,1,1,1,3,2,3,3,4,1,1,0,0
87080000,87080000,1016000,1.3274169999999998,103.7850778,294.52713,97.22405,-30.769272,0.17867279,0.011898041,-0.00459671,13.575201,5.3331275,0.048254304,0.015326125,0.0051231384,0.02074653,0.0074878335,-0.18511619,0.47213966,0.07199868,0.3691122,6.2807426,0.32793528,31.119871,0.48614207,0.48051184,0.17791349,0.124701224,inf,inf,inf,inf,1,1,1,1,3,2,3,3,4,1,1,0,0
87180000,87180000,1016000,1.3274169999999998,103.7850778,295.88528,97.76214,-30.76631,0.17867279,0.011898041,-0.00459671,13.556101,5.3778877,0.0470574,0.015853321,0.0051231384,0.02074653,0.0074878335,-0.20978616,0.45177564,0.021317972,0.37233064,6.2807426,0.32793528,31.116909,0.4977563,0.48018783,0.1826659,0.12553537,inf,inf,inf,inf,1,1,1,1,3,2,3,3,4,1,1,0,0
87280000,87280000,1016000,1.3274169999999998,103.7850778,297.24313,98.30711,-30.767778,0.17867279,0.011898041,-0.00459671,13.53401,5.423846,0.04455269,0.010573275,0.0051231384,0.02074653,0.0074878335,-0.25172538,0.3978757,-0.075474374,0.37570584,6.2807426,0.32793528,31.118378,0.46476245,0.47133663,0.16847791,0.12174868,inf,inf,inf,inf,1,1,1,1,3,2,3,3,4,1,1,0,0
87380000,87380000,1016000,1.3274169999999998,103.7850778,298.59824,98.85629,-30.76976,0.17867279,0.011898041,-0.00459671,13.510828,5.4686484,0.037890576,0.0015989499,0.0051231384,0.02074653,0.0074878335,-0.22153974,0.34608346,-0.06918515,0.37904018,6.2807426,0.32793528,31.12036,0.47531965,0.47537488,0.1731168,0.12316142,inf,inf,inf,inf,1,1,1,1,3,2,3,3,4,1,1,0,0
87480000,87480000,1016000,1.3274169999999998,103.7850778,299.95,99.40854,-30.770872,0.17867279,0.011898041,-0.00459671,13.487543,5.5134683,0.033728715,-0.0032382743,0.0051231384,0.02074653,0.0074878335,-0.25269794,0.45316848,-0.057036053,0.38225806,6.2807426,0.32793528,31.121471,0.48639908,0.4795038,0.17784072,0.124572314,inf,inf,inf,inf,1,1,1,1,3,2,3,3,4,1,1,0,0
87580000,87580000,1016000,1.3274169999999998,103.7850778,301.29877,99.96422,-30.771025,0.17867279,0.011898041,-0.00459671,13.463271,5.557108,0.031366028,-0.0048913397,0.0051231384,0.02074653,0.0074878335,-0.23822512,0.4870002,0.05692709,0.38568228,6.2807426,0.32793528,31.121624,0.49801236,0.47918466,0.18262266,0.12540609,inf,inf,inf,inf,1,1,1,1,3,2,3,3,4,1,1,0,0
87680000,87680000,1016000,1.3274169999999998,103.7850778,302.6459,100.52453,-30.77434,0.17867279,0.011898041,-0.00459671,13.440141,5.603073,0.027763044,-0.01081167,0.0051231384,0.02074653,0.0074878335,-0.22014675,0.3818556,-0.045699064,0.38917413,6.2807426,0.32793528,31.124939,0.4649846,0.47468358,0.16844758,0.12215103,inf,inf,inf,inf,1,1,1,1,3,2,3,3,4,1,1,0,0
87780000,87780000,1016000,1.3274169999999998,103.7850778,303.99033,101.088875,-30.777815,0.17867279,0.011898041,-0.00459671,13.415577,5.648568,0.027953446,-0.012611538,0.0051231384,0.02074653,0.0074878335,-0.2693922,0.44910192,0.0058403234,0.3927682,6.2807426,0.32793528,31.128414,0.47552788,0.47440904,0.17306659,0.12304128,inf,inf,inf,inf,1,1,1,1,3,2,3,3,4,1,1,0,0
87880000,87880000,1016000,1.3274169999999998,103.7850778,305.33167,101.65718,-30.779974,0.17867279,0.011898041,-0.00459671,13.391513,5.6949797,0.03179651,-0.009373786,0.0051231384,0.02074653,0.0074878335,-0.24889484,0.45984644,0.1910813,0.3965562,6.2807426,0.32793528,31.130573,0.48659733,0.47853112,0.17775738,0.12445193,inf,inf,inf,inf,1,1,1,1,3,2,3,3,4,1,1,0,0
87980000,87980000,1016000,1.3274169999999998,103.7850778,306.67035,102.22974,-30.780447,0.17867279,0.011898041,-0.00459671,13.369851,5.7421536,0.034511935,-0.006042708,0.0051231384,0.02074653,0.0074878335,-0.1529975,0.401,0.1223348,0.4001773,6.2807426,0.32793528,31.131046,0.4981989,0.47821617,0.1825032,0.1252855,inf,inf,inf,inf,1,1,1,1,3,2,3,3,4,1,1,0,0
88080000,88080000,1016000,1.3274169999999998,103.7850778,308.00845,102.807175,-30.784548,0.17867279,0.011898041,-0.00459671,13.3501835,5.7897024,0.041826066,-0.0022756376,0.0051231384,0.02074653,0.0074878335,-0.1974241,0.56085783,0.11766329,0.40396053,6.2807426,0.32793528,31.135147,0.4651579,0.47377512,0.16832788,0.12204693,inf,inf,inf,inf,1,1,1,1,3,2,3,3,4,1,1,0,0
88180000,88180000,1016000,1.3274169999999998,103.7850778,309.34467,103.389145,-30.78798,0.17867279,0.011898041,-0.00459671,13.3314905,5.837273,0.050352372,0.0030853201,0.0051231384,0.02074653,0.0074878335,-0.20877056,0.44528002,0.10706297,0.40781897,6.2807426,0.32793528,31.138578,0.4756948,0.47350374,0.17291744,0.12293609,inf,inf,inf,inf,1,1,1,1,3,2,3,3,4,1,1,0,0
88280000,88280000,1016000,1.3274169999999998,103.7850778,310.6781,103.975655,-30.788652,0.17867279,0.011898041,-0.00459671,13.310523,5.888685,0.05286726,0.0050330083,0.0051231384,0.02074653,0.0074878335,-0.16587543,0.5615797,0.13556983,0.41160965,6.2807426,0.32793528,31.139252,0.48675042,0.47763544,0.17756449,0.12435039,inf,inf,inf,inf,1,1,1,1,3,2,3,3,4,1,1,0,0
88380000,88380000,1016000,1.3274169999999998,103.7850778,312.0092,104.56725,-30.787066,0.17867279,0.011898041,-0.00459671,13.291402,5.940797,0.059833106,0.013112954,0.0051231384,0.02074653,0.0074878335,-0.201851,0.5569259,0.14491658,0.41537988,6.2807426,0.32793528,31.137665,0.4983275,0.48184165,0.18228284,0.12575866,inf,inf,inf,inf,1,1,1,1,3,2,3,3,4,1,1,0,0
88480000,88480000,1016000,1.3274169999999998,103.7850778,313.33978,105.16795,-30.788069,0.17867279,0.011898041,-0.00459671,13.2685585,5.995199,0.06011429,0.01138407,0.0051231384,0.02074653,0.0074878335,-0.21257502,0.55825305,0.08531473,0.41927192,6.2807426,0.32793528,31.138668,0.46528947,0.47290576,0.16814062,0.12195092,inf,inf,inf,inf,1,1,1,1,3,2,3,3,4,1,1,0,0
88580000,88580000,1016000,1.3274169999999998,103.7850778,314.66772,105.77439,-30.787962,0.17867279,0.011898041,-0.00459671,13.245256,6.050674,0.06541401,0.015846105,0.0051231384,0.02074653,0.0074878335,-0.17731576,0.5275862,0.049630176,0.42335132,6.2807426,0.32793528,31.138561,0.4758123,0.47697487,0.17275195,0.123370044,inf,inf,inf,inf,1,1,1,1,3,2,3,3,4,1,1,0,0
88680000,88680000,1016000,1.3274169999999998,103.7850778,315.99277,106.38512,-30.786074,0.17867279,0.011898041,-0.00459671,13.224901,6.107523,0.069639854,0.02062379,0.0051231384,0.02074653,0.0074878335,-0.16682778,0.64874226,-0.027403234,0.4275111,6.2807426,0.32793528,31.136673,0.48685372,0.4767006,0.1774105,0.124238856,inf,inf,inf,inf,1,1,1,1,3,2,3,3,4,1,1,0,0
88780000,88780000,1016000,1.3274169999999998,103.7850778,317.3153,107.0007,-30.782581,0.17867279,0.011898041,-0.00459671,13.207273,6.16476,0.07585762,0.028368477,0.0051231384,0.02074653,0.0074878335,-0.23745784,0.6441196,0.032114793,0.43152902,6.2807426,0.32793528,31.13318,0.49842456,0.48091644,0.18213701,0.12565134,inf,inf,inf,inf,1,1,1,1,3,2,3,3,4,1,1,0,0
88880000,88880000,1016000,1.3274169999999998,103.7850778,318.63712,107.62556,-30.780031,0.17867279,0.011898041,-0.00459671,13.188952,6.2235374,0.08137536,0.033531163,0.0051231384,0.02074653,0.0074878335,-0.12707455,0.5023802,0.041298565,0.43580368,6.2807426,0.32793528,31.13063,0.46538976,0.4720908,0.16803391,0.12186933,inf,inf,inf,inf,1,1,1,1,3,2,3,3,4,1,1,0,0
88980000,88980000,1016000,1.3274169999999998,103.7850778,319.95688,108.256165,-30.77709,0.17867279,0.011898041,-0.00459671,13.166662,6.2835665,0.079896785,0.032033596,0.0051231384,0.02074653,0.0074878335,-0.22261423,0.5581443,-0.011254101,0.4401948,6.2807426,0.32793528,31.12769,0.47589508,0.47618562,0.17260368,0.12329605,inf,inf,inf,inf,1,1,1,1,3,2,3,3,4,1,1,0,0
89080000,89080000,1016000,1.3274169999999998,103.7850778,321.2737,108.891136,-30.772762,0.17867279,0.011898041,-0.00459671,13.143482,6.3419437,0.07987875,0.033371802,0.0051231384,0.02074653,0.0074878335,-0.22891216,0.5808445,0.06399955,0.44443595,6.2807426,0.32793528,31.123362,0.48692307,0.4759432,0.1772865,0.12417092,inf,inf,inf,inf,1,1,1,1,3,2,3,3,4,1,1,0,0
89180000,89180000,1016000,1.3274169999999998,103.7850778,322.58786,109.53097,-30.766731,0.17867279,0.011898041,-0.00459671,13.119607,6.4031334,0.0788498,0.035245404,0.0051231384,0.02074653,0.0074878335,-0.21575451,0.6004081,-0.09587127,0.44903618,6.2807426,0.32793528,31.11733,0.4984806,0.48015362,0.18203269,0.12558256,inf,inf,inf,inf,1,1,1,1,3,2,3,3,4,1,1,0,0
89280000,89280000,1016000,1.3274169999999998,103.7850778,323.90137,110.18177,-30.762156,0.17867279,0.011898041,-0.00459671,13.093484,6.464066,0.07190237,0.02987269,0.0051231384,0.02074653,0.0074878335,-0.17089084,0.62513083,-0.16092508,0.4536447,6.2807426,0.32793528,31.112755,0.4654553,0.47131616,0.16797894,0.12179398,inf,inf,inf,inf,1,1,1,1,3,2,3,3,4,1,1,0,0
89380000,89380000,1016000,1.3274169999999998,103.7850778,325.21207,110.83874,-30.758608,0.17867279,0.011898041,-0.00459671,13.064265,6.5263495,0.06739364,0.026400529,0.0051231384,0.02074653,0.0074878335,-0.29774797,0.5688867,0.0128345555,0.45827594,6.2807426,0.32793528,31.109207,0.47595808,0.4753743,0.17261907,0.12321196,inf,inf,inf,inf,1,1,1,1,3,2,3,3,4,1,1,0,0
89480000,89480000,1016000,1.3274169999999998,103.7850778,326.5188,111.499664,-30.754362,0.17867279,0.011898041,-0.00459671,13.03277,6.586407,0.05893648,0.0201692,0.0051231384,0.02074653,0.0074878335,-0.3051388,0.5444562,-0.09327381,0.46300474,6.2807426,0.32793528,31.104961,0.4869801,0.47952378,0.17732464,0.12462875,inf,inf,inf,inf,1,1,1,1,3,2,3,3,4,1,1,0,0
89580000,89580000,1016000,1.3274169999999998,103.7850778,327.82184,112.165245,-30.750896,0.17867279,0.011898041,-0.00459671,13.004119,6.6493187,0.05451382,0.017573917,0.0051231384,0.02074653,0.0074878335,-0.25435162,0.5354101,-0.055975277,0.46794665,6.2807426,0.32793528,31.101496,0.49852434,0.47924095,0.18208426,0.12547219,inf,inf,inf,inf,1,1,1,1,3,2,3,3,4,1,1,0,0
89680000,89680000,1016000,1.3274169999999998,103.7850778,329.12073,112.84124,-30.751038,0.17867279,0.011898041,-0.00459671,12.971696,6.713973,0.052703522,0.014094562,0.0051231384,0.02074653,0.0074878335,-0.3365326,0.5331086,0.020177102,0.47271138,6.2807426,0.32793528,31.101637,0.4654994,0.47043836,0.16803688,0.12169054,inf,inf,inf,inf,1,1,1,1,3,2,3,3,4,1,1,0,0
89780000,89780000,1016000,1.3274169999999998,103.7850778,330.41605,113.52349,-30.75117,0.17867279,0.011898041,-0.00459671,12.940722,6.7803364,0.0493512,0.009599272,0.0051231384,0.02074653,0.0074878335,-0.30624625,0.653678,-0.05281437,0.47754788,6.2807426,0.32793528,31.101768,0.47599706,0.47448975,0.1726584,0.123108685,inf,inf,inf,inf,1,1,1,1,3,2,3,3,4,1,1,0,0
89880000,89880000,1016000,1.3274169999999998,103.7850778,331.70795,114.21012,-30.750078,0.17867279,0.011898041,-0.00459671,12.909545,6.845938,0.050105266,0.01071628,0.0051231384,0.02074653,0.0074878335,-0.23655555,0.6921597,0.009792856,0.48235282,6.2807426,0.32793528,31.100677,0.48701343,0.47423425,0.1773455,0.12397762,inf,inf,inf,inf,1,1,1,1,3,2,3,3,4,1,1,0,0
89980000,89980000,1016000,1.3274169999999998,103.7850778,332.99683,114.90164,-30.748257,0.17867279,0.011898041,-0.00459671,12.879053,6.910055,0.051358406,0.01274501,0.0051231384,0.02074653,0.0074878335,-0.3261735,0.595042,-0.019138677,0.48726243,6.2807426,0.32793528,31.098856,0.49856,0.47843128,0.18208727,0.12538894,inf,inf,inf,inf,1,1,1,1,3,2,3,3,4,1,1,0,0
90080000,90080000,1016000,1.3274169999999998,103.7850778,334.28076,115.60214,-30.74866,0.17867279,0.011898041,-0.00459671,12.843182,6.974442,0.049562786,0.0095638875,0.0051231384,0.02074653,0.0074878335,-0.37337053,0.5981671,0.02157036,0.49233893,6.2807426,0.32793528,31.099258,0.46553922,0.47399986,0.16801913,0.12214546,inf,inf,inf,inf,1,1,1,1,3,2,3,3,4,1,1,0,0
90180000,90180000,1016000,1.3274169999999998,103.7850778,335.5606,116.3086,-30.749977,0.17867279,0.011898041,-0.00459671,12.804486,7.039347,0.042443424,0.0006861142,0.0051231384,0.02074653,0.0074878335,-0.4288166,0.62423015,-0.17104763,0.49752194,6.2807426,0.32793528,31.100576,0.47602472,0.4737582,0.17261711,0.12304222,inf,inf,inf,inf,1,1,1,1,3,2,3,3,4,1,1,0,0
90280000,90280000,1016000,1.3274169999999998,103.7850778,336.83682,117.019775,-30.75056,0.17867279,0.011898041,-0.00459671,12.76104,7.1052833,0.035776965,-0.0061616134,0.0051231384,0.02074653,0.0074878335,-0.42275593,0.63076377,-0.10553467,0.50266755,6.2807426,0.32793528,31.10116,0.48703375,0.47789514,0.17731509,0.12445792,inf,inf,inf,inf,1,1,1,1,3,2,3,3,4,1,1,0,0
90380000,90380000,1016000,1.3274169999999998,103.7850778,338.1094,117.73626,-30.750273,0.17867279,0.011898041,-0.00459671,12.7212105,7.170379,0.029679744,-0.010814864,0.0051231384,0.02074653,0.0074878335,-0.40635744,0.7011886,-0.12215878,0.5079987,6.2807426,0.32793528,31.100872,0.4985736,0.47761273,0.1820866,0.12529899,inf,inf,inf,inf,1,1,1,1,3,2,3,3,4,1,1,0,0
90480000,90480000,1016000,1.3274169999999998,103.7850778,339.37885,118.46312,-30.751097,0.17867279,0.011898041,-0.00459671,12.680352,7.2367144,0.021879284,-0.017847477,0.0051231384,0.02074653,0.0074878335,-0.4369043,0.62141657,-0.12737884,0.51333666,6.2807426,0.32793528,31.101696,0.46555817,0.47318488,0.1680462,0.12205647,inf,inf,inf,inf,1,1,1,1,3,2,3,3,4,1,1,0,0
90580000,90580000,1016000,1.3274169999999998,103.7850778,340.64432,119.19619,-30.751802,0.17867279,0.011898041,-0.00459671,12.638795,7.3013787,0.019997971,-0.018389475,0.0051231384,0.02074653,0.0074878335,-0.31083518,0.64937913,0.06594322,0.5187822,6.2807426,0.32793528,31.102402,0.47604576,0.47727427,0.17268851,0.12348061,inf,inf,inf,inf,1,1,1,1,3,2,3,3,4,1,1,0,0
90680000,90680000,1016000,1.3274169999999998,103.7850778,341.90555,119.93398,-30.752222,0.17867279,0.011898041,-0.00459671,12.591398,7.36842,0.01040595,-0.026403312,0.0051231384,0.02074653,0.0074878335,-0.7030637,0.7360372,-0.9171189,0.5231133,6.2807426,0.32793528,31.102821,0.4870529,0.4769644,0.17737964,0.124339744,inf,inf,inf,inf,1,1,1,1,3,2,3,3,4,1,1,0,0
90780000,90780000,1016000,1.3274169999999998,103.7850778,343.15988,120.67797,-30.7545,0.17867279,0.011898041,-0.00459671,12.498808,7.460216,0.02131381,-0.014049149,0.0051231384,0.02074653,0.0074878335,-1.1410263,1.2262518,0.432712,0.5234104,6.2807426,0.32793528,31.105099,0.49858183,0.48116785,0.18211207,0.12574871,inf,inf,inf,inf,1,1,1,1,3,2,3,3,4,1,1,0,0
90880000,90880000,1016000,1.3274169999999998,103.7850778,344.40482,121.43862,-30.75536,0.17867279,0.011898041,-0.00459671,12.356462,7.6367655,0.057500124,0.02108929,0.0051231384,0.02074653,0.0074878335,-1.7094715,2.2286544,0.52420044,0.5219215,6.2807426,0.32793528,31.105959,0.46556357,0.47228426,0.16804513,0.12194135,inf,inf,inf,inf,1,1,1,1,3,2,3,3,4,1,1,0,0
90980000,90980000,1016000,1.3274169999999998,103.7850778,345.63306,122.22128,-30.751179,0.17867279,0.011898041,-0.00459671,12.164051,7.908179,0.12367898,0.08631454,0.0051231384,0.02074653,0.0074878335,-2.1007047,3.1920497,0.7860902,0.52306306,6.2807426,0.32793528,31.101778,0.47604352,0.47636536,0.17257966,0.123345874,inf,inf,inf,inf,1,1,1,1,3,2,3,3,4,1,1,0,0
91080000,91080000,1016000,1.3274169999999998,103.7850778,346.84067,123.03288,-30.735855,0.17867279,0.011898041,-0.00459671,11.975485,8.245006,0.29067,0.2534502,0.0051231384,0.02074653,0.0074878335,-1.6540416,3.8536956,2.1536777,0.5340697,6.2807426,0.32793528,31.086454,0.4870371,0.4760696,0.17713885,0.124153234,inf,inf,inf,inf,1,1,1,1,3,2,3,3,4,1,1,0,0
91180000,91180000,1016000,1.3274169999999998,103.7850778,348.03003,123.87992,-30.698627,0.17867279,0.011898041,-0.00459671,11.770507,8.6534,0.496195,0.45995253,0.0051231384,0.02074653,0.0074878335,-3.0943987,4.817088,0.82763,0.57431984,6.2807426,0.32793528,31.049227,0.49854985,0.48023978,0.18144609,0.12543625,inf,inf,inf,inf,1,1,1,1,3,2,3,3,4,1,1,0,0
91280000,91280000,1016000,1.3274169999999998,103.7850778,349.19238,124.774765,-30.652283,0.17867279,0.011898041,-0.00459671,11.4501505,9.130905,0.54469514,0.50601315,0.0051231384,0.02074653,0.0074878335,-3.380663,4.68758,-0.08749682,0.6325781,6.2807426,0.32793528,31.002882,0.46561295,0.47571313,0.16702154,0.12202415,inf,inf,inf,inf,1,1,1,1,3,2,3,3,4,1,1,0,0
91380000,91380000,1016000,1.3274169999999998,103.7850778,350.32187,125.71585,-30.607782,0.17867279,0.011898041,-0.00459671,11.122468,9.582471,0.44268474,0.40219718,0.0051231384,0.02074653,0.0074878335,-3.1254508,4.082293,-1.5624528,0.690608,6.2807426,0.32793528,30.958382,0.47604373,0.4753795,0.17186274,0.12284941,inf,inf,inf,inf,1,1,1,1,3,2,3,3,4,1,1,0,0
91480000,91480000,1016000,1.3274169999999998,103.7850778,351.42026,126.695694,-30.576847,0.17867279,0.011898041,-0.00459671,10.8405905,9.929239,0.2574748,0.21676604,0.0051231384,0.02074653,0.0074878335,-2.5364728,2.9043703,-2.1293077,0.74276793,6.2807426,0.32793528,30.927446,0.48698997,0.47946286,0.17741972,0.12431557,inf,inf,inf,inf,1,1,1,1,3,2,3,3,4,1,1,0,0
91580000,91580000,1016000,1.3274169999999998,103.7850778,352.49408,127.703354,-30.563023,0.17867279,0.011898041,-0.00459671,10.655277,10.163479,0.1180113,0.07808254,0.0051231384,0.02074653,0.0074878335,-1.2967025,1.9486585,-1.1344868,0.78784895,6.2807426,0.32793528,30.913622,0.49850407,0.47908154,0.18339233,0.1252643,inf,inf,inf,inf,1,1,1,1,3,2,3,3,4,1,1,0,0
91680000,91680000,1016000,1.3274169999999998,103.7850778,353.55276,128.73213,-30.557253,0.17867279,0.011898041,-0.00459671,10.529168,10.322914,0.051914334,0.0140788155,0.0051231384,0.02074653,0.0074878335,-1.2405283,1.2354081,-0.36035943,0.80826104,6.2807426,0.32793528,30.907852,0.46548963,0.47459868,0.16985783,0.12208635,inf,inf,inf,inf,1,1,1,1,3,2,3,3,4,1,1,0,0
91780000,91780000,1016000,1.3274169999999998,103.7850778,354.59897,129.7738,-30.555088,0.17867279,0.011898041,-0.00459671,10.411608,10.437128,0.013295314,-0.021870641,0.0051231384,0.02074653,0.0074878335,-1.0535417,1.0494114,-0.44344643,0.8099468,6.2807426,0.32793528,30.905687,0.47598988,0.47862127,0.17493618,0.123569176,inf,inf,inf,inf,1,1,1,1,3,2,3,3,4,1,1,0,0
91880000,91880000,1016000,1.3274169999999998,103.7850778,355.63406,130.82495,-30.556093,0.17867279,0.011898041,-0.00459671,10.308053,10.531928,-0.020907551,-0.053272728,0.0051231384,0.02074653,0.0074878335,-1.0152965,0.827837,-0.32810026,0.80286616,6.2807426,0.32793528,30.906693,0.48703232,0.47822595,0.17989208,0.124469064,inf,inf,inf,inf,1,1,1,1,3,2,3,3,4,1,1,0,0
91980000,91980000,1016000,1.3274169999999998,103.7850778,356.65988,131.88371,-30.56039,0.17867279,0.011898041,-0.00459671,10.223493,10.604795,-0.050666712,-0.08067985,0.0051231384,0.02074653,0.0074878335,-0.7707968,0.5537582,-0.28645432,0.79489857,6.2807426,0.32793528,30.91099,0.4986197,0.48236626,0.18485041,0.12590255,inf,inf,inf,inf,1,1,1,1,3,2,3,3,4,1,1,0,0
92080000,92080000,1016000,1.3274169999999998,103.7850778,357.67352,132.95154,-30.56698,0.17867279,0.011898041,-0.00459671,10.146845,10.662673,-0.07918652,-0.10640732,0.0051231384,0.02074653,0.0074878335,-0.6701992,0.5072328,-0.27108842,0.79176056,6.2807426,0.32793528,30.91758,0.4655126,0.4733932,0.17032303,0.12204943,inf,inf,inf,inf,1,1,1,1,3,2,3,3,4,1,1,0,0
92180000,92180000,1016000,1.3274169999999998,103.7850778,358.67947,134.0245,-30.575848,0.17867279,0.011898041,-0.00459671,10.074923,10.711842,-0.09950252,-0.124090806,0.0051231384,0.02074653,0.0074878335,-0.71333617,0.48003697,-0.15097949,0.79541737,6.2807426,0.32793528,30.926447,0.47603402,0.47743264,0.17506343,0.12347389,inf,inf,inf,inf,1,1,1,1,3,2,3,3,4,1,1,0,0
92280000,92280000,1016000,1.3274169999999998,103.7850778,359.67944,135.1012,-30.586853,0.17867279,0.011898041,-0.00459671,10.000182,10.764705,-0.11238265,-0.1351342,0.0051231384,0.02074653,0.0074878335,-0.7280703,0.5223407,-0.13268179,0.8055378,6.2807426,0.32793528,30.937452,0.48709217,0.47707048,0.17983276,0.12433113,inf,inf,inf,inf,1,1,1,1,3,2,3,3,4,1,1,0,0
92380000,92380000,1016000,1.3274169999999998,103.7850778,360.67288,136.18242,-30.599285,0.17867279,0.011898041,-0.00459671,9.919086,10.822892,-0.1224433,-0.14373666,0.0051231384,0.02074653,0.0074878335,-0.79534084,0.5687752,-0.045328397,0.81932974,6.2807426,0.32793528,30.949884,0.49869752,0.48121044,0.18464221,0.12573382,inf,inf,inf,inf,1,1,1,1,3,2,3,3,4,1,1,0,0
92480000,92480000,1016000,1.3274169999999998,103.7850778,361.6558,137.2743,-30.613142,0.17867279,0.011898041,-0.00459671,9.830783,10.89069,-0.1280369,-0.14872454,0.0051231384,0.02074653,0.0074878335,-0.91550034,0.62604755,-0.0018877907,0.8339771,6.2807426,0.32793528,30.963741,0.46556515,0.47230518,0.1700607,0.12189274,inf,inf,inf,inf,1,1,1,1,3,2,3,3,4,1,1,0,0
92580000,92580000,1016000,1.3274169999999998,103.7850778,362.6293,138.37321,-30.626837,0.17867279,0.011898041,-0.00459671,9.732317,10.962558,-0.13215998,-0.15167376,0.0051231384,0.02074653,0.0074878335,-0.9754111,0.68175244,0.0023059545,0.8466968,6.2807426,0.32793528,30.977436,0.4760836,0.47634313,0.17470118,0.12332404,inf,inf,inf,inf,1,1,1,1,3,2,3,3,4,1,1,0,0
92680000,92680000,1016000,1.3274169999999998,103.7850778,363.5939,139.47745,-30.641369,0.17867279,0.011898041,-0.00459671,9.629844,11.035757,-0.13724002,-0.15611228,0.0051231384,0.02074653,0.0074878335,-1.04129,0.77446705,-0.014198943,0.8566206,6.2807426,0.32793528,30.991968,0.48713803,0.47605696,0.17943358,0.12421569,inf,inf,inf,inf,1,1,1,1,3,2,3,3,4,1,1,0,0
92780000,92780000,1016000,1.3274169999999998,103.7850778,364.54907,140.58746,-30.655943,0.17867279,0.011898041,-0.00459671,9.525007,11.106328,-0.13521966,-0.15336564,0.0051231384,0.02074653,0.0074878335,-0.9888176,0.7273551,-0.08721835,0.8637157,6.2807426,0.32793528,31.006542,0.4987355,0.48024505,0.1842401,0.12564865,inf,inf,inf,inf,1,1,1,1,3,2,3,3,4,1,1,0,0
92880000,92880000,1016000,1.3274169999999998,103.7850778,365.4916,141.70792,-30.671627,0.17867279,0.011898041,-0.00459671,9.422919,11.174162,-0.1301958,-0.14909075,0.0051231384,0.02074653,0.0074878335,-0.96269244,0.6507848,0.020843929,0.8693176,6.2807426,0.32793528,31.022226,0.4656084,0.47146168,0.1697196,0.121848434,inf,inf,inf,inf,1,1,1,1,3,2,3,3,4,1,1,0,0
92980000,92980000,1016000,1.3274169999999998,103.7850778,366.42413,142.83493,-30.686264,0.17867279,0.011898041,-0.00459671,9.323631,11.2442255,-0.12240744,-0.14157116,0.0051231384,0.02074653,0.0074878335,-0.91769344,0.62676126,0.045770776,0.8746153,6.2807426,0.32793528,31.036863,0.47612607,0.47554657,0.17434329,0.12329601,inf,inf,inf,inf,1,1,1,1,3,2,3,3,4,1,1,0,0
93080000,93080000,1016000,1.3274169999999998,103.7850778,367.34818,143.9668,-30.698872,0.17867279,0.011898041,-0.00459671,9.228591,11.311523,-0.11368405,-0.13188665,0.0051231384,0.02074653,0.0074878335,-0.91128075,0.6392216,0.08045043,0.8807312,6.2807426,0.32793528,31.04947,0.48717102,0.47529837,0.17901935,0.12419275,inf,inf,inf,inf,1,1,1,1,3,2,3,3,4,1,1,0,0
93180000,93180000,1016000,1.3274169999999998,103.7850778,368.26376,145.10393,-30.70963,0.17867279,0.011898041,-0.00459671,9.134404,11.3767395,-0.09974667,-0.11634137,0.0051231384,0.02074653,0.0074878335,-0.8844925,0.6471945,0.2559237,0.8882733,6.2807426,0.32793528,31.060228,0.49874592,0.47951898,0.18373084,0.12562743,inf,inf,inf,inf,1,1,1,1,3,2,3,3,4,1,1,0,0
93280000,93280000,1016000,1.3274169999999998,103.7850778,369.16733,146.25269,-30.719614,0.17867279,0.011898041,-0.00459671,9.037111,11.444571,-0.08723606,-0.10292964,0.0051231384,0.02074653,0.0074878335,-0.932581,0.6207324,0.15012173,0.89693373,6.2807426,0.32793528,31.070213,0.46564305,0.4707882,0.16926605,0.12182964,inf,inf,inf,inf,1,1,1,1,3,2,3,3,4,1,1,0,0
93380000,93380000,1016000,1.3274169999999998,103.7850778,370.061,147.40811,-30.727924,0.17867279,0.011898041,-0.00459671,8.936754,11.514405,-0.076164715,-0.09058974,0.0051231384,0.02074653,0.0074878335,-0.96054566,0.7883261,0.13260077,0.9065773,6.2807426,0.32793528,31.078524,0.47614697,0.4748731,0.17384326,0.123273134,inf,inf,inf,inf,1,1,1,1,3,2,3,3,4,1,1,0,0
93480000,93480000,1016000,1.3274169999999998,103.7850778,370.94577,148.56833,-30.734867,0.17867279,0.011898041,-0.00459671,8.834934,11.58627,-0.065537155,-0.07856254,0.0051231384,0.02074653,0.0074878335,-1.0041809,0.61921597,0.048867423,0.9162876,6.2807426,0.32793528,31.085466,0.48717406,0.47462693,0.17849353,0.124164246,inf,inf,inf,inf,1,1,1,1,3,2,3,3,4,1,1,0,0
93580000,93580000,1016000,1.3274169999999998,103.7850778,371.82126,149.73416,-30.740143,0.17867279,0.011898041,-0.00459671,8.731958,11.659439,-0.048800834,-0.060193248,0.0051231384,0.02074653,0.0074878335,-1.0403694,0.77436715,0.11345557,0.9259581,6.2807426,0.32793528,31.090742,0.498736,0.4788143,0.18321463,0.12559271,inf,inf,inf,inf,1,1,1,1,3,2,3,3,4,1,1,0,0
93680000,93680000,1016000,1.3274169999999998,103.7850778,372.6823,150.91188,-30.744225,0.17867279,0.011898041,-0.00459671,8.626895,11.73919,-0.03374772,-0.044031702,0.0051231384,0.02074653,0.0074878335,-0.95419335,0.7780367,0.12502912,0.9351141,6.2807426,0.32793528,31.094824,0.46566477,0.47435924,0.16886,0.122310825,inf,inf,inf,inf,1,1,1,1,3,2,3,3,4,1,1,0,0
93780000,93780000,1016000,1.3274169999999998,103.7850778,373.53278,152.09695,-30.747076,0.17867279,0.011898041,-0.00459671,8.518753,11.814979,-0.020516966,-0.030125126,0.0051231384,0.02074653,0.0074878335,-1.0417773,0.7559621,0.010551884,0.94409686,6.2807426,0.32793528,31.097675,0.47614917,0.47409856,0.173419,0.123226136,inf,inf,inf,inf,1,1,1,1,3,2,3,3,4,1,1,0,0
93880000,93880000,1016000,1.3274169999999998,103.7850778,374.37436,153.28748,-30.748678,0.17867279,0.011898041,-0.00459671,8.412758,11.891356,-0.011879724,-0.0206598,0.0051231384,0.02074653,0.0074878335,-0.9519026,0.7216243,0.14282016,0.95256335,6.2807426,0.32793528,31.099277,0.48715907,0.47822753,0.17806146,0.12466037,inf,inf,inf,inf,1,1,1,1,3,2,3,3,4,1,1,0,0
93980000,93980000,1016000,1.3274169999999998,103.7850778,375.20685,154.48387,-30.749628,0.17867279,0.011898041,-0.00459671,8.303866,11.967928,-0.0016741516,-0.009933048,0.0051231384,0.02074653,0.0074878335,-1.1099644,0.78639,0.18408056,0.9610734,6.2807426,0.32793528,31.100227,0.49870142,0.47794557,0.18279424,0.12552425,inf,inf,inf,inf,1,1,1,1,3,2,3,3,4,1,1,0,0
94080000,94080000,1016000,1.3274169999999998,103.7850778,376.0264,155.69286,-30.749567,0.17867279,0.011898041,-0.00459671,8.195612,12.049115,0.010206109,0.0021874814,0.0051231384,0.02074653,0.0074878335,-1.0766785,0.7470832,0.06473436,0.96978503,6.2807426,0.32793528,31.100166,0.4656653,0.47352353,0.16856167,0.122252256,inf,inf,inf,inf,1,1,1,1,3,2,3,3,4,1,1,0,0
94180000,94180000,1016000,1.3274169999999998,103.7850778,376.83545,156.90962,-30.748438,0.17867279,0.011898041,-0.00459671,8.087602,12.129467,0.023031866,0.015113978,0.0051231384,0.02074653,0.0074878335,-0.9919049,0.81383723,0.09307637,0.97882944,6.2807426,0.32793528,31.099037,0.4761429,0.4732825,0.17314559,0.1231713,inf,inf,inf,inf,1,1,1,1,3,2,3,3,4,1,1,0,0
94280000,94280000,1016000,1.3274169999999998,103.7850778,377.6355,158.13214,-30.746126,0.17867279,0.011898041,-0.00459671,7.980789,12.211888,0.034541443,0.026603665,0.0051231384,0.02074653,0.0074878335,-1.1450837,0.81017315,0.014036893,0.98806405,6.2807426,0.32793528,31.096725,0.48714036,0.47745568,0.17779215,0.124617696,inf,inf,inf,inf,1,1,1,1,3,2,3,3,4,1,1,0,0
94380000,94380000,1016000,1.3274169999999998,103.7850778,378.42603,159.36086,-30.742836,0.17867279,0.011898041,-0.00459671,7.87164,12.291485,0.043021064,0.03514792,0.0051231384,0.02074653,0.0074878335,-1.1043545,0.8544114,0.031650994,0.99773896,6.2807426,0.32793528,31.093435,0.49866036,0.47725564,0.18248713,0.12550002,inf,inf,inf,inf,1,1,1,1,3,2,3,3,4,1,1,0,0
94480000,94480000,1016000,1.3274169999999998,103.7850778,379.2011,160.60143,-30.739668,0.17867279,0.011898041,-0.00459671,7.7560143,12.375328,0.047260817,0.038626004,0.0051231384,0.02074653,0.0074878335,-1.1674718,0.7911958,-0.007519498,1.0075185,6.2807426,0.32793528,31.090267,0.4656555,0.4728532,0.16833137,0.122231044,inf,inf,inf,inf,1,1,1,1,3,2,3,3,4,1,1,0,0
94580000,94580000,1016000,1.3274169999999998,103.7850778,379.96463,161.84978,-30.736187,0.17867279,0.011898041,-0.00459671,7.638922,12.45807,0.05214376,0.042670585,0.0051231384,0.02074653,0.0074878335,-1.1137705,0.81918323,0.023202037,1.0174712,6.2807426,0.32793528,31.086786,0.47612262,0.47259724,0.17294723,0.1231449,inf,inf,inf,inf,1,1,1,1,3,2,3,3,4,1,1,0,0
94680000,94680000,1016000,1.3274169999999998,103.7850778,380.7178,163.1042,-30.73267,0.17867279,0.011898041,-0.00459671,7.5175533,12.539653,0.05438151,0.043899696,0.0051231384,0.02074653,0.0074878335,-1.1561662,0.8469201,-0.020932404,1.0274774,6.2807426,0.32793528,31.08327,0.4871096,0.47673586,0.17762974,0.124584846,inf,inf,inf,inf,1,1,1,1,3,2,3,3,4,1,1,0,0
94780000,94780000,1016000,1.3274169999999998,103.7850778,381.4603,164.36511,-30.728918,0.17867279,0.011898041,-0.00459671,7.395994,12.618646,0.050703958,0.03957162,0.0051231384,0.02074653,0.0074878335,-1.1644967,0.7301273,-0.1672292,1.037347,6.2807426,0.32793528,31.079517,0.49862823,0.48096675,0.18238926,0.1260247,inf,inf,inf,inf,1,1,1,1,3,2,3,3,4,1,1,0,0
94880000,94880000,1016000,1.3274169999999998,103.7850778,382.18765,165.6397,-30.725208,0.17867279,0.011898041,-0.00459671,7.267156,12.697313,0.04427769,0.033174865,0.0051231384,0.02074653,0.0074878335,-1.2780712,0.7195755,-0.046383586,1.0475643,6.2807426,0.32793528,31.075808,0.46564028,0.47205305,0.16830474,0.122179046,inf,inf,inf,inf,1,1,1,1,3,2,3,3,4,1,1,0,0
94980000,94980000,1016000,1.3274169999999998,103.7850778,382.9023,166.9218,-30.721943,0.17867279,0.011898041,-0.00459671,7.1364465,12.773209,0.032066815,0.02147713,0.0051231384,0.02074653,0.0074878335,-1.3654658,0.72701997,-0.1063086,1.057655,6.2807426,0.32793528,31.072542,0.47609887,0.47612965,0.17295706,0.123623624,inf,inf,inf,inf,1,1,1,1,3,2,3,3,4,1,1,0,0
95080000,95080000,1016000,1.3274169999999998,103.7850778,383.60535,168.20866,-30.720041,0.17867279,0.011898041,-0.00459671,7.0033727,12.845441,0.015558133,0.005452466,0.0051231384,0.02074653,0.0074878335,-1.2451054,0.71924514,-0.11337734,1.0679128,6.2807426,0.32793528,31.07064,0.487084,0.47588715,0.17771143,0.12452102,inf,inf,inf,inf,1,1,1,1,3,2,3,3,4,1,1,0,0
95180000,95180000,1016000,1.3274169999999998,103.7850778,384.2964,169.50085,-30.719038,0.17867279,0.011898041,-0.00459671,6.8692408,12.916434,0.0020200624,-0.007114581,0.0051231384,0.02074653,0.0074878335,-1.4153675,0.7392614,-0.06419978,1.0783664,6.2807426,0.32793528,31.069637,0.49860415,0.48011306,0.18255337,0.12596112,inf,inf,inf,inf,1,1,1,1,3,2,3,3,4,1,1,0,0
95280000,95280000,1016000,1.3274169999999998,103.7850778,384.96802,170.80446,-30.718174,0.17867279,0.011898041,-0.00459671,6.728873,12.989157,-0.006488492,-0.0137696555,0.0051231384,0.02074653,0.0074878335,-1.3224587,0.62651694,-0.040159557,1.088767,6.2807426,0.32793528,31.068773,0.46561617,0.4712554,0.16847993,0.12212464,inf,inf,inf,inf,1,1,1,1,3,2,3,3,4,1,1,0,0
95380000,95380000,1016000,1.3274169999999998,103.7850778,385.62534,172.11453,-30.719275,0.17867279,0.011898041,-0.00459671,6.5857673,13.057979,-0.016868647,-0.023389904,0.0051231384,0.02074653,0.0074878335,-1.3506745,0.66591084,-0.014136544,1.099321,6.2807426,0.32793528,31.069874,0.47608328,0.47534308,0.17316532,0.123574615,inf,inf,inf,inf,1,1,1,1,3,2,3,3,4,1,1,0,0
95480000,95480000,1016000,1.3274169999999998,103.7850778,386.27078,173.42903,-30.721355,0.17867279,0.011898041,-0.00459671,6.4418683,13.128077,-0.027003344,-0.032813534,0.0051231384,0.02074653,0.0074878335,-1.4333615,0.6305771,-0.048796643,1.110219,6.2807426,0.32793528,31.071955,0.48707384,0.47511736,0.17792225,0.12447525,inf,inf,inf,inf,1,1,1,1,3,2,3,3,4,1,1,0,0
95580000,95580000,1016000,1.3274169999999998,103.7850778,386.9037,174.74852,-30.723719,0.17867279,0.011898041,-0.00459671,6.297358,13.192625,-0.034886636,-0.03957135,0.0051231384,0.02074653,0.0074878335,-1.4448756,0.7134883,-0.13561639,1.1212131,6.2807426,0.32793528,31.074318,0.49859232,0.47933835,0.18272914,0.12591551,inf,inf,inf,inf,1,1,1,1,3,2,3,3,4,1,1,0,0
95680000,95680000,1016000,1.3274169999999998,103.7850778,387.51694,176.0764,-30.724657,0.17867279,0.011898041,-0.00459671,6.148216,13.260327,-0.034463435,-0.036212012,0.0051231384,0.02074653,0.0074878335,-1.4073536,0.68800926,0.110409215,1.1321161,6.2807426,0.32793528,31.075256,0.46560127,0.4705293,0.16859958,0.1220866,inf,inf,inf,inf,1,1,1,1,3,2,3,3,4,1,1,0,0
95780000,95780000,1016000,1.3274169999999998,103.7850778,388.1157,177.4103,-30.724442,0.17867279,0.011898041,-0.00459671,5.998686,13.327849,-0.028452206,-0.026876124,0.0051231384,0.02074653,0.0074878335,-1.4007058,0.6605763,0.031163914,1.1429268,6.2807426,0.32793528,31.07504,0.4760699,0.47464344,0.17326221,0.123544686,inf,inf,inf,inf,1,1,1,1,3,2,3,3,4,1,1,0,0
95880000,95880000,1016000,1.3274169999999998,103.7850778,388.7021,178.7493,-30.72453,0.17867279,0.011898041,-0.00459671,5.849953,13.39455,-0.026063005,-0.022233764,0.0051231384,0.02074653,0.0074878335,-1.448085,0.60332793,-0.0064503397,1.1541591,6.2807426,0.32793528,31.075129,0.48706084,0.47444814,0.17796004,0.12445263,inf,inf,inf,inf,1,1,1,1,3,2,3,3,4,1,1,0,0
95980000,95980000,1016000,1.3274169999999998,103.7850778,389.27542,180.09367,-30.72554,0.17867279,0.011898041,-0.00459671,5.6990066,13.457321,-0.02488766,-0.020195862,0.0051231384,0.02074653,0.0074878335,-1.4622585,0.5565699,0.025180167,1.1651751,6.2807426,0.32793528,31.07614,0.4985859,0.47869736,0.1827399,0.12590106,inf,inf,inf,inf,1,1,1,1,3,2,3,3,4,1,1,0,0
96080000,96080000,1016000,1.3274169999999998,103.7850778,389.83038,181.44821,-30.724241,0.17867279,0.011898041,-0.00459671,5.5426373,13.522783,-0.02467567,-0.016859002,0.0051231384,0.02074653,0.0074878335,-1.5034027,0.66920125,-0.062525265,1.1764076,6.2807426,0.32793528,31.07484,0.46559888,0.47001275,0.16858478,0.12209819,inf,inf,inf,inf,1,1,1,1,3,2,3,3,4,1,1,0,0
96180000,96180000,1016000,1.3274169999999998,103.7850778,390.3699,182.80928,-30.722443,0.17867279,0.011898041,-0.00459671,5.383095,13.589514,-0.022947067,-0.011991546,0.0051231384,0.02074653,0.0074878335,-1.5836304,0.63514644,0.060319897,1.1878773,6.2807426,0.32793528,31.073042,0.47606003,0.47415435,0.1732268,0.12356317,inf,inf,inf,inf,1,1,1,1,3,2,3,3,4,1,1,0,0
96280000,96280000,1016000,1.3274169999999998,103.7850778,390.89563,184.17503,-30.72117,0.17867279,0.011898041,-0.00459671,5.2238145,13.653164,-0.022423603,-0.009326241,0.0051231384,0.02074653,0.0074878335,-1.5281928,0.7164939,0.054193657,1.1993549,6.2807426,0.32793528,31.07177,0.48704842,0.47401595,0.17795327,0.124485224,inf,inf,inf,inf,1,1,1,1,3,2,3,3,4,1,1,0,0
96380000,96380000,1016000,1.3274169999999998,103.7850778,391.40695,185.54579,-30.720102,0.17867279,0.011898041,-0.00459671,5.0615807,13.716168,-0.018303635,-0.0037880593,0.0051231384,0.02074653,0.0074878335,-1.6417615,0.5927769,0.05343463,1.2110112,6.2807426,0.32793528,31.070702,0.4985716,0.47827825,0.18274762,0.1259384,inf,inf,inf,inf,1,1,1,1,3,2,3,3,4,1,1,0,0
96480000,96480000,1016000,1.3274169999999998,103.7850778,391.89987,186.92639,-30.719313,0.17867279,0.011898041,-0.00459671,4.8955846,13.776808,-0.018189972,-0.0028812804,0.0051231384,0.02074653,0.0074878335,-1.6736448,0.6373652,-0.002209097,1.2228267,6.2807426,0.32793528,31.069912,0.4655901,0.46957666,0.16858758,0.1221249,inf,inf,inf,inf,1,1,1,1,3,2,3,3,4,1,1,0,0
96580000,96580000,1016000,1.3274169999999998,103.7850778,392.37656,188.31253,-30.719091,0.17867279,0.011898041,-0.00459671,4.7277966,13.833495,-0.021733766,-0.0060724462,0.0051231384,0.02074653,0.0074878335,-1.7120471,0.5462785,-0.08729379,1.2347312,6.2807426,0.32793528,31.06969,0.47605506,0.47371507,0.17325065,0.12359093,inf,inf,inf,inf,1,1,1,1,3,2,3,3,4,1,1,0,0
96680000,96680000,1016000,1.3274169999999998,103.7850778,392.83786,189.7024,-30.718985,0.17867279,0.011898041,-0.00459671,4.557136,13.890449,-0.021761106,-0.005672599,0.0051231384,0.02074653,0.0074878335,-1.7464588,0.6067766,0.045423392,1.246701,6.2807426,0.32793528,31.069584,0.4870432,0.47356942,0.17799348,0.12450917,inf,inf,inf,inf,1,1,1,1,3,2,3,3,4,1,1,0,0
96780000,96780000,1016000,1.3274169999999998,103.7850778,393.28345,191.09651,-30.719545,0.17867279,0.011898041,-0.00459671,4.3869014,13.945014,-0.0225694,-0.006608757,0.0051231384,0.02074653,0.0074878335,-1.6930008,0.50999564,0.110839486,1.2585907,6.2807426,0.32793528,31.070145,0.49855936,0.47782725,0.18278052,0.12596208,inf,inf,inf,inf,1,1,1,1,3,2,3,3,4,1,1,0,0
96880000,96880000,1016000,1.3274169999999998,103.7850778,393.70874,192.49998,-30.719843,0.17867279,0.011898041,-0.00459671,4.210663,13.997773,-0.023346469,-0.0072949524,0.0051231384,0.02074653,0.0074878335,-1.652547,0.4610381,-0.07195025,1.2705775,6.2807426,0.32793528,31.070442,0.4655803,0.46912795,0.1686343,0.122141495,inf,inf,inf,inf,1,1,1,1,3,2,3,3,4,1,1,0,0
96980000,96980000,1016000,1.3274169999999998,103.7850778,394.11676,193.9085,-30.719555,0.17867279,0.011898041,-0.00459671,4.0364137,14.050886,-0.020146966,-0.0035776696,0.0051231384,0.02074653,0.0074878335,-1.7242517,0.4705133,-0.074284144,1.2830027,6.2807426,0.32793528,31.070154,0.47604513,0.47323105,0.17330042,0.12359986,inf,inf,inf,inf,1,1,1,1,3,2,3,3,4,1,1,0,0
97080000,97080000,1016000,1.3274169999999998,103.7850778,394.50858,195.32008,-30.719614,0.17867279,0.011898041,-0.00459671,3.8551831,14.102116,-0.019400721,-0.0028355017,0.0051231384,0.02074653,0.0074878335,-1.8557634,0.547206,-0.020762904,1.2954962,6.2807426,0.32793528,31.070213,0.48703316,0.4730625,0.178024,0.12451069,inf,inf,inf,inf,1,1,1,1,3,2,3,3,4,1,1,0,0
97180000,97180000,1016000,1.3274169999999998,103.7850778,394.88336,196.73537,-30.720493,0.17867279,0.011898041,-0.00459671,3.673249,14.153239,-0.020528546,-0.004730175,0.0051231384,0.02074653,0.0074878335,-1.8001585,0.43123809,0.01739431,1.3081157,6.2807426,0.32793528,31.071093,0.49855658,0.47731477,0.18282922,0.12596504,inf,inf,inf,inf,1,1,1,1,3,2,3,3,4,1,1,0,0
97280000,97280000,1016000,1.3274169999999998,103.7850778,395.24042,198.15936,-30.71891,0.17867279,0.011898041,-0.00459671,3.4888666,14.198469,-0.021646569,-0.0038322615,0.0051231384,0.02074653,0.0074878335,-1.8572172,0.44907987,0.026706604,1.3206733,6.2807426,0.32793528,31.06951,0.46557772,0.47289842,0.16867988,0.122664586,inf,inf,inf,inf,1,1,1,1,3,2,3,3,4,1,1,0,0
97380000,97380000,1016000,1.3274169999999998,103.7850778,395.57938,199.58765,-30.716965,0.17867279,0.011898041,-0.00459671,3.3015811,14.244702,-0.02145431,-0.0015829019,0.0051231384,0.02074653,0.0074878335,-1.8073125,0.4272414,0.06400793,1.333396,6.2807426,0.32793528,31.067564,0.47603798,0.47273764,0.17334537,0.12360412,inf,inf,inf,inf,1,1,1,1,3,2,3,3,4,1,1,0,0
97480000,97480000,1016000,1.3274169999999998,103.7850778,395.9003,201.01846,-30.715733,0.17867279,0.011898041,-0.00459671,3.1150987,14.290236,-0.018889712,0.0019365312,0.0051231384,0.02074653,0.0074878335,-1.9339674,0.3894158,-0.0237748,1.3463168,6.2807426,0.32793528,31.066332,0.48702672,0.47692847,0.17809363,0.12506412,inf,inf,inf,inf,1,1,1,1,3,2,3,3,4,1,1,0,0
97580000,97580000,1016000,1.3274169999999998,103.7850778,396.2029,202.45227,-30.714397,0.17867279,0.011898041,-0.00459671,2.9247425,14.334302,-0.014656947,0.0067644804,0.0051231384,0.02074653,0.0074878335,-1.8884933,0.47557318,0.01702085,1.3592755,6.2807426,0.32793528,31.064997,0.49855128,0.47672755,0.18289506,0.12594984,inf,inf,inf,inf,1,1,1,1,3,2,3,3,4,1,1,0,0
97680000,97680000,1016000,1.3274169999999998,103.7850778,396.48547,203.8906,-30.711824,0.17867279,0.011898041,-0.00459671,2.733827,14.376666,-0.006915321,0.015739204,0.0051231384,0.02074653,0.0074878335,-1.9190588,0.4298248,0.03714766,1.3723239,6.2807426,0.32793528,31.062424,0.46557242,0.47229853,0.16871981,0.12264159,inf,inf,inf,inf,1,1,1,1,3,2,3,3,4,1,1,0,0
97780000,97780000,1016000,1.3274169999999998,103.7850778,396.749,205.33218,-30.7093,0.17867279,0.011898041,-0.00459671,2.5408404,14.415184,-0.005047582,0.0181965,0.0051231384,0.02074653,0.0074878335,-1.8822881,0.34708565,-0.023933126,1.3854929,6.2807426,0.32793528,31.059898,0.47603738,0.47210163,0.1733725,0.123574,inf,inf,inf,inf,1,1,1,1,3,2,3,3,4,1,1,0,0
97880000,97880000,1016000,1.3274169999999998,103.7850778,396.99338,206.77644,-30.707222,0.17867279,0.011898041,-0.00459671,2.3467522,14.44945,-0.0042777276,0.018868927,0.0051231384,0.02074653,0.0074878335,-1.9824536,0.36357823,-0.02916157,1.3988767,6.2807426,0.32793528,31.057821,0.48702607,0.47630084,0.17811356,0.12503822,inf,inf,inf,inf,1,1,1,1,3,2,3,3,4,1,1,0,0
97980000,97980000,1016000,1.3274169999999998,103.7850778,397.21878,208.22334,-30.706598,0.17867279,0.011898041,-0.00459671,2.1440394,14.480169,-0.008840328,0.01315205,0.0051231384,0.02074653,0.0074878335,-2.1112077,0.32575136,-0.029528512,1.4121777,6.2807426,0.32793528,31.057198,0.49854314,0.4761577,0.18290962,0.12593861,inf,inf,inf,inf,1,1,1,1,3,2,3,3,4,1,1,0,0
98080000,98080000,1016000,1.3274169999999998,103.7850778,397.4242,209.6744,-30.705656,0.17867279,0.011898041,-0.00459671,1.9416302,14.508233,-0.00785785,0.013604327,0.0051231384,0.02074653,0.0074878335,-2.0012572,0.27189425,-0.023944302,1.4257183,6.2807426,0.32793528,31.056255,0.46556666,0.46756178,0.16876389,0.12212784,inf,inf,inf,inf,1,1,1,1,3,2,3,3,4,1,1,0,0
98180000,98180000,1016000,1.3274169999999998,103.7850778,397.60977,211.12805,-30.704702,0.17867279,0.011898041,-0.00459671,1.7401915,14.536301,-0.0067946664,0.0139993215,0.0051231384,0.02074653,0.0074878335,-2.0108628,0.3499697,-0.068577,1.43929,6.2807426,0.32793528,31.055302,0.47603214,0.47169203,0.17344855,0.12360208,inf,inf,inf,inf,1,1,1,1,3,2,3,3,4,1,1,0,0
98280000,98280000,1016000,1.3274169999999998,103.7850778,397.77496,212.58365,-30.704288,0.17867279,0.011898041,-0.00459671,1.534706,14.560069,-0.0059914156,0.0137144495,0.0051231384,0.02074653,0.0074878335,-2.0772862,0.23628153,0.0069178636,1.4530368,6.2807426,0.32793528,31.054888,0.48702216,0.47591713,0.17819877,0.12507536,inf,inf,inf,inf,1,1,1,1,3,2,3,3,4,1,1,0,0
98380000,98380000,1016000,1.3274169999999998,103.7850778,397.9197,214.04121,-30.703854,0.17867279,0.011898041,-0.00459671,1.3281068,14.586015,-0.00072828,0.017683223,0.0051231384,0.02074653,0.0074878335,-2.1108503,0.28009796,0.014533288,1.4670582,6.2807426,0.32793528,31.054453,0.49854898,0.4758111,0.1830233,0.12598814,inf,inf,inf,inf,1,1,1,1,3,2,3,3,4,1,1,0,0
98480000,98480000,1016000,1.3274169999999998,103.7850778,398.04306,215.50183,-30.70356,0.17867279,0.011898041,-0.00459671,1.1200901,14.606681,-0.00013092186,0.016669584,0.0051231384,0.02074653,0.0074878335,-2.1807673,0.23185208,0.017159617,1.4810427,6.2807426,0.32793528,31.05416,0.46556768,0.47147298,0.16882415,0.12269065,inf,inf,inf,inf,1,1,1,1,3,2,3,3,4,1,1,0,0
98580000,98580000,1016000,1.3274169999999998,103.7850778,398.1452,216.96399,-30.703478,0.17867279,0.011898041,-0.00459671,0.90908426,14.624002,-0.0013510367,0.01390595,0.0051231384,0.02074653,0.0074878335,-2.0459418,0.17169414,-0.051053237,1.4952468,6.2807426,0.32793528,31.054077,0.47602874,0.47137776,0.17349434,0.12364897,inf,inf,inf,inf,1,1,1,1,3,2,3,3,4,1,1,0,0
98680000,98680000,1016000,1.3274169999999998,103.7850778,398.22644,218.42717,-30.703224,0.17867279,0.011898041,-0.00459671,0.6959744,14.636634,-0.005102581,0.009175695,0.0051231384,0.02074653,0.0074878335,-2.1830177,0.10768253,-0.11107325,1.5097102,6.2807426,0.32793528,31.053823,0.48701912,0.47128165,0.17825897,0.124583736,inf,inf,inf,inf,1,1,1,1,3,2,3,3,4,1,1,0,0
98780000,98780000,1016000,1.3274169999999998,103.7850778,398.28625,219.891,-30.703417,0.17867279,0.011898041,-0.00459671,0.4789277,14.645345,-0.01094444,0.0025030153,0.0051231384,0.02074653,0.0074878335,-2.2149367,0.06291622,-0.034618188,1.5243636,6.2807426,0.32793528,31.054016,0.49854723,0.47555703,0.18310048,0.12605298,inf,inf,inf,inf,1,1,1,1,3,2,3,3,4,1,1,0,0
98880000,98880000,1016000,1.3274169999999998,103.7850778,398.3262,221.35529,-30.704393,0.17867279,0.011898041,-0.00459671,0.26194534,14.6491785,-0.012626482,-0.00040785669,0.0051231384,0.02074653,0.0074878335,-2.1891923,0.080091715,-0.04380103,1.5389631,6.2807426,0.32793528,31.054993,0.46556354,0.47121134,0.16892983,0.122746155,inf,inf,inf,inf,1,1,1,1,3,2,3,3,4,1,1,0,0
98980000,98980000,1016000,1.3274169999999998,103.7850778,398.3447,222.81943,-30.705921,0.17867279,0.011898041,-0.00459671,0.044361915,14.648765,-0.018755455,-0.0077271527,0.0051231384,0.02074653,0.0074878335,-2.3189545,-0.024989218,-0.0130077815,1.5539548,6.2807426,0.32793528,31.05652,0.47603178,0.4711028,0.17363492,0.123703144,inf,inf,inf,inf,1,1,1,1,3,2,3,3,4,1,1,0,0
99080000,99080000,1016000,1.3274169999999998,103.7850778,398.3406,224.28339,-30.707556,0.17867279,0.011898041,-0.00459671,-0.17620619,14.647452,-0.01892099,-0.008650761,0.0051231384,0.02074653,0.0074878335,-2.1953018,0.048515633,-0.008973292,1.5688628,6.2807426,0.32793528,31.058155,0.48702654,0.47533205,0.17842436,0.12518056,inf,inf,inf,inf,1,1,1,1,3,2,3,3,4,1,1,0,0
99180000,99180000,1016000,1.3274169999999998,103.7850778,398.31403,225.74724,-30.708544,0.17867279,0.011898041,-0.00459671,-0.39771315,14.645508,-0.013408806,-0.003499227,0.0051231384,0.02074653,0.0074878335,-2.2726939,0.03572515,0.105888575,1.5838231,6.2807426,0.32793528,31.059143,0.4985532,0.4796389,0.18324858,0.12665425,inf,inf,inf,inf,1,1,1,1,3,2,3,3,4,1,1,0,0
99280000,99280000,1016000,1.3274169999999998,103.7850778,398.26648,227.20764,-30.706886,0.17867279,0.011898041,-0.00459671,-0.6215639,14.635193,-0.011606697,0.00017323534,0.0051231384,0.02074653,0.0074878335,-2.1937053,-0.052060068,-0.039702278,1.5989989,6.2807426,0.32793528,31.057486,0.46556312,0.47080857,0.16901043,0.12276042,inf,inf,inf,inf,1,1,1,1,3,2,3,3,4,1,1,0,0
99380000,99380000,1016000,1.3274169999999998,103.7850778,398.19675,228.6665,-30.70519,0.17867279,0.011898041,-0.00459671,-0.8438229,14.624423,-0.008414813,0.0048171612,0.0051231384,0.02074653,0.0074878335,-2.2705266,-0.0932247,-0.02540741,1.6143576,6.2807426,0.32793528,31.05579,0.47603232,0.47497186,0.17370749,0.12424341,inf,inf,inf,inf,1,1,1,1,3,2,3,3,4,1,1,0,0
99480000,99480000,1016000,1.3274169999999998,103.7850778,398.10388,230.1249,-30.703627,0.17867279,0.011898041,-0.00459671,-1.0705961,14.609973,-0.006164113,0.007916894,0.0051231384,0.02074653,0.0074878335,-2.2868574,-0.13725534,0.0076629217,1.6297983,6.2807426,0.32793528,31.054226,0.48702767,0.47479993,0.17847276,0.12516634,inf,inf,inf,inf,1,1,1,1,3,2,3,3,4,1,1,0,0
99580000,99580000,1016000,1.3274169999999998,103.7850778,397.98782,231.58232,-30.702276,0.17867279,0.011898041,-0.00459671,-1.2986383,14.591641,-0.004731083,0.009764789,0.0051231384,0.02074653,0.0074878335,-2.3344924,-0.1790919,-0.032728534,1.645344,6.2807426,0.32793528,31.052876,0.49856162,0.4790652,0.18331254,0.12663391,inf,inf,inf,inf,1,1,1,1,3,2,3,3,4,1,1,0,0
99680000,99680000,1016000,1.3274169999999998,103.7850778,397.8508,233.0359,-30.70198,0.17867279,0.011898041,-0.00459671,-1.5302864,14.568492,-0.0056520468,0.008034272,0.0051231384,0.02074653,0.0074878335,-2.3506205,-0.21316683,-0.14284065,1.6612539,6.2807426,0.32793528,31.05258,0.46556786,0.4745103,0.16907744,0.12325358,inf,inf,inf,inf,1,1,1,1,3,2,3,3,4,1,1,0,0
99780000,99780000,1016000,1.3274169999999998,103.7850778,397.6905,234.48721,-30.701979,0.17867279,0.011898041,-0.00459671,-1.7597266,14.54388,-0.0025653092,0.01021459,0.0051231384,0.02074653,0.0074878335,-2.3217647,-0.22958978,0.032017004,1.6770912,6.2807426,0.32793528,31.052578,0.47603318,0.47431535,0.17377426,0.12420035,inf,inf,inf,inf,1,1,1,1,3,2,3,3,4,1,1,0,0
99880000,99880000,1016000,1.3274169999999998,103.7850778,397.5063,235.93677,-30.70168,0.17867279,0.011898041,-0.00459671,-1.9909606,14.515198,-0.0012417294,0.010795306,0.0051231384,0.02074653,0.0074878335,-2.2818997,-0.259283,0.09097996,1.6931155,6.2807426,0.32793528,31.052279,0.48702958,0.4741515,0.17854789,0.1251299,inf,inf,inf,inf,1,1,1,1,3,2,3,3,4,1,1,0,0
99980000,99980000,1016000,1.3274169999999998,103.7850778,397.29813,237.38422,-30.70068,0.17867279,0.011898041,-0.00459671,-2.2286413,14.485773,0.0051150597,0.01677666,0.0051231384,0.02074653,0.0074878335,-2.38158,-0.37008002,0.041621733,1.7093083,6.2807426,0.32793528,31.05128,0.49856502,0.47840667,0.1833949,0.12659955,inf,inf,inf,inf,1,1,1,1,3,2,3,3,4,1,1,0,0
100080000,100080000,1016000,1.3274169999999998,103.7850778,397.0686,238.82904,-30.699211,0.17867279,0.011898041,-0.00459671,-2.46234,14.450675,0.009587878,0.020728998,0.0051231384,0.02074653,0.0074878335,-2.3949502,-0.37775922,0.025664454,1.7256445,6.2807426,0.32793528,31.04981,0.4655692,0.47387707,0.16913304,0.12322365,inf,inf,inf,inf,1,1,1,1,3,2,3,3,4,1,1,0,0
100180000,100180000,1016000,1.3274169999999998,103.7850778,396.81528,240.27036,-30.697344,0.17867279,0.011898041,-0.00459671,-2.700042,14.409425,0.01210368,0.022935847,0.0051231384,0.02074653,0.0074878335,-2.4262347,-0.34075412,0.052204352,1.7421592,6.2807426,0.32793528,31.047943,0.4760391,0.47367498,0.17383325,0.12417162,inf,inf,inf,inf,1,1,1,1,3,2,3,3,4,1,1,0,0
100280000,100280000,1016000,1.3274169999999998,103.7850778,396.53705,241.70795,-30.695286,0.17867279,0.011898041,-0.00459671,-2.9403358,14.369144,0.013963582,0.02449313,0.0051231384,0.02074653,0.0074878335,-2.4409153,-0.33911714,-0.015180557,1.7588785,6.2807426,0.32793528,31.045885,0.4870361,0.47788143,0.1786147,0.12565373,inf,inf,inf,inf,1,1,1,1,3,2,3,3,4,1,1,0,0
100380000,100380000,1016000,1.3274169999999998,103.7850778,396.23404,243.14142,-30.693249,0.17867279,0.011898041,-0.00459671,-3.1805882,14.322114,0.0128046265,0.023143554,0.0051231384,0.02074653,0.0074878335,-2.3906891,-0.4944856,0.020334495,1.7755884,6.2807426,0.32793528,31.043848,0.4985654,0.47770178,0.18345013,0.12656623,inf,inf,inf,inf,1,1,1,1,3,2,3,3,4,1,1,0,0
100480000,100480000,1016000,1.3274169999999998,103.7850778,395.90576,244.56973,-30.690174,0.17867279,0.011898041,-0.00459671,-3.4259107,14.267183,0.014302811,0.025311766,0.0051231384,0.02074653,0.0074878335,-2.4998233,-0.51211804,-0.00044051555,1.7925376,6.2807426,0.32793528,31.040773,0.4655689,0.47320056,0.16920638,0.12319187,inf,inf,inf,inf,1,1,1,1,3,2,3,3,4,1,1,0,0
100580000,100580000,1016000,1.3274169999999998,103.7850778,395.55237,245.9924,-30.68724,0.17867279,0.011898041,-0.00459671,-3.6708636,14.20834,0.013558385,0.025067413,0.0051231384,0.02074653,0.0074878335,-2.4449754,-0.61630327,-0.02623163,1.8098674,6.2807426,0.32793528,31.03784,0.4760393,0.47299224,0.17392989,0.12414521,inf,inf,inf,inf,1,1,1,1,3,2,3,3,4,1,1,0,0
100680000,100680000,1016000,1.3274169999999998,103.7850778,395.17413,247.40918,-30.68515,0.17867279,0.011898041,-0.00459671,-3.918954,14.147804,0.013918976,0.02507649,0.0051231384,0.02074653,0.0074878335,-2.5168,-0.5843286,0.10503269,1.8269382,6.2807426,0.32793528,31.03575,0.487038,0.47720546,0.17873354,0.12563606,inf,inf,inf,inf,1,1,1,1,3,2,3,3,4,1,1,0,0
100780000,100780000,1016000,1.3274169999999998,103.7850778,394.77094,248.81999,-30.683123,0.17867279,0.011898041,-0.00459671,-4.1639266,14.0855875,0.018844537,0.029282132,0.0051231384,0.02074653,0.0074878335,-2.4368455,-0.6232704,0.028824432,1.8442057,6.2807426,0.32793528,31.033722,0.49857718,0.47705206,0.18360972,0.12656294,inf,inf,inf,inf,1,1,1,1,3,2,3,3,4,1,1,0,0
100880000,100880000,1016000,1.3274169999999998,103.7850778,394.34418,250.2257,-30.676662,0.17867279,0.011898041,-0.00459671,-4.41371,14.018833,0.021707946,0.035506137,0.0051231384,0.02074653,0.0074878335,-2.6495519,-0.72105193,-0.046283003,1.8614794,6.2807426,0.32793528,31.027262,0.46557325,0.47257397,0.16931562,0.123186655,inf,inf,inf,inf,1,1,1,1,3,2,3,3,4,1,1,0,0
100980000,100980000,1016000,1.3274169999999998,103.7850778,393.89236,251.62445,-30.6692,0.17867279,0.011898041,-0.00459671,-4.662204,13.944797,0.021339914,0.038770165,0.0051231384,0.02074653,0.0074878335,-2.4665897,-0.778946,-0.14773662,1.8791898,6.2807426,0.32793528,31.0198,0.47604072,0.47673616,0.17402904,0.124686085,inf,inf,inf,inf,1,1,1,1,3,2,3,3,4,1,1,0,0
101080000,101080000,1016000,1.3274169999999998,103.7850778,393.41516,253.01509,-30.663761,0.17867279,0.011898041,-0.00459671,-4.9140296,13.863011,0.016022721,0.03503249,0.0051231384,0.02074653,0.0074878335,-2.531171,-0.84672743,-0.088643275,1.8971965,6.2807426,0.32793528,31.01436,0.48704043,0.4765637,0.1788418,0.12563646,inf,inf,inf,inf,1,1,1,1,3,2,3,3,4,1,1,0,0
101180000,101180000,1016000,1.3274169999999998,103.7850778,392.91238,254.39688,-30.659977,0.17867279,0.011898041,-0.00459671,-5.1658273,13.770779,0.009071049,0.028545033,0.0051231384,0.02074653,0.0074878335,-2.5300176,-1.0308592,-0.099001445,1.9154189,6.2807426,0.32793528,31.010576,0.49858192,0.47640395,0.18375021,0.12656692,inf,inf,inf,inf,1,1,1,1,3,2,3,3,4,1,1,0,0
101280000,101280000,1016000,1.3274169999999998,103.7850778,392.38605,255.76909,-30.657207,0.17867279,0.011898041,-0.00459671,-5.417298,13.669776,-0.0035245463,0.016330175,0.0051231384,0.02074653,0.0074878335,-2.5331888,-0.9964296,-0.16683525,1.9339988,6.2807426,0.32793528,31.007807,0.4655721,0.47196355,0.16947952,0.12319591,inf,inf,inf,inf,1,1,1,1,3,2,3,3,4,1,1,0,0
101380000,101380000,1016000,1.3274169999999998,103.7850778,391.83447,257.13077,-30.65627,0.17867279,0.011898041,-0.00459671,-5.6690493,13.5625925,-0.014135322,0.0054307417,0.0051231384,0.02074653,0.0074878335,-2.4667563,-1.1208085,-0.084904015,1.952601,6.2807426,0.32793528,31.006868,0.47604793,0.47613427,0.1742762,0.1247082,inf,inf,inf,inf,1,1,1,1,3,2,3,3,4,1,1,0,0
101480000,101480000,1016000,1.3274169999999998,103.7850778,391.2571,258.48123,-30.656525,0.17867279,0.011898041,-0.00459671,-5.9202743,13.449266,-0.022493267,-0.0033688825,0.0051231384,0.02074653,0.0074878335,-2.4621263,-1.2422885,-0.11995341,1.9711101,6.2807426,0.32793528,31.007124,0.48705518,0.47593936,0.17914285,0.1256602,inf,inf,inf,inf,1,1,1,1,3,2,3,3,4,1,1,0,0
101580000,101580000,1016000,1.3274169999999998,103.7850778,390.65427,259.8201,-30.656889,0.17867279,0.011898041,-0.00459671,-6.170027,13.331218,-0.030730505,-0.0112819625,0.0051231384,0.02074653,0.0074878335,-2.5338228,-1.2805953,0.0017192214,1.9898549,6.2807426,0.32793528,31.007488,0.49860033,0.48023072,0.18405539,0.12716275,inf,inf,inf,inf,1,1,1,1,3,2,3,3,4,1,1,0,0
101680000,101680000,1016000,1.3274169999999998,103.7850778,390.03024,261.14468,-30.65671,0.17867279,0.011898041,-0.00459671,-6.4153347,13.205078,-0.03693046,-0.015935985,0.0051231384,0.02074653,0.0074878335,-2.5019307,-1.2627877,-0.017145647,2.0089006,6.2807426,0.32793528,31.007309,0.46557322,0.47135344,0.16972981,0.123216055,inf,inf,inf,inf,1,1,1,1,3,2,3,3,4,1,1,0,0
101780000,101780000,1016000,1.3274169999999998,103.7850778,389.38156,262.45602,-30.657217,0.17867279,0.011898041,-0.00459671,-6.664103,13.073324,-0.042407155,-0.020157628,0.0051231384,0.02074653,0.0074878335,-2.4862237,-1.2979681,-0.14009139,2.0281024,6.2807426,0.32793528,31.007816,0.47605366,0.47121832,0.17451198,0.12420282,inf,inf,inf,inf,1,1,1,1,3,2,3,3,4,1,1,0,0
101880000,101880000,1016000,1.3274169999999998,103.7850778,388.7069,263.75458,-30.658806,0.17867279,0.011898041,-0.00459671,-6.9110084,12.936482,-0.04131363,-0.018783681,0.0051231384,0.02074653,0.0074878335,-2.4410415,-1.3874813,0.03576651,2.0470529,6.2807426,0.32793528,31.009405,0.48706645,0.47544116,0.17937036,0.12571907,inf,inf,inf,inf,1,1,1,1,3,2,3,3,4,1,1,0,0
101980000,101980000,1016000,1.3274169999999998,103.7850778,388.00647,265.03986,-30.660433,0.17867279,0.011898041,-0.00459671,-7.157386,12.795891,-0.038473435,-0.016012117,0.0051231384,0.02074653,0.0074878335,-2.4135406,-1.4562117,0.05890801,2.0661874,6.2807426,0.32793528,31.011032,0.498624,0.4797599,0.18427859,0.12723672,inf,inf,inf,inf,1,1,1,1,3,2,3,3,4,1,1,0,0
102080000,102080000,1016000,1.3274169999999998,103.7850778,387.28583,266.30893,-30.660784,0.17867279,0.011898041,-0.00459671,-7.4014626,12.650485,-0.039450053,-0.01574256,0.0051231384,0.02074653,0.0074878335,-2.4782631,-1.4336649,0.021393409,2.0855074,6.2807426,0.32793528,31.011383,0.46558446,0.47087175,0.16987303,0.1232723,inf,inf,inf,inf,1,1,1,1,3,2,3,3,4,1,1,0,0
102180000,102180000,1016000,1.3274169999999998,103.7850778,386.54077,267.56314,-30.661385,0.17867279,0.011898041,-0.00459671,-7.6464233,12.498306,-0.034280956,-0.010019705,0.0051231384,0.02074653,0.0074878335,-2.4871619,-1.5696441,-0.03807153,2.105146,6.2807426,0.32793528,31.011984,0.4760623,0.47502857,0.17463133,0.12479101,inf,inf,inf,inf,1,1,1,1,3,2,3,3,4,1,1,0,0
102280000,102280000,1016000,1.3274169999999998,103.7850778,385.76935,268.80264,-30.661407,0.17867279,0.011898041,-0.00459671,-7.8894,12.340569,-0.03041136,-0.0055468585,0.0051231384,0.02074653,0.0074878335,-2.4454489,-1.6333284,0.022019258,2.1249807,6.2807426,0.32793528,31.012007,0.48707545,0.47489837,0.1794552,0.12576972,inf,inf,inf,inf,1,1,1,1,3,2,3,3,4,1,1,0,0
102380000,102380000,1016000,1.3274169999999998,103.7850778,384.9722,270.0269,-30.661657,0.17867279,0.011898041,-0.00459671,-8.134351,12.18001,-0.024091525,0.0007428373,0.0051231384,0.02074653,0.0074878335,-2.5037498,-1.5615411,0.11189747,2.1448774,6.2807426,0.32793528,31.012257,0.49863294,0.47921067,0.18435907,0.12729268,inf,inf,inf,inf,1,1,1,1,3,2,3,3,4,1,1,0,0
102480000,102480000,1016000,1.3274169999999998,103.7850778,384.14886,271.23425,-30.659742,0.17867279,0.011898041,-0.00459671,-8.378308,12.01436,-0.01914902,0.007064813,0.0051231384,0.02074653,0.0074878335,-2.5193582,-1.6662157,0.034614462,2.1649656,6.2807426,0.32793528,31.010342,0.46559185,0.47039542,0.16993307,0.123334415,inf,inf,inf,inf,1,1,1,1,3,2,3,3,4,1,1,0,0
102580000,102580000,1016000,1.3274169999999998,103.7850778,383.30045,272.42487,-30.657206,0.17867279,0.011898041,-0.00459671,-8.621353,11.843374,-0.0057253037,0.021404997,0.0051231384,0.02074653,0.0074878335,-2.478979,-1.6851629,0.07141008,2.185224,6.2807426,0.32793528,31.007805,0.47607204,0.47030514,0.17469265,0.12434382,inf,inf,inf,inf,1,1,1,1,3,2,3,3,4,1,1,0,0
102680000,102680000,1016000,1.3274169999999998,103.7850778,382.42722,273.59866,-30.654732,0.17867279,0.011898041,-0.00459671,-8.866014,11.668224,0.0021198057,0.02904375,0.0051231384,0.02074653,0.0074878335,-2.3744595,-1.6483765,0.053232532,2.2056496,6.2807426,0.32793528,31.005331,0.48708394,0.4745642,0.17949834,0.12588225,inf,inf,inf,inf,1,1,1,1,3,2,3,3,4,1,1,0,0
102780000,102780000,1016000,1.3274169999999998,103.7850778,381.52957,274.7549,-30.652624,0.17867279,0.011898041,-0.00459671,-9.10601,11.483192,0.005434807,0.031208111,0.0051231384,0.02074653,0.0074878335,-2.490764,-1.8843338,0.06303377,2.2263014,6.2807426,0.32793528,31.003223,0.49863926,0.47451574,0.18439639,0.12686482,inf,inf,inf,inf,1,1,1,1,3,2,3,3,4,1,1,0,0
102880000,102880000,1016000,1.3274169999999998,103.7850778,380.6099,275.89468,-30.648493,0.17867279,0.011898041,-0.00459671,-9.344441,11.290288,0.0076702326,0.03420286,0.0051231384,0.02074653,0.0074878335,-2.415277,-1.9918134,-0.006739981,2.2471564,6.2807426,0.32793528,30.999092,0.46559662,0.4701798,0.16996354,0.123465754,inf,inf,inf,inf,1,1,1,1,3,2,3,3,4,1,1,0,0
102980000,102980000,1016000,1.3274169999999998,103.7850778,379.66656,277.01498,-30.64388,0.17867279,0.011898041,-0.00459671,-9.581288,11.09369,0.010160565,0.037547726,0.0051231384,0.02074653,0.0074878335,-2.3335118,-2.0179856,-0.062623054,2.2683399,6.2807426,0.32793528,30.99448,0.4760742,0.47010702,0.17474426,0.124487564,inf,inf,inf,inf,1,1,1,1,3,2,3,3,4,1,1,0,0
103080000,103080000,1016000,1.3274169999999998,103.7850778,378.69885,278.11478,-30.639917,0.17867279,0.011898041,-0.00459671,-9.818047,10.886278,0.009791531,0.037133474,0.0051231384,0.02074653,0.0074878335,-2.3930354,-2.0727463,-0.06309058,2.2896404,6.2807426,0.32793528,30.990517,0.48708448,0.47436294,0.17959961,0.1260342,inf,inf,inf,inf,1,1,1,1,3,2,3,3,4,1,1,0,0
103180000,103180000,1016000,1.3274169999999998,103.7850778,377.70694,279.19357,-30.635973,0.17867279,0.011898041,-0.00459671,-10.053112,10.674859,0.011175009,0.038413048,0.0051231384,0.02074653,0.0074878335,-2.3787754,-2.1265838,0.019639729,2.3110824,6.2807426,0.32793528,30.986572,0.49863988,0.4743169,0.18454261,0.12702638,inf,inf,inf,inf,1,1,1,1,3,2,3,3,4,1,1,0,0
103280000,103280000,1016000,1.3274169999999998,103.7850778,376.6927,280.25296,-30.631239,0.17867279,0.011898041,-0.00459671,-10.283679,10.458795,0.008415708,0.036543217,0.0051231384,0.02074653,0.0074878335,-2.3480253,-2.2515516,-0.03570411,2.3328648,6.2807426,0.32793528,30.981838,0.46559882,0.46998197,0.17011572,0.12361493,inf,inf,inf,inf,1,1,1,1,3,2,3,3,4,1,1,0,0
103380000,103380000,1016000,1.3274169999999998,103.7850778,375.6553,281.29034,-30.626835,0.17867279,0.011898041,-0.00459671,-10.511858,10.23469,0.0071897646,0.03596209,0.0051231384,0.02074653,0.0074878335,-2.3406992,-2.3015099,-0.005374662,2.3547783,6.2807426,0.32793528,30.977434,0.47607285,0.46995643,0.17491068,0.12465361,inf,inf,inf,inf,1,1,1,1,3,2,3,3,4,1,1,0,0
103480000,103480000,1016000,1.3274169999999998,103.7850778,374.5946,282.30408,-30.622805,0.17867279,0.011898041,-0.00459671,-10.737403,10.001133,0.002885299,0.032137506,0.0051231384,0.02074653,0.0074878335,-2.1595407,-2.3426354,0.00934489,2.376824,6.2807426,0.32793528,30.973404,0.4870843,0.46996185,0.1797944,0.12568074,inf,inf,inf,inf,1,1,1,1,3,2,3,3,4,1,1,0,0
103580000,103580000,1016000,1.3274169999999998,103.7850778,373.51083,283.29364,-30.61961,0.17867279,0.011898041,-0.00459671,-10.96095,9.7612915,0.0005624202,0.029703073,0.0051231384,0.02074653,0.0074878335,-2.1779935,-2.4548311,-0.03849342,2.3990307,6.2807426,0.32793528,30.97021,0.49864313,0.47430605,0.18476671,0.12724596,inf,inf,inf,inf,1,1,1,1,3,2,3,3,4,1,1,0,0
103680000,103680000,1016000,1.3274169999999998,103.7850778,372.40836,284.25998,-30.617205,0.17867279,0.011898041,-0.00459671,-11.177619,9.516828,-0.0014924428,0.026948914,0.0051231384,0.02074653,0.0074878335,-2.193754,-2.4879088,-0.09856,2.4214141,6.2807426,0.32793528,30.967804,0.46559608,0.46997163,0.17031035,0.12381252,inf,inf,inf,inf,1,1,1,1,3,2,3,3,4,1,1,0,0
103780000,103780000,1016000,1.3274169999999998,103.7850778,371.28452,285.2011,-30.615158,0.17867279,0.011898041,-0.00459671,-11.389137,9.261345,-0.0054615033,0.022390319,0.0051231384,0.02074653,0.0074878335,-2.0957944,-2.5224261,-0.065849155,2.4441972,6.2807426,0.32793528,30.965757,0.47607535,0.4699598,0.17513002,0.124863125,inf,inf,inf,inf,1,1,1,1,3,2,3,3,4,1,1,0,0
103880000,103880000,1016000,1.3274169999999998,103.7850778,370.13837,286.11557,-30.613775,0.17867279,0.011898041,-0.00459671,-11.597167,8.994601,-0.007480909,0.019513087,0.0051231384,0.02074653,0.0074878335,-2.1370006,-2.7127314,-0.03245007,2.4670894,6.2807426,0.32793528,30.964375,0.48709005,0.474258,0.18003738,0.1264387,inf,inf,inf,inf,1,1,1,1,3,2,3,3,4,1,1,0,0
103980000,103980000,1016000,1.3274169999999998,103.7850778,368.97043,287.0027,-30.612976,0.17867279,0.011898041,-0.00459671,-11.803295,8.722585,-0.011635111,0.014298496,0.0051231384,0.02074653,0.0074878335,-2.0344005,-2.7951498,-0.019666737,2.4900854,6.2807426,0.32793528,30.963575,0.4986532,0.4786398,0.18501636,0.12801614,inf,inf,inf,inf,1,1,1,1,3,2,3,3,4,1,1,0,0
104080000,104080000,1016000,1.3274169999999998,103.7850778,367.78452,287.86523,-30.61285,0.17867279,0.011898041,-0.00459671,-12.001532,8.445857,-0.017093772,0.007815332,0.0051231384,0.02074653,0.0074878335,-2.0233886,-2.7957654,-0.04342291,2.5132568,6.2807426,0.32793528,30.96345,0.46559393,0.4698225,0.17050727,0.12397721,inf,inf,inf,inf,1,1,1,1,3,2,3,3,4,1,1,0,0
104180000,104180000,1016000,1.3274169999999998,103.7850778,366.57867,288.69992,-30.61318,0.17867279,0.011898041,-0.00459671,-12.197062,8.162565,-0.017366271,0.006461883,0.0051231384,0.02074653,0.0074878335,-1.9791199,-2.7840016,0.07088947,2.536778,6.2807426,0.32793528,30.96378,0.47607425,0.4740542,0.17535786,0.12556078,inf,inf,inf,inf,1,1,1,1,3,2,3,3,4,1,1,0,0
104280000,104280000,1016000,1.3274169999999998,103.7850778,365.3527,289.50473,-30.613625,0.17867279,0.011898041,-0.00459671,-12.388341,7.871933,-0.01641687,0.0062957746,0.0051231384,0.02074653,0.0074878335,-1.9628332,-2.9243882,0.06552971,2.560452,6.2807426,0.32793528,30.964224,0.4870906,0.47397947,0.18026845,0.12659381,inf,inf,inf,inf,1,1,1,1,3,2,3,3,4,1,1,0,0
104380000,104380000,1016000,1.3274169999999998,103.7850778,364.10663,290.27948,-30.61469,0.17867279,0.011898041,-0.00459671,-12.574676,7.576363,-0.016274488,0.0047021066,0.0051231384,0.02074653,0.0074878335,-1.8134844,-3.0053205,0.01882389,2.5842369,6.2807426,0.32793528,30.96529,0.49865642,0.47832313,0.18524894,0.12817319,inf,inf,inf,inf,1,1,1,1,3,2,3,3,4,1,1,0,0
104480000,104480000,1016000,1.3274169999999998,103.7850778,362.84122,291.0252,-30.616867,0.17867279,0.011898041,-0.00459671,-12.753281,7.273221,-0.017225074,0.0012237375,0.0051231384,0.02074653,0.0074878335,-1.7766576,-3.0549061,0.022562219,2.6082282,6.2807426,0.32793528,30.967466,0.4655963,0.46945006,0.17069875,0.12409626,inf,inf,inf,inf,1,1,1,1,3,2,3,3,4,1,1,0,0
104580000,104580000,1016000,1.3274169999999998,103.7850778,361.55786,291.73978,-30.619339,0.17867279,0.011898041,-0.00459671,-12.924528,6.9601197,-0.022493972,-0.0062471097,0.0051231384,0.02074653,0.0074878335,-1.5832845,-3.2469912,-0.025373882,2.6326392,6.2807426,0.32793528,30.969938,0.47607225,0.47367454,0.17552634,0.12568761,inf,inf,inf,inf,1,1,1,1,3,2,3,3,4,1,1,0,0
104680000,104680000,1016000,1.3274169999999998,103.7850778,360.25766,292.42175,-30.621958,0.17867279,0.011898041,-0.00459671,-13.09023,6.6380563,-0.026580043,-0.012043039,0.0051231384,0.02074653,0.0074878335,-1.6289289,-3.3479404,0.006896443,2.6570253,6.2807426,0.32793528,30.972557,0.48708826,0.473604,0.18046099,0.12673214,inf,inf,inf,inf,1,1,1,1,3,2,3,3,4,1,1,0,0
104780000,104780000,1016000,1.3274169999999998,103.7850778,358.9411,293.07056,-30.624477,0.17867279,0.011898041,-0.00459671,-13.245175,6.3098907,-0.026926277,-0.013587073,0.0051231384,0.02074653,0.0074878335,-1.5402976,-3.2514403,-0.08626188,2.681723,6.2807426,0.32793528,30.975077,0.4986552,0.47795802,0.18547359,0.12832806,inf,inf,inf,inf,1,1,1,1,3,2,3,3,4,1,1,0,0
104880000,104880000,1016000,1.3274169999999998,103.7850778,357.60947,293.68918,-30.626034,0.17867279,0.011898041,-0.00459671,-13.3963175,5.9760404,-0.026963439,-0.013588583,0.0051231384,0.02074653,0.0074878335,-1.5096983,-3.3609288,0.117485404,2.706699,6.2807426,0.32793528,30.976633,0.46559268,0.469153,0.17088738,0.12424532,inf,inf,inf,inf,1,1,1,1,3,2,3,3,4,1,1,0,0
104980000,104980000,1016000,1.3274169999999998,103.7850778,356.26315,294.27417,-30.626074,0.17867279,0.011898041,-0.00459671,-13.5382,5.6362486,-0.025172813,-0.010518159,0.0051231384,0.02074653,0.0074878335,-1.3720951,-3.4299831,-0.06441864,2.7319698,6.2807426,0.32793528,30.976673,0.47607183,0.47341913,0.17575213,0.1258635,inf,inf,inf,inf,1,1,1,1,3,2,3,3,4,1,1,0,0
105080000,105080000,1016000,1.3274169999999998,103.7850778,354.90286,294.82358,-30.626177,0.17867279,0.011898041,-0.00459671,-13.674561,5.2885823,-0.024558192,-0.009044417,0.0051231384,0.02074653,0.0074878335,-1.4308826,-3.4580557,0.029300338,2.7572687,6.2807426,0.32793528,30.976776,0.4870882,0.4733982,0.18067676,0.12693278,inf,inf,inf,inf,1,1,1,1,3,2,3,3,4,1,1,0,0
105180000,105180000,1016000,1.3274169999999998,103.7850778,353.52905,295.33707,-30.626657,0.17867279,0.011898041,-0.00459671,-13.805588,4.9379725,-0.020605853,-0.0048183445,0.0051231384,0.02074653,0.0074878335,-1.3244444,-3.5447438,0.03148708,2.7827337,6.2807426,0.32793528,30.977257,0.4986498,0.4777968,0.18567325,0.1285524,inf,inf,inf,inf,1,1,1,1,3,2,3,3,4,1,1,0,0
105280000,105280000,1016000,1.3274169999999998,103.7850778,352.14178,295.81778,-30.625395,0.17867279,0.011898041,-0.00459671,-13.92859,4.582246,-0.016836,0.00053598994,0.0051231384,0.02074653,0.0074878335,-1.1874505,-3.623524,0.039410774,2.8083289,6.2807426,0.32793528,30.975994,0.4655884,0.46902245,0.17104226,0.12444921,inf,inf,inf,inf,1,1,1,1,3,2,3,3,4,1,1,0,0
