timestamp,timestamp_sample,control[0],control[1],control[2],control[3],control[4],control[5],control[6],control[7]
84804000,84804000,0.00046525718,0.2473802,-0.020256393,0.17399357,0.0,0.0,0.0,0.0
84880000,84880000,0.00046525718,0.24660556,-0.020256393,0.17347708,0.0,0.0,0.0,0.0
84980000,84980000,0.00046525718,0.24396573,-0.020256393,0.17500117,0.0,0.0,0.0,0.0
85080000,85080000,0.00046525718,0.24510364,-0.020256393,0.17596559,0.0,0.0,0.0,0.0
85180000,85180000,0.00046525718,0.25008973,-0.020256393,0.17451113,0.0,0.0,0.0,0.0
85280000,85280000,0.00046525718,0.24825186,-0.020256393,0.17439456,0.0,0.0,0.0,0.0
85380000,85380000,0.00046525718,0.24946286,-0.020256393,0.17411214,0.0,0.0,0.0,0.0
85480000,85480000,0.00046525718,0.24369949,-0.020256393,0.17612144,0.0,0.0,0.0,0.0
85580000,85580000,0.00046525718,0.24570826,-0.020256393,0.17688444,0.0,0.0,0.0,0.0
85680000,85680000,0.00046525718,0.24215615,-0.020256393,0.17699961,0.0,0.0,0.0,0.0
85780000,85780000,0.00046525718,0.25059333,-0.020256393,0.17898625,0.0,0.0,0.0,0.0
85880000,85880000,0.00046525718,0.2439648,-0.020256393,0.17899469,0.0,0.0,0.0,0.0
85980000,85980000,0.00046525718,0.24962969,-0.020256393,0.17471303,0.0,0.0,0.0,0.0
86080000,86080000,0.00046525718,0.24867555,-0.020256393,0.1747897,0.0,0.0,0.0,0.0
86180000,86180000,0.00046525718,0.24488218,-0.020256393,0.17494743,0.0,0.0,0.0,0.0
86280000,86280000,0.00046525718,0.24554893,-0.020256393,0.17373326,0.0,0.0,0.0,0.0
86380000,86380000,0.00046525718,0.25038826,-0.020256393,0.17407438,0.0,0.0,0.0,0.0
86480000,86480000,0.00046525718,0.2548926,-0.020256393,0.17325416,0.0,0.0,0.0,0.0
86580000,86580000,0.00046525718,0.2506309,-0.020256393,0.17262158,0.0,0.0,0.0,0.0
86680000,86680000,0.00046525718,0.25270748,-0.020256393,0.17415966,0.0,0.0,0.0,0.0
86780000,86780000,0.00046525718,0.24546054,-0.020256393,0.17395763,0.0,0.0,0.0,0.0
86880000,86880000,0.00046525718,0.24885528,-0.020256393,0.1740099,0.0,0.0,0.0,0.0
86980000,86980000,0.00046525718,0.24655408,-0.020256393,0.17372309,0.0,0.0,0.0,0.0
87080000,87080000,0.00046525718,0.24916945,-0.020256393,0.17381054,0.0,0.0,0.0,0.0
87184000,87184000,0.00046525718,0.25214493,-0.020256393,0.17187086,0.0,0.0,0.0,0.0
87280000,87280000,0.00046525718,0.24647406,-0.020256393,0.17143516,0.0,0.0,0.0,0.0
87380000,87380000,0.00046525718,0.25197923,-0.020256393,0.17109153,0.0,0.0,0.0,0.0
87480000,87480000,0.00046525718,0.2484519,-0.020256393,0.17193551,0.0,0.0,0.0,0.0
87580000,87580000,0.00046525718,0.25459418,-0.020256393,0.1713226,0.0,0.0,0.0,0.0
87680000,87680000,0.00046525718,0.25138026,-0.020256393,0.17179495,0.0,0.0,0.0,0.0
87780000,87780000,0.00046525718,0.25324565,-0.020256393,0.17217548,0.0,0.0,0.0,0.0
87880000,87880000,0.00046525718,0.25571725,-0.020256393,0.17237651,0.0,0.0,0.0,0.0
87980000,87980000,0.00046525718,0.24813136,-0.020256393,0.17415899,0.0,0.0,0.0,0.0
88080000,88080000,0.00046525718,0.24986191,-0.020256393,0.17569774,0.0,0.0,0.0,0.0
88180000,88180000,0.00046525718,0.25085956,-0.020256393,0.1746544,0.0,0.0,0.0,0.0
88280000,88280000,0.00046525718,0.24372874,-0.020256393,0.17597076,0.0,0.0,0.0,0.0
88380000,88380000,0.00046525718,0.24803069,-0.020256393,0.17478424,0.0,0.0,0.0,0.0
88484000,88484000,0.00046525718,0.2475154,-0.020256393,0.17515364,0.0,0.0,0.0,0.0
88580000,88580000,0.00046525718,0.24774571,-0.020256393,0.1759169,0.0,0.0,0.0,0.0
88680000,88680000,0.00046525718,0.2441088,-0.020256393,0.17800044,0.0,0.0,0.0,0.0
88780000,88780000,0.00046525718,0.2472277,-0.020256393,0.17803645,0.0,0.0,0.0,0.0
88880000,88880000,0.00046525718,0.24920094,-0.020256393,0.176503,0.0,0.0,0.0,0.0
88980000,88980000,0.00046525718,0.2522451,-0.020256393,0.17623392,0.0,0.0,0.0,0.0
89080000,89080000,0.00046525718,0.25306892,-0.020256393,0.1762185,0.0,0.0,0.0,0.0
89180000,89180000,0.00046525718,0.24957086,-0.020256393,0.17482252,0.0,0.0,0.0,0.0
89280000,89280000,0.00046525718,0.25179607,-0.020256393,0.17409745,0.0,0.0,0.0,0.0
89380000,89380000,0.00046525718,0.25583595,-0.020256393,0.17318374,0.0,0.0,0.0,0.0
89480000,89480000,0.00046525718,0.25005996,-0.020256393,0.17331466,0.0,0.0,0.0,0.0
89580000,89580000,0.00046525718,0.25479934,-0.020256393,0.17554618,0.0,0.0,0.0,0.0
89680000,89680000,0.00046525718,0.25301167,-0.020256393,0.17658074,0.0,0.0,0.0,0.0
89780000,89780000,0.00046525718,0.25079525,-0.020256393,0.17585325,0.0,0.0,0.0,0.0
89880000,89880000,0.00046525718,0.24622516,-0.020256393,0.17718104,0.0,0.0,0.0,0.0
89980000,89980000,0.00046525718,0.24741742,-0.020256393,0.1761401,0.0,0.0,0.0,0.0
90080000,90080000,0.00046525718,0.24748366,-0.020256393,0.17368348,0.0,0.0,0.0,0.0
90180000,90180000,0.00046525718,0.25096464,-0.020256393,0.173145,0.0,0.0,0.0,0.0
90280000,90280000,0.00046525718,0.24553691,-0.020256393,0.1726873,0.0,0.0,0.0,0.0
90380000,90380000,0.00046525718,0.25013736,-0.020256393,0.17316288,0.0,0.0,0.0,0.0
90480000,90480000,0.00046525718,0.24997932,-0.020256393,0.17376474,0.0,0.0,0.0,0.0
90584000,90584000,0.00046525718,0.24832493,-0.020256393,0.17486307,0.0,0.0,0.0,0.0
90680000,90680000,0.5466244,0.25933948,0.52590275,0.17423593,0.0,0.0,0.0,0.0
90780000,90780000,0.93458045,0.22958727,0.9138588,0.17639132,0.0,0.0,0.0,0.0
90880000,90880000,0.9660859,0.25664386,0.94536424,0.18147168,0.0,0.0,0.0,0.0
90980000,90980000,0.6291186,0.2578834,0.60839695,0.19200328,0.0,0.0,0.0,0.0
91080000,91080000,0.05226246,0.23760514,0.031540807,0.20358191,0.0,0.0,0.0,0.0
91184000,91184000,-0.5652493,0.26139137,-0.585971,0.20867455,0.0,0.0,0.0,0.0
91280000,91280000,-0.9330802,0.22545902,-0.9538019,0.20541736,0.0,0.0,0.0,0.0
91380000,91380000,-0.9655682,0.23410952,-0.98628986,0.1993607,0.0,0.0,0.0,0.0
91480000,91480000,-0.6294259,0.2404261,-0.65014756,0.1883874,0.0,0.0,0.0,0.0
91580000,91580000,-0.05292239,0.20701237,-0.07364404,0.18119188,0.0,0.0,0.0,0.0
91680000,91680000,0.00046525718,0.25610194,-0.020256393,0.17916866,0.0,0.0,0.0,0.0
91780000,91780000,0.00046525718,0.26482305,-0.020256393,0.1785065,0.0,0.0,0.0,0.0
91880000,91880000,0.00046525718,0.25918785,-0.020256393,0.1762028,0.0,0.0,0.0,0.0
91980000,91980000,0.00046525718,0.25303817,-0.020256393,0.17496698,0.0,0.0,0.0,0.0
92080000,92080000,0.00046525718,0.25101325,-0.020256393,0.17412162,0.0,0.0,0.0,0.0
92180000,92180000,0.00046525718,0.2496143,-0.020256393,0.17414789,0.0,0.0,0.0,0.0
92280000,92280000,0.00046525718,0.24730252,-0.020256393,0.17451353,0.0,0.0,0.0,0.0
92380000,92380000,0.00046525718,0.24614994,-0.020256393,0.17403051,0.0,0.0,0.0,0.0
92480000,92480000,0.00046525718,0.24942206,-0.020256393,0.17423403,0.0,0.0,0.0,0.0
92580000,92580000,0.00046525718,0.24730997,-0.020256393,0.17357232,0.0,0.0,0.0,0.0
92680000,92680000,0.00046525718,0.24884912,-0.020256393,0.17143004,0.0,0.0,0.0,0.0
92780000,92780000,0.00046525718,0.25100926,-0.020256393,0.17208193,0.0,0.0,0.0,0.0
92880000,92880000,0.00046525718,0.24220671,-0.020256393,0.1738423,0.0,0.0,0.0,0.0
92980000,92980000,0.00046525718,0.24622436,-0.020256393,0.1717748,0.0,0.0,0.0,0.0
93080000,93080000,0.00046525718,0.24490935,-0.020256393,0.17307083,0.0,0.0,0.0,0.0
93180000,93180000,0.00046525718,0.24058114,-0.020256393,0.17319316,0.0,0.0,0.0,0.0
93280000,93280000,0.00046525718,0.24356355,-0.020256393,0.17269549,0.0,0.0,0.0,0.0
93380000,93380000,0.00046525718,0.2471723,-0.020256393,0.17227013,0.0,0.0,0.0,0.0
93480000,93480000,0.00046525718,0.24781168,-0.020256393,0.17461589,0.0,0.0,0.0,0.0
93580000,93580000,0.00046525718,0.24620634,-0.020256393,0.17602071,0.0,0.0,0.0,0.0
93680000,93680000,0.00046525718,0.25081876,-0.020256393,0.17448959,0.0,0.0,0.0,0.0
93780000,93780000,0.00046525718,0.25030962,-0.020256393,0.1739307,0.0,0.0,0.0,0.0
93880000,93880000,0.00046525718,0.24897629,-0.020256393,0.175652,0.0,0.0,0.0,0.0
93980000,93980000,0.00046525718,0.2533313,-0.020256393,0.17665215,0.0,0.0,0.0,0.0
94080000,94080000,0.00046525718,0.24411245,-0.020256393,0.17855212,0.0,0.0,0.0,0.0
94180000,94180000,0.00046525718,0.2450467,-0.020256393,0.17991297,0.0,0.0,0.0,0.0
94280000,94280000,0.00046525718,0.24895808,-0.020256393,0.18003562,0.0,0.0,0.0,0.0
94380000,94380000,0.00046525718,0.250367,-0.020256393,0.17956884,0.0,0.0,0.0,0.0
94480000,94480000,0.00046525718,0.25083497,-0.020256393,0.18077523,0.0,0.0,0.0,0.0
94580000,94580000,0.00046525718,0.25522673,-0.020256393,0.17935032,0.0,0.0,0.0,0.0
94680000,94680000,0.00046525718,0.25279805,-0.020256393,0.17877652,0.0,0.0,0.0,0.0
94780000,94780000,0.00046525718,0.2536372,-0.020256393,0.17663324,0.0,0.0,0.0,0.0
94880000,94880000,0.00046525718,0.26108694,-0.020256393,0.17463654,0.0,0.0,0.0,0.0
94980000,94980000,0.00046525718,0.2585439,-0.020256393,0.17217366,0.0,0.0,0.0,0.0
95080000,95080000,0.00046525718,0.2596363,-0.020256393,0.17279652,0.0,0.0,0.0,0.0
95180000,95180000,0.00046525718,0.25404623,-0.020256393,0.17305115,0.0,0.0,0.0,0.0
95280000,95280000,0.00046525718,0.25687292,-0.020256393,0.17340545,0.0,0.0,0.0,0.0
95380000,95380000,0.00046525718,0.25970054,-0.020256393,0.17234004,0.0,0.0,0.0,0.0
95480000,95480000,0.00046525718,0.26216117,-0.020256393,0.17237128,0.0,0.0,0.0,0.0
95580000,95580000,0.00046525718,0.24831067,-0.020256393,0.17494607,0.0,0.0,0.0,0.0
95680000,95680000,0.00046525718,0.25419348,-0.020256393,0.17653947,0.0,0.0,0.0,0.0
95780000,95780000,0.00046525718,0.2507023,-0.020256393,0.17697895,0.0,0.0,0.0,0.0
95880000,95880000,0.00046525718,0.2561501,-0.020256393,0.1764089,0.0,0.0,0.0,0.0
95980000,95980000,0.00046525718,0.253932,-0.020256393,0.17451522,0.0,0.0,0.0,0.0
96080000,96080000,0.00046525718,0.24795099,-0.020256393,0.17510138,0.0,0.0,0.0,0.0
96180000,96180000,0.00046525718,0.2538735,-0.020256393,0.17601694,0.0,0.0,0.0,0.0
96280000,96280000,0.00046525718,0.2550459,-0.020256393,0.17562635,0.0,0.0,0.0,0.0
96380000,96380000,0.00046525718,0.25728312,-0.020256393,0.17492995,0.0,0.0,0.0,0.0
96480000,96480000,0.00046525718,0.25675407,-0.020256393,0.17426354,0.0,0.0,0.0,0.0
96580000,96580000,0.00046525718,0.25356272,-0.020256393,0.17519023,0.0,0.0,0.0,0.0
96680000,96680000,0.00046525718,0.25409076,-0.020256393,0.1742488,0.0,0.0,0.0,0.0
96780000,96780000,0.00046525718,0.25440955,-0.020256393,0.1759628,0.0,0.0,0.0,0.0
96880000,96880000,0.00046525718,0.25811583,-0.020256393,0.17548914,0.0,0.0,0.0,0.0
96980000,96980000,0.00046525718,0.2535808,-0.020256393,0.17432341,0.0,0.0,0.0,0.0
97080000,97080000,0.00046525718,0.25201494,-0.020256393,0.17383297,0.0,0.0,0.0,0.0
97180000,97180000,0.00046525718,0.2505169,-0.020256393,0.17305307,0.0,0.0,0.0,0.0
97280000,97280000,0.00046525718,0.2604862,-0.020256393,0.17427516,0.0,0.0,0.0,0.0
97380000,97380000,0.00046525718,0.25451788,-0.020256393,0.17657904,0.0,0.0,0.0,0.0
97480000,97480000,0.00046525718,0.25201455,-0.020256393,0.17666882,0.0,0.0,0.0,0.0
97580000,97580000,0.00046525718,0.2520945,-0.020256393,0.17655349,0.0,0.0,0.0,0.0
97680000,97680000,0.00046525718,0.25199986,-0.020256393,0.17644879,0.0,0.0,0.0,0.0
97784000,97784000,0.00046525718,0.26304916,-0.020256393,0.17452237,0.0,0.0,0.0,0.0
97880000,97880000,0.00046525718,0.25944048,-0.020256393,0.17290835,0.0,0.0,0.0,0.0
97980000,97980000,0.00046525718,0.25635272,-0.020256393,0.17475294,0.0,0.0,0.0,0.0
98080000,98080000,0.00046525718,0.25408974,-0.020256393,0.17628974,0.0,0.0,0.0,0.0
98180000,98180000,0.00046525718,0.25510633,-0.020256393,0.17591098,0.0,0.0,0.0,0.0
98280000,98280000,0.00046525718,0.2582903,-0.020256393,0.17763677,0.0,0.0,0.0,0.0
98380000,98380000,0.00046525718,0.2568877,-0.020256393,0.17646265,0.0,0.0,0.0,0.0
98480000,98480000,0.00046525718,0.2560107,-0.020256393,0.17627633,0.0,0.0,0.0,0.0
98580000,98580000,0.00046525718,0.25786823,-0.020256393,0.17504644,0.0,0.0,0.0,0.0
98680000,98680000,0.00046525718,0.26208016,-0.020256393,0.17413189,0.0,0.0,0.0,0.0
98780000,98780000,0.00046525718,0.26425427,-0.020256393,0.17429331,0.0,0.0,0.0,0.0
98880000,98880000,0.00046525718,0.2652461,-0.020256393,0.17255473,0.0,0.0,0.0,0.0
98980000,98980000,0.00046525718,0.26229382,-0.020256393,0.1737945,0.0,0.0,0.0,0.0
99080000,99080000,0.00046525718,0.26492116,-0.020256393,0.17533481,0.0,0.0,0.0,0.0
99180000,99180000,0.00046525718,0.25980687,-0.020256393,0.17499939,0.0,0.0,0.0,0.0
99280000,99280000,0.00046525718,0.26313642,-0.020256393,0.17487447,0.0,0.0,0.0,0.0
99380000,99380000,0.00046525718,0.25745553,-0.020256393,0.17603852,0.0,0.0,0.0,0.0
99480000,99480000,0.00046525718,0.26051486,-0.020256393,0.17569037,0.0,0.0,0.0,0.0
99580000,99580000,0.00046525718,0.26442873,-0.020256393,0.17505851,0.0,0.0,0.0,0.0
99680000,99680000,0.00046525718,0.25853783,-0.020256393,0.1759656,0.0,0.0,0.0,0.0
99780000,99780000,0.00046525718,0.2587214,-0.020256393,0.17719442,0.0,0.0,0.0,0.0
99880000,99880000,0.00046525718,0.2565933,-0.020256393,0.17833582,0.0,0.0,0.0,0.0
99980000,99980000,0.00046525718,0.26502305,-0.020256393,0.17723732,0.0,0.0,0.0,0.0
100080000,100080000,0.00046525718,0.26322013,-0.020256393,0.17692374,0.0,0.0,0.0,0.0
100180000,100180000,0.00046525718,0.26448023,-0.020256393,0.1777909,0.0,0.0,0.0,0.0
100280000,100280000,0.00046525718,0.26649982,-0.020256393,0.17698023,0.0,0.0,0.0,0.0
100380000,100380000,0.00046525718,0.2643148,-0.020256393,0.17786098,0.0,0.0,0.0,0.0
100480000,100480000,0.00046525718,0.26631343,-0.020256393,0.17701624,0.0,0.0,0.0,0.0
100580000,100580000,0.00046525718,0.26302388,-0.020256393,0.1777657,0.0,0.0,0.0,0.0
100680000,100680000,0.00046525718,0.2661304,-0.020256393,0.18001276,0.0,0.0,0.0,0.0
100780000,100780000,0.00046525718,0.2628677,-0.020256393,0.18140662,0.0,0.0,0.0,0.0
100880000,100880000,0.00046525718,0.26500547,-0.020256393,0.17966084,0.0,0.0,0.0,0.0
100980000,100980000,0.00046525718,0.26639608,-0.020256393,0.17789617,0.0,0.0,0.0,0.0
101080000,101080000,0.00046525718,0.26991892,-0.020256393,0.17557995,0.0,0.0,0.0,0.0
101180000,101180000,0.00046525718,0.2672157,-0.020256393,0.17333502,0.0,0.0,0.0,0.0
101280000,101280000,0.00046525718,0.26691112,-0.020256393,0.1721352,0.0,0.0,0.0,0.0
101380000,101380000,0.00046525718,0.26622152,-0.020256393,0.17368652,0.0,0.0,0.0,0.0
101480000,101480000,0.00046525718,0.27037132,-0.020256393,0.17245133,0.0,0.0,0.0,0.0
101580000,101580000,0.00046525718,0.26997665,-0.020256393,0.17245871,0.0,0.0,0.0,0.0
101680000,101680000,0.00046525718,0.27036119,-0.020256393,0.1723943,0.0,0.0,0.0,0.0
101780000,101780000,0.00046525718,0.26759005,-0.020256393,0.17300913,0.0,0.0,0.0,0.0
101880000,101880000,0.00046525718,0.2679503,-0.020256393,0.1742879,0.0,0.0,0.0,0.0
101980000,101980000,0.00046525718,0.26565716,-0.020256393,0.17429225,0.0,0.0,0.0,0.0
102080000,102080000,0.00046525718,0.26927552,-0.020256393,0.17605752,0.0,0.0,0.0,0.0
102180000,102180000,0.00046525718,0.26886314,-0.020256393,0.17517735,0.0,0.0,0.0,0.0
102284000,102284000,0.00046525718,0.26740006,-0.020256393,0.17650503,0.0,0.0,0.0,0.0
102380000,102380000,0.00046525718,0.27251902,-0.020256393,0.17813551,0.0,0.0,0.0,0.0
102480000,102480000,0.00046525718,0.26508066,-0.020256393,0.18019414,0.0,0.0,0.0,0.0
102580000,102580000,0.00046525718,0.26703238,-0.020256393,0.18022679,0.0,0.0,0.0,0.0
102680000,102680000,0.00046525718,0.27048397,-0.020256393,0.17942132,0.0,0.0,0.0,0.0
102780000,102780000,0.00046525718,0.27561274,-0.020256393,0.1792521,0.0,0.0,0.0,0.0
102880000,102880000,0.00046525718,0.26954597,-0.020256393,0.18012513,0.0,0.0,0.0,0.0
102980000,102980000,0.00046525718,0.2767462,-0.020256393,0.17894909,0.0,0.0,0.0,0.0
103080000,103080000,0.00046525718,0.27172554,-0.020256393,0.17965916,0.0,0.0,0.0,0.0
103180000,103180000,0.00046525718,0.27858695,-0.020256393,0.17891052,0.0,0.0,0.0,0.0
103280000,103280000,0.00046525718,0.27423686,-0.020256393,0.17952771,0.0,0.0,0.0,0.0
103380000,103380000,0.00046525718,0.2779474,-0.020256393,0.17837942,0.0,0.0,0.0,0.0
103480000,103480000,0.00046525718,0.280563,-0.020256393,0.17954026,0.0,0.0,0.0,0.0
103580000,103580000,0.00046525718,0.27601203,-0.020256393,0.18044853,0.0,0.0,0.0,0.0
103680000,103680000,0.00046525718,0.27558863,-0.020256393,0.17899925,0.0,0.0,0.0,0.0
103780000,103780000,0.00046525718,0.28111255,-0.020256393,0.17841893,0.0,0.0,0.0,0.0
103880000,103880000,0.00046525718,0.28057024,-0.020256393,0.17732957,0.0,0.0,0.0,0.0
103980000,103980000,0.00046525718,0.27439386,-0.020256393,0.17831504,0.0,0.0,0.0,0.0
104080000,104080000,0.00046525718,0.2747937,-0.020256393,0.17992288,0.0,0.0,0.0,0.0
104180000,104180000,0.00046525718,0.27935058,-0.020256393,0.17917876,0.0,0.0,0.0,0.0
104280000,104280000,0.00046525718,0.28107536,-0.020256393,0.17901261,0.0,0.0,0.0,0.0
104380000,104380000,0.00046525718,0.28123125,-0.020256393,0.17928658,0.0,0.0,0.0,0.0
104480000,104480000,0.00046525718,0.2788853,-0.020256393,0.17911622,0.0,0.0,0.0,0.0
104580000,104580000,0.00046525718,0.2864122,-0.020256393,0.17707047,0.0,0.0,0.0,0.0
104680000,104680000,0.00046525718,0.2851659,-0.020256393,0.17690513,0.0,0.0,0.0,0.0
104780000,104780000,0.00046525718,0.27939856,-0.020256393,0.17726141,0.0,0.0,0.0,0.0
104880000,104880000,0.00046525718,0.28468156,-0.020256393,0.17706859,0.0,0.0,0.0,0.0
104980000,104980000,0.00046525718,0.28155467,-0.020256393,0.17782229,0.0,0.0,0.0,0.0
105080000,105080000,0.00046525718,0.2831046,-0.020256393,0.17837596,0.0,0.0,0.0,0.0
105180000,105180000,0.00046525718,0.28249636,-0.020256393,0.18040784,0.0,0.0,0.0,0.0
105280000,105280000,0.00046525718,0.28484392,-0.020256393,0.18050258,0.0,0.0,0.0,0.0
