timestamp,timestamp_sample,q[0],q[1],q[2],q[3],delta_q_reset[0],delta_q_reset[1],delta_q_reset[2],delta_q_reset[3],quat_reset_counter
98724000,98724000,0.24863818,-0.023039851,-0.008120505,-0.9682884,1.0,5.820766e-11,0.0,3.0338764e-05,1
98804000,98804000,0.248477,-0.02300111,-0.008133516,-0.96833056,1.0,5.820766e-11,0.0,3.0338764e-05,1
98900000,98900000,0.2483396,-0.023037814,-0.008124074,-0.9683651,1.0,5.820766e-11,0.0,3.0338764e-05,1
99000000,99000000,0.248203,-0.023013482,-0.008151318,-0.96840036,1.0,5.820766e-11,0.0,3.0338764e-05,1
99100000,99100000,0.2481494,-0.022928236,-0.008146423,-0.9684161,1.0,5.820766e-11,0.0,3.0338764e-05,1
99200000,99200000,0.24810775,-0.022875596,-0.008145768,-0.9684281,1.0,5.820766e-11,0.0,3.0338764e-05,1
99300000,99300000,0.24802278,-0.02280665,-0.008107645,-0.96845186,1.0,5.820766e-11,0.0,3.0338764e-05,1
99400000,99400000,0.24796067,-0.022715203,-0.0081344405,-0.9684697,1.0,5.820766e-11,0.0,3.0338764e-05,1
99500000,99500000,0.24795717,-0.022659738,-0.008117047,-0.96847194,1.0,5.820766e-11,0.0,3.0338764e-05,1
99600000,99600000,0.2479275,-0.022645187,-0.008109631,-0.96848,1.0,5.820766e-11,0.0,3.0338764e-05,1
99700000,99700000,0.24787717,-0.022597402,-0.008056257,-0.9684945,1.0,5.820766e-11,0.0,3.0338764e-05,1
99800000,99800000,0.24784796,-0.022602586,-0.008068282,-0.96850175,1.0,5.820766e-11,0.0,3.0338764e-05,1
99900000,99900000,0.24788299,-0.022584056,-0.008123961,-0.9684927,1.0,5.820766e-11,0.0,3.0338764e-05,1
100000000,100000000,0.24784113,-0.022544287,-0.00811121,-0.96850437,1.0,5.820766e-11,0.0,3.0338764e-05,1
100100000,100100000,0.24782756,-0.02267012,-0.008119097,-0.96850485,1.0,5.820766e-11,0.0,3.0338764e-05,1
100200000,100200000,0.24783531,-0.022675257,-0.008128095,-0.96850276,1.0,5.820766e-11,0.0,3.0338764e-05,1
100300000,100300000,0.24782968,-0.02263937,-0.008233199,-0.9685041,1.0,5.820766e-11,0.0,3.0338764e-05,1
100400000,100400000,0.2477757,-0.022652796,-0.008248723,-0.9685175,1.0,5.820766e-11,0.0,3.0338764e-05,1
100500000,100500000,0.24775861,-0.022692518,-0.008248906,-0.9685209,1.0,5.820766e-11,0.0,3.0338764e-05,1
100600000,100600000,0.2477166,-0.02271643,-0.008319249,-0.9685305,1.0,5.820766e-11,0.0,3.0338764e-05,1
100700000,100700000,0.24773803,-0.02276233,-0.008321803,-0.9685239,1.0,5.820766e-11,0.0,3.0338764e-05,1
100800000,100800000,0.2476963,-0.022740593,-0.008310658,-0.9685351,1.0,5.820766e-11,0.0,3.0338764e-05,1
100900000,100900000,0.24761264,-0.022855148,-0.00829121,-0.9685541,1.0,5.820766e-11,0.0,3.0338764e-05,1
101000000,101000000,0.2475471,-0.02295288,-0.008252567,-0.96856886,1.0,5.820766e-11,0.0,3.0338764e-05,1
101100000,101100000,0.24758172,-0.023031501,-0.008339194,-0.96855736,1.0,5.820766e-11,0.0,3.0338764e-05,1
101200000,101200000,0.24756008,-0.02307039,-0.008279363,-0.96856254,1.0,5.820766e-11,0.0,3.0338764e-05,1
101304000,101304000,0.24755813,-0.023178142,-0.008377493,-0.9685596,1.0,5.820766e-11,0.0,3.0338764e-05,1
101400000,101400000,0.24756539,-0.023311831,-0.008419102,-0.96855414,1.0,5.820766e-11,0.0,3.0338764e-05,1
101504000,101504000,0.24763523,-0.023324655,-0.008473514,-0.9685355,1.0,5.820766e-11,0.0,3.0338764e-05,1
101600000,101600000,0.247572,-0.023307122,-0.008474292,-0.9685521,1.0,5.820766e-11,0.0,3.0338764e-05,1
101700000,101700000,0.24757217,-0.023364685,-0.008484996,-0.9685505,1.0,5.820766e-11,0.0,3.0338764e-05,1
101800000,101800000,0.24760501,-0.023346042,-0.008546251,-0.96854204,1.0,5.820766e-11,0.0,3.0338764e-05,1
101900000,101900000,0.24768634,-0.023287939,-0.008616391,-0.968522,1.0,5.820766e-11,0.0,3.0338764e-05,1
102000000,102000000,0.24769966,-0.02336389,-0.008590871,-0.96851707,1.0,5.820766e-11,0.0,3.0338764e-05,1
102100000,102100000,0.24773136,-0.023358239,-0.008593366,-0.968509,1.0,5.820766e-11,0.0,3.0338764e-05,1
102200000,102200000,0.24774131,-0.023343405,-0.008654523,-0.96850634,1.0,5.820766e-11,0.0,3.0338764e-05,1
102300000,102300000,0.247817,-0.023403006,-0.0086867055,-0.9684852,1.0,5.820766e-11,0.0,3.0338764e-05,1
102400000,102400000,0.24776404,-0.023486696,-0.008677161,-0.96849686,1.0,5.820766e-11,0.0,3.0338764e-05,1
102504000,102504000,0.24770892,-0.023517013,-0.008699836,-0.96851,1.0,5.820766e-11,0.0,3.0338764e-05,1
102600000,102600000,0.2477773,-0.023511203,-0.008739283,-0.9684923,1.0,5.820766e-11,0.0,3.0338764e-05,1
102700000,102700000,0.2477486,-0.023515392,-0.008746611,-0.9684994,1.0,5.820766e-11,0.0,3.0338764e-05,1
102804000,102804000,0.24777201,-0.02353635,-0.008751904,-0.968493,1.0,5.820766e-11,0.0,3.0338764e-05,1
102900000,102900000,0.2478201,-0.02360864,-0.008712382,-0.9684793,1.0,5.820766e-11,0.0,3.0338764e-05,1
103000000,103000000,0.24784961,-0.023656333,-0.008749067,-0.96847016,1.0,5.820766e-11,0.0,3.0338764e-05,1
103104000,103104000,0.24796721,-0.023748085,-0.008800333,-0.9684373,1.0,5.820766e-11,0.0,3.0338764e-05,1
103200000,103200000,0.24799263,-0.02380397,-0.008747139,-0.9684299,1.0,5.820766e-11,0.0,3.0338764e-05,1
103300000,103300000,0.24804209,-0.02387677,-0.008771751,-0.9684153,1.0,5.820766e-11,0.0,3.0338764e-05,1
103400000,103400000,0.24806535,-0.024014296,-0.00878393,-0.96840584,1.0,5.820766e-11,0.0,3.0338764e-05,1
103500000,103500000,0.24805059,-0.024095913,-0.008966242,-0.9684059,1.0,5.820766e-11,0.0,3.0338764e-05,1
103600000,103600000,0.24812894,-0.024168564,-0.00898158,-0.96838385,1.0,5.820766e-11,0.0,3.0338764e-05,1
103700000,103700000,0.24811845,-0.024288854,-0.009017043,-0.96838325,1.0,5.820766e-11,0.0,3.0338764e-05,1
103800000,103800000,0.24812552,-0.024452278,-0.009040972,-0.96837705,1.0,5.820766e-11,0.0,3.0338764e-05,1
103900000,103900000,0.2481476,-0.024564821,-0.009134676,-0.96836764,1.0,5.820766e-11,0.0,3.0338764e-05,1
104000000,104000000,0.24818023,-0.024688402,-0.009163825,-0.96835583,1.0,5.820766e-11,0.0,3.0338764e-05,1
104100000,104100000,0.2482306,-0.024721012,-0.0092008095,-0.9683418,1.0,5.820766e-11,0.0,3.0338764e-05,1
104200000,104200000,0.24827409,-0.024757657,-0.009246292,-0.9683293,1.0,5.820766e-11,0.0,3.0338764e-05,1
104300000,104300000,0.24835204,-0.024711061,-0.009225949,-0.96831065,1.0,5.820766e-11,0.0,3.0338764e-05,1
104400000,104400000,0.24836682,-0.0248087,-0.009260973,-0.9683041,1.0,5.820766e-11,0.0,3.0338764e-05,1
104500000,104500000,0.2484157,-0.024833247,-0.009325951,-0.9682902,1.0,5.820766e-11,0.0,3.0338764e-05,1
104600000,104600000,0.24844396,-0.024925098,-0.009349147,-0.9682805,1.0,5.820766e-11,0.0,3.0338764e-05,1
104700000,104700000,0.24843663,-0.024890633,-0.009424424,-0.96828246,1.0,5.820766e-11,0.0,3.0338764e-05,1
104800000,104800000,0.24853516,-0.024845084,-0.009407176,-0.9682585,1.0,5.820766e-11,0.0,3.0338764e-05,1
104900000,104900000,0.24855748,-0.02484804,-0.009287504,-0.96825385,1.0,5.820766e-11,0.0,3.0338764e-05,1
105000000,105000000,0.24863218,-0.024767471,-0.009292566,-0.9682367,1.0,5.820766e-11,0.0,3.0338764e-05,1
105100000,105100000,0.24864967,-0.024615282,-0.009329584,-0.96823573,1.0,5.820766e-11,0.0,3.0338764e-05,1
105204000,105204000,0.24871305,-0.024626615,-0.00928839,-0.9682196,1.0,5.820766e-11,0.0,3.0338764e-05,1
105300000,105300000,0.24874434,-0.024600707,-0.009222124,-0.96821284,1.0,5.820766e-11,0.0,3.0338764e-05,1
105400000,105400000,0.24883893,-0.024518928,-0.009276512,-0.96819,1.0,5.820766e-11,0.0,3.0338764e-05,1
105504000,105504000,0.24893673,-0.024560152,-0.009277757,-0.96816385,1.0,5.820766e-11,0.0,3.0338764e-05,1
105600000,105600000,0.24903822,-0.024531435,-0.009212192,-0.9681392,1.0,5.820766e-11,0.0,3.0338764e-05,1
105700000,105700000,0.24911624,-0.024351018,-0.009186717,-0.9681239,1.0,5.820766e-11,0.0,3.0338764e-05,1
105800000,105800000,0.24915227,-0.02433109,-0.009163531,-0.96811527,1.0,5.820766e-11,0.0,3.0338764e-05,1
105900000,105900000,0.24908814,-0.024168044,-0.009213965,-0.96813536,1.0,5.820766e-11,0.0,3.0338764e-05,1
106000000,106000000,0.24916407,-0.024058292,-0.009119065,-0.9681195,1.0,5.820766e-11,0.0,3.0338764e-05,1
106100000,106100000,0.24927948,-0.02394586,-0.009087815,-0.96809286,1.0,5.820766e-11,0.0,3.0338764e-05,1
106200000,106200000,0.24937096,-0.023840588,-0.009009942,-0.9680726,1.0,5.820766e-11,0.0,3.0338764e-05,1
106300000,106300000,0.24952972,-0.023808211,-0.009024863,-0.9680324,1.0,5.820766e-11,0.0,3.0338764e-05,1
106400000,106400000,0.24963847,-0.023837686,-0.008965069,-0.96800417,1.0,5.820766e-11,0.0,3.0338764e-05,1
106504000,106504000,0.24957854,-0.023744678,-0.0089602405,-0.96802205,1.0,5.820766e-11,0.0,3.0338764e-05,1
106600000,106600000,0.24958557,-0.023740876,-0.008926009,-0.9680206,1.0,5.820766e-11,0.0,3.0338764e-05,1
106700000,106700000,0.24966952,-0.02373422,-0.008943344,-0.9679989,1.0,5.820766e-11,0.0,3.0338764e-05,1
106800000,106800000,0.24975088,-0.023706477,-0.0089458525,-0.96797866,1.0,5.820766e-11,0.0,3.0338764e-05,1
106900000,106900000,0.24986826,-0.023625556,-0.008994187,-0.96794975,1.0,5.820766e-11,0.0,3.0338764e-05,1
107000000,107000000,0.24996065,-0.02355804,-0.008969785,-0.9679278,1.0,5.820766e-11,0.0,3.0338764e-05,1
107100000,107100000,0.25012565,-0.02355427,-0.009021207,-0.9678849,1.0,5.820766e-11,0.0,3.0338764e-05,1
107200000,107200000,0.25018647,-0.023533866,-0.008974733,-0.96787006,1.0,5.820766e-11,0.0,3.0338764e-05,1
107300000,107300000,0.25030318,-0.0236078,-0.008985358,-0.96783805,1.0,5.820766e-11,0.0,3.0338764e-05,1
107400000,107400000,0.25041208,-0.023612188,-0.009004007,-0.96780956,1.0,5.820766e-11,0.0,3.0338764e-05,1
107500000,107500000,0.2505339,-0.023615101,-0.008986458,-0.9677781,1.0,5.820766e-11,0.0,3.0338764e-05,1
107600000,107600000,0.25061813,-0.023608202,-0.008972673,-0.96775657,1.0,5.820766e-11,0.0,3.0338764e-05,1
107700000,107700000,0.2506798,-0.023647515,-0.008992137,-0.9677394,1.0,5.820766e-11,0.0,3.0338764e-05,1
107804000,107804000,0.25076228,-0.023648208,-0.008953373,-0.9677185,1.0,5.820766e-11,0.0,3.0338764e-05,1
107900000,107900000,0.25087968,-0.023657521,-0.008973027,-0.96768755,1.0,5.820766e-11,0.0,3.0338764e-05,1
108004000,108004000,0.2510012,-0.023754004,-0.008990588,-0.9676536,1.0,5.820766e-11,0.0,3.0338764e-05,1
108100000,108100000,0.25107065,-0.023755424,-0.008949569,-0.96763587,1.0,5.820766e-11,0.0,3.0338764e-05,1
108200000,108200000,0.25117972,-0.023781227,-0.009028518,-0.96760625,1.0,5.820766e-11,0.0,3.0338764e-05,1
108300000,108300000,0.25123373,-0.023876663,-0.009028668,-0.9675898,1.0,5.820766e-11,0.0,3.0338764e-05,1
108404000,108404000,0.2513839,-0.023856854,-0.009003332,-0.9675516,1.0,5.820766e-11,0.0,3.0338764e-05,1
108504000,108504000,0.2514714,-0.023999708,-0.009058363,-0.9675247,1.0,5.820766e-11,0.0,3.0338764e-05,1
108600000,108600000,0.2515883,-0.0239588,-0.009106519,-0.9674949,1.0,5.820766e-11,0.0,3.0338764e-05,1
108700000,108700000,0.25171086,-0.023967808,-0.009133596,-0.96746254,1.0,5.820766e-11,0.0,3.0338764e-05,1
108800000,108800000,0.2517927,-0.024077134,-0.009169641,-0.9674382,1.0,5.820766e-11,0.0,3.0338764e-05,1
108900000,108900000,0.2519551,-0.024105232,-0.009164427,-0.9673953,1.0,5.820766e-11,0.0,3.0338764e-05,1
109000000,109000000,0.25210032,-0.024096763,-0.009177182,-0.9673576,1.0,5.820766e-11,0.0,3.0338764e-05,1
109100000,109100000,0.25229242,-0.024101015,-0.009187639,-0.96730727,1.0,5.820766e-11,0.0,3.0338764e-05,1
109200000,109200000,0.2525148,-0.024039755,-0.009205034,-0.9672505,1.0,5.820766e-11,0.0,3.0338764e-05,1
109300000,109300000,0.25264028,-0.024053939,-0.009130528,-0.9672182,1.0,5.820766e-11,0.0,3.0338764e-05,1
109404000,109404000,0.2527411,-0.023972195,-0.009187512,-0.9671933,1.0,5.820766e-11,0.0,3.0338764e-05,1
109500000,109500000,0.25283805,-0.023951473,-0.009119733,-0.96716917,1.0,5.820766e-11,0.0,3.0338764e-05,1
109600000,109600000,0.25286606,-0.024036584,-0.009165464,-0.9671593,1.0,5.820766e-11,0.0,3.0338764e-05,1
109700000,109700000,0.25231048,-0.06679839,-0.020363703,-0.9651232,1.0,5.820766e-11,0.0,3.0338764e-05,1
109800000,109800000,0.25012404,-0.12834553,-0.03745352,-0.95893836,1.0,5.820766e-11,0.0,3.0338764e-05,1
109900000,109900000,0.24946177,-0.12841693,-0.039313346,-0.9590268,1.0,5.820766e-11,0.0,3.0338764e-05,1
110000000,110000000,0.25017735,-0.108695805,-0.035610437,-0.96142006,1.0,5.820766e-11,0.0,3.0338764e-05,1
110100000,110100000,0.25068825,-0.102730736,-0.03486838,-0.9619699,1.0,5.820766e-11,0.0,3.0338764e-05,1
110200000,110200000,0.2515535,-0.09997308,-0.034878068,-0.9620342,1.0,5.820766e-11,0.0,3.0338764e-05,1
110300000,110300000,0.2529295,-0.09493473,-0.03405248,-0.96221334,1.0,5.820766e-11,0.0,3.0338764e-05,1
110400000,110400000,0.25439057,-0.08867188,-0.03274002,-0.96247125,1.0,5.820766e-11,0.0,3.0338764e-05,1
110500000,110500000,0.25564107,-0.08205683,-0.03126573,-0.9627756,1.0,5.820766e-11,0.0,3.0338764e-05,1
110600000,110600000,0.25676602,-0.07518149,-0.029483447,-0.9630938,1.0,5.820766e-11,0.0,3.0338764e-05,1
110704000,110704000,0.25769058,-0.0675076,-0.02746554,-0.963475,1.0,5.820766e-11,0.0,3.0338764e-05,1
110804000,110804000,0.25828218,-0.05994733,-0.025307018,-0.96387565,1.0,5.820766e-11,0.0,3.0338764e-05,1
110900000,110900000,0.2588018,-0.052416995,-0.023135519,-0.96422964,1.0,5.820766e-11,0.0,3.0338764e-05,1
111004000,111004000,0.25932544,-0.044276986,-0.020567613,-0.96455526,1.0,5.820766e-11,0.0,3.0338764e-05,1
111100000,111100000,0.25994924,-0.03721631,-0.018311089,-0.9647311,1.0,5.820766e-11,0.0,3.0338764e-05,1
111200000,111200000,0.26064542,-0.03114053,-0.016151072,-0.96479714,1.0,5.820766e-11,0.0,3.0338764e-05,1
111300000,111300000,0.26133096,-0.026048454,-0.01422112,-0.96479297,1.0,5.820766e-11,0.0,3.0338764e-05,1
111400000,111400000,0.2616144,-0.04504633,-0.018827444,-0.96393687,1.0,5.820766e-11,0.0,3.0338764e-05,1
111500000,111500000,0.26035157,-0.10608192,-0.035497926,-0.9590118,1.0,5.820766e-11,0.0,3.0338764e-05,1
111600000,111600000,0.25950393,-0.12592508,-0.041997828,-0.95657563,1.0,5.820766e-11,0.0,3.0338764e-05,1
111700000,111700000,0.26079482,-0.09753888,-0.03527177,-0.95980626,1.0,5.820766e-11,0.0,3.0338764e-05,1
111800000,111800000,0.26157683,-0.08400968,-0.032140158,-0.96098226,1.0,5.820766e-11,0.0,3.0338764e-05,1
111900000,111900000,0.2625195,-0.07544287,-0.030005429,-0.9615049,1.0,5.820766e-11,0.0,3.0338764e-05,1
112000000,112000000,0.26359087,-0.06525524,-0.027229581,-0.96203965,1.0,5.820766e-11,0.0,3.0338764e-05,1
112100000,112100000,0.26485118,-0.054302793,-0.024098828,-0.9624575,1.0,5.820766e-11,0.0,3.0338764e-05,1
112200000,112200000,0.2659976,-0.044287615,-0.021052003,-0.96272564,1.0,5.820766e-11,0.0,3.0338764e-05,1
112300000,112300000,0.26689047,-0.03598426,-0.01834047,-0.9628802,1.0,5.820766e-11,0.0,3.0338764e-05,1
112404000,112404000,0.26774636,-0.02857788,-0.01573255,-0.9629371,1.0,5.820766e-11,0.0,3.0338764e-05,1
112504000,112504000,0.268215,-0.022534978,-0.013485494,-0.9630011,1.0,5.820766e-11,0.0,3.0338764e-05,1
112600000,112600000,0.2686326,-0.017628025,-0.011552319,-0.9630121,1.0,5.820766e-11,0.0,3.0338764e-05,1
112700000,112700000,0.2689585,-0.013418708,-0.00977951,-0.96300864,1.0,5.820766e-11,0.0,3.0338764e-05,1
112800000,112800000,0.2690851,-0.02828593,-0.013347084,-0.9626084,1.0,5.820766e-11,0.0,3.0338764e-05,1
112900000,112900000,0.2681265,-0.08781709,-0.029820928,-0.95890933,1.0,5.820766e-11,0.0,3.0338764e-05,1
113000000,113000000,0.26738596,-0.1063935,-0.03594502,-0.95702314,1.0,5.820766e-11,0.0,3.0338764e-05,1
113104000,113104000,0.2684707,-0.07932782,-0.029350134,-0.9595672,1.0,5.820766e-11,0.0,3.0338764e-05,1
113200000,113200000,0.26921552,-0.06659472,-0.026189346,-0.96041775,1.0,5.820766e-11,0.0,3.0338764e-05,1
113300000,113300000,0.27010995,-0.056060396,-0.023371374,-0.96091187,1.0,5.820766e-11,0.0,3.0338764e-05,1
113400000,113400000,0.27103648,-0.045664907,-0.020418417,-0.9612684,1.0,5.820766e-11,0.0,3.0338764e-05,1
113500000,113500000,0.2719813,-0.036950417,-0.017741753,-0.9614292,1.0,5.820766e-11,0.0,3.0338764e-05,1
113600000,113600000,0.27280623,-0.029462809,-0.015288951,-0.9614963,1.0,5.820766e-11,0.0,3.0338764e-05,1
113700000,113700000,0.27345118,-0.023093745,-0.013103422,-0.96151936,1.0,5.820766e-11,0.0,3.0338764e-05,1
113800000,113800000,0.2739783,-0.01778434,-0.011133229,-0.96150696,1.0,5.820766e-11,0.0,3.0338764e-05,1
113900000,113900000,0.27406895,-0.032207854,-0.014667346,-0.9610587,1.0,5.820766e-11,0.0,3.0338764e-05,1
114000000,114000000,0.2728528,-0.091609895,-0.03156429,-0.95716393,1.0,5.820766e-11,0.0,3.0338764e-05,1
114100000,114100000,0.27202708,-0.10900952,-0.037448596,-0.95536166,1.0,5.820766e-11,0.0,3.0338764e-05,1
114200000,114200000,0.27309895,-0.08189722,-0.030662585,-0.9580029,1.0,5.820766e-11,0.0,3.0338764e-05,1
114300000,114300000,0.2739601,-0.0676687,-0.027018134,-0.958977,1.0,5.820766e-11,0.0,3.0338764e-05,1
114404000,114404000,0.27496406,-0.05587424,-0.023808321,-0.9595343,1.0,5.820766e-11,0.0,3.0338764e-05,1
114500000,114500000,0.27596706,-0.04547471,-0.020748274,-0.9598665,1.0,5.820766e-11,0.0,3.0338764e-05,1
114600000,114600000,0.27704072,-0.036390767,-0.01785352,-0.96000284,1.0,5.820766e-11,0.0,3.0338764e-05,1
114700000,114700000,0.2778088,-0.028623477,-0.015237341,-0.96008897,1.0,5.820766e-11,0.0,3.0338764e-05,1
114800000,114800000,0.27847242,-0.022019967,-0.01281236,-0.9601063,1.0,5.820766e-11,0.0,3.0338764e-05,1
114900000,114900000,0.27892256,-0.016426671,-0.010644536,-0.9601141,1.0,5.820766e-11,0.0,3.0338764e-05,1
115000000,115000000,0.2792327,-0.011823739,-0.008673773,-0.9601115,1.0,5.820766e-11,0.0,3.0338764e-05,1
115100000,115100000,0.27945307,-0.0087604355,-0.0072420724,-0.9600922,1.0,5.820766e-11,0.0,3.0338764e-05,1
115200000,115200000,0.27900854,-0.055667087,-0.020438615,-0.9584559,1.0,5.820766e-11,0.0,3.0338764e-05,1
115300000,115300000,0.2773677,-0.10737297,-0.036019396,-0.9540654,1.0,5.820766e-11,0.0,3.0338764e-05,1
115400000,115400000,0.2780241,-0.087352075,-0.031460345,-0.9560767,1.0,5.820766e-11,0.0,3.0338764e-05,1
115504000,115504000,0.27896678,-0.068676256,-0.026771424,-0.9574678,1.0,5.820766e-11,0.0,3.0338764e-05,1
115600000,115600000,0.27983525,-0.057049803,-0.023608422,-0.9580606,1.0,5.820766e-11,0.0,3.0338764e-05,1
115704000,115704000,0.28090012,-0.04586336,-0.02036221,-0.95842427,1.0,5.820766e-11,0.0,3.0338764e-05,1
115800000,115800000,0.281847,-0.037113603,-0.017633876,-0.9585792,1.0,5.820766e-11,0.0,3.0338764e-05,1
115900000,115900000,0.2827332,-0.02924263,-0.015073724,-0.95863426,1.0,5.820766e-11,0.0,3.0338764e-05,1
116000000,116000000,0.2833715,-0.022635192,-0.012719586,-0.95865875,1.0,5.820766e-11,0.0,3.0338764e-05,1
116100000,116100000,0.2837265,-0.016974129,-0.010610928,-0.9586963,1.0,5.820766e-11,0.0,3.0338764e-05,1
116200000,116200000,0.28396106,-0.01228974,-0.008785063,-0.9587168,1.0,5.820766e-11,0.0,3.0338764e-05,1
116300000,116300000,0.284274,-0.008407049,-0.0071150577,-0.9586798,1.0,5.820766e-11,0.0,3.0338764e-05,1
116404000,116404000,0.28458306,-0.013756212,-0.008049198,-0.95851886,1.0,5.820766e-11,0.0,3.0338764e-05,1
116504000,116504000,0.28388882,-0.070170894,-0.024612557,-0.95596933,1.0,5.820766e-11,0.0,3.0338764e-05,1
116604000,116604000,0.28258842,-0.107877865,-0.03670317,-0.952449,1.0,5.820766e-11,0.0,3.0338764e-05,1
116700000,116700000,0.28347477,-0.08227668,-0.030231213,-0.9549653,1.0,5.820766e-11,0.0,3.0338764e-05,1
116800000,116800000,0.28430527,-0.06654733,-0.026122538,-0.95606464,1.0,5.820766e-11,0.0,3.0338764e-05,1
116900000,116900000,0.28512168,-0.055020053,-0.023006273,-0.95663434,1.0,5.820766e-11,0.0,3.0338764e-05,1
117000000,117000000,0.2861915,-0.04462038,-0.019916318,-0.95692575,1.0,5.820766e-11,0.0,3.0338764e-05,1
117100000,117100000,0.28708383,-0.035808127,-0.017206464,-0.9570814,1.0,5.820766e-11,0.0,3.0338764e-05,1
117200000,117200000,0.28788522,-0.028331062,-0.01473823,-0.95713234,1.0,5.820766e-11,0.0,3.0338764e-05,1
117300000,117300000,0.28852406,-0.021919364,-0.012385804,-0.9571416,1.0,5.820766e-11,0.0,3.0338764e-05,1
117400000,117400000,0.2889416,-0.016545216,-0.010303661,-0.9571483,1.0,5.820766e-11,0.0,3.0338764e-05,1
117500000,117500000,0.28930303,-0.012107563,-0.008542564,-0.9571229,1.0,5.820766e-11,0.0,3.0338764e-05,1
117600000,117600000,0.2895414,-0.0084320875,-0.006888437,-0.9571036,1.0,5.820766e-11,0.0,3.0338764e-05,1
117700000,117700000,0.28976285,-0.0054125283,-0.0055236146,-0.95706725,1.0,5.820766e-11,0.0,3.0338764e-05,1
117800000,117800000,0.29014683,-0.003010131,-0.004304402,-0.9569678,1.0,5.820766e-11,0.0,3.0338764e-05,1
117900000,117900000,0.29046136,-0.0011847793,-0.0032731357,-0.9568804,1.0,5.820766e-11,0.0,3.0338764e-05,1
118000000,118000000,0.29077885,0.0002340101,-0.0024267219,-0.95678717,1.0,5.820766e-11,0.0,3.0338764e-05,1
118100000,118100000,0.29106542,0.0012000581,-0.0017299944,-0.95670086,1.0,5.820766e-11,0.0,3.0338764e-05,1
118200000,118200000,0.29131162,0.00181578,-0.001154802,-0.9566258,1.0,5.820766e-11,0.0,3.0338764e-05,1
118300000,118300000,0.29145792,0.0020850918,-0.0008013935,-0.9565811,1.0,5.820766e-11,0.0,3.0338764e-05,1
118400000,118400000,0.2916137,0.002179777,-0.00047994658,-0.9565336,1.0,5.820766e-11,0.0,3.0338764e-05,1
118500000,118500000,0.29167715,0.0020361834,-0.00024082977,-0.9565147,1.0,5.820766e-11,0.0,3.0338764e-05,1
118600000,118600000,0.2916548,0.0017662279,-5.1181945e-05,-0.95652205,1.0,5.820766e-11,0.0,3.0338764e-05,1
118700000,118700000,0.29172996,0.0013254435,-5.1191877e-05,-0.9564999,1.0,5.820766e-11,0.0,3.0338764e-05,1
118800000,118800000,0.29179522,0.0007817034,-6.564818e-05,-0.9564805,1.0,5.820766e-11,0.0,3.0338764e-05,1
118900000,118900000,0.29190516,0.00014653828,-0.00018122706,-0.95644724,1.0,5.820766e-11,0.0,3.0338764e-05,1
119000000,119000000,0.29198557,-0.0005840073,-0.0003417752,-0.9564225,1.0,5.820766e-11,0.0,3.0338764e-05,1
119100000,119100000,0.2920443,-0.0013670416,-0.0005756463,-0.95640373,1.0,5.820766e-11,0.0,3.0338764e-05,1
119200000,119200000,0.29204896,-0.002160448,-0.00073075865,-0.95640063,1.0,5.820766e-11,0.0,3.0338764e-05,1
119304000,119304000,0.29206958,-0.0029715148,-0.0009873076,-0.95639193,1.0,5.820766e-11,0.0,3.0338764e-05,1
119400000,119400000,0.29210585,-0.0038138537,-0.0012183718,-0.9563776,1.0,5.820766e-11,0.0,3.0338764e-05,1
119500000,119500000,0.29183623,-0.04582403,-0.014147239,-0.9552653,1.0,5.820766e-11,0.0,3.0338764e-05,1
119600000,119600000,0.28991207,-0.10397844,-0.032940034,-0.95081776,1.0,5.820766e-11,0.0,3.0338764e-05,1
119700000,119700000,0.2893028,-0.10018837,-0.033628955,-0.95138603,1.0,5.820766e-11,0.0,3.0338764e-05,1
119800000,119800000,0.28991705,-0.08022276,-0.028917698,-0.9532451,1.0,5.820766e-11,0.0,3.0338764e-05,1
119900000,119900000,0.29046768,-0.07402626,-0.027970802,-0.953607,1.0,5.820766e-11,0.0,3.0338764e-05,1
120004000,120004000,0.2914556,-0.07033874,-0.027419342,-0.9536007,1.0,5.820766e-11,0.0,3.0338764e-05,1
120100000,120100000,0.29267517,-0.064996704,-0.02614736,-0.9536421,1.0,5.820766e-11,0.0,3.0338764e-05,1
120200000,120200000,0.29390213,-0.058735646,-0.024600359,-0.95371205,1.0,5.820766e-11,0.0,3.0338764e-05,1
120300000,120300000,0.29488647,-0.05259142,-0.022866718,-0.9538099,1.0,5.820766e-11,0.0,3.0338764e-05,1
120400000,120400000,0.2952114,-0.06546306,-0.026977668,-0.95280486,1.0,5.820766e-11,0.0,3.0338764e-05,1
120500000,120500000,0.29329535,-0.12606181,-0.046212263,-0.9465467,1.0,5.820766e-11,0.0,3.0338764e-05,1
120600000,120600000,0.29176408,-0.14775546,-0.05439857,-0.9434421,1.0,5.820766e-11,0.0,3.0338764e-05,1
120700000,120700000,0.2934346,-0.118607044,-0.04685214,-0.94743526,1.0,5.820766e-11,0.0,3.0338764e-05,1
120800000,120800000,0.29471716,-0.1040244,-0.0430323,-0.94893044,1.0,5.820766e-11,0.0,3.0338764e-05,1
120900000,120900000,0.2960009,-0.095877714,-0.04085252,-0.9494851,1.0,5.820766e-11,0.0,3.0338764e-05,1
121000000,121000000,0.2977315,-0.08554412,-0.037852135,-0.9500555,1.0,5.820766e-11,0.0,3.0338764e-05,1
121100000,121100000,0.29906294,-0.084131576,-0.037456714,-0.94977903,1.0,5.820766e-11,0.0,3.0338764e-05,1
121200000,121200000,0.29736033,-0.14152616,-0.055698097,-0.94257355,1.0,5.820766e-11,0.0,3.0338764e-05,1
121300000,121300000,0.2955965,-0.17291476,-0.06678143,-0.93715715,1.0,5.820766e-11,0.0,3.0338764e-05,1
121400000,121400000,0.2983971,-0.13818793,-0.057074063,-0.94265896,1.0,5.820766e-11,0.0,3.0338764e-05,1
121504000,121504000,0.3003179,-0.116687424,-0.05086785,-0.9453072,1.0,5.820766e-11,0.0,3.0338764e-05,1
121600000,121600000,0.30185565,-0.10399475,-0.047102083,-0.9464933,1.0,5.820766e-11,0.0,3.0338764e-05,1
121700000,121700000,0.30381307,-0.08839103,-0.04197373,-0.94769347,1.0,5.820766e-11,0.0,3.0338764e-05,1
121800000,121800000,0.305809,-0.07198193,-0.03642175,-0.948669,1.0,5.820766e-11,0.0,3.0338764e-05,1
121900000,121900000,0.30730113,-0.056701813,-0.030978037,-0.94941634,1.0,5.820766e-11,0.0,3.0338764e-05,1
122000000,122000000,0.30859438,-0.044006646,-0.02618507,-0.9498144,1.0,5.820766e-11,0.0,3.0338764e-05,1
122100000,122100000,0.30959472,-0.03326395,-0.021845825,-0.95003545,1.0,5.820766e-11,0.0,3.0338764e-05,1
122200000,122200000,0.31037483,-0.024137324,-0.01792719,-0.9501386,1.0,5.820766e-11,0.0,3.0338764e-05,1
122300000,122300000,0.31102517,-0.016432976,-0.014478476,-0.95014936,1.0,5.820766e-11,0.0,3.0338764e-05,1
122400000,122400000,0.3115858,-0.010106408,-0.01142337,-0.9500956,1.0,5.820766e-11,0.0,3.0338764e-05,1
122504000,122504000,0.31229293,-0.0047418154,-0.008689424,-0.9499343,1.0,5.820766e-11,0.0,3.0338764e-05,1
122600000,122600000,0.31282312,-0.0006905992,-0.006478938,-0.9497891,1.0,5.820766e-11,0.0,3.0338764e-05,1
122700000,122700000,0.3133214,0.0027387768,-0.004476949,-0.9496327,1.0,5.820766e-11,0.0,3.0338764e-05,1
122804000,122804000,0.31382158,0.005381135,-0.0027045058,-0.94946295,1.0,5.820766e-11,0.0,3.0338764e-05,1
122900000,122900000,0.31420162,0.0072454815,-0.0014635806,-0.94932747,1.0,5.820766e-11,0.0,3.0338764e-05,1
123000000,123000000,0.314494,0.008702126,-0.00029731056,-0.9492195,1.0,5.820766e-11,0.0,3.0338764e-05,1
123100000,123100000,0.31471285,0.009595336,0.000639663,-0.9491383,1.0,5.820766e-11,0.0,3.0338764e-05,1
123200000,123200000,0.31499884,0.010156929,0.0013901736,-0.9490367,1.0,5.820766e-11,0.0,3.0338764e-05,1
123304000,123304000,0.31524298,0.010277505,0.0019033967,-0.94895345,1.0,5.820766e-11,0.0,3.0338764e-05,1
123400000,123400000,0.31546146,0.010172508,0.0022800823,-0.94888115,1.0,5.820766e-11,0.0,3.0338764e-05,1
123500000,123500000,0.3155522,0.00974186,0.002501874,-0.9488549,1.0,5.820766e-11,0.0,3.0338764e-05,1
123600000,123600000,0.31567356,0.009154318,0.0026378564,-0.94882005,1.0,5.820766e-11,0.0,3.0338764e-05,1
123700000,123700000,0.31575826,0.008324886,0.002657459,-0.94879943,1.0,5.820766e-11,0.0,3.0338764e-05,1
123800000,123800000,0.31592458,0.0074252826,0.0025455446,-0.94875187,1.0,5.820766e-11,0.0,3.0338764e-05,1
123900000,123900000,0.31595898,0.0064038746,0.0023629174,-0.94874835,1.0,5.820766e-11,0.0,3.0338764e-05,1
124000000,124000000,0.31591898,0.005272273,0.0020971177,-0.9487692,1.0,5.820766e-11,0.0,3.0338764e-05,1
124100000,124100000,0.31590593,0.0040377523,0.0018569129,-0.9487802,1.0,5.820766e-11,0.0,3.0338764e-05,1
124200000,124200000,0.31596756,0.0028195186,0.0015194685,-0.9487646,1.0,5.820766e-11,0.0,3.0338764e-05,1
124300000,124300000,0.315979,0.0016821151,0.0011031177,-0.9487641,1.0,5.820766e-11,0.0,3.0338764e-05,1
124400000,124400000,0.31607723,0.00043375173,0.00081284996,-0.94873303,1.0,5.820766e-11,0.0,3.0338764e-05,1
124500000,124500000,0.31615284,-0.0007574021,0.0003763627,-0.9487079,1.0,5.820766e-11,0.0,3.0338764e-05,1
124600000,124600000,0.31616473,-0.0018482604,-0.00010184735,-0.9487026,1.0,5.820766e-11,0.0,3.0338764e-05,1
124700000,124700000,0.31624076,-0.0029953846,-0.0005514531,-0.9486741,1.0,5.820766e-11,0.0,3.0338764e-05,1
124800000,124800000,0.31633154,-0.0040110527,-0.001000955,-0.94863975,1.0,5.820766e-11,0.0,3.0338764e-05,1
124900000,124900000,0.31626895,-0.00502466,-0.0013417179,-0.94865537,1.0,5.820766e-11,0.0,3.0338764e-05,1
125000000,125000000,0.31636626,-0.005983755,-0.0017847045,-0.94861656,1.0,5.820766e-11,0.0,3.0338764e-05,1
125100000,125100000,0.31628087,-0.006785715,-0.002175128,-0.94863886,1.0,5.820766e-11,0.0,3.0338764e-05,1
125200000,125200000,0.31633112,-0.007607992,-0.0025443737,-0.94861495,1.0,5.820766e-11,0.0,3.0338764e-05,1
125300000,125300000,0.31638905,-0.008414694,-0.002857544,-0.94858795,1.0,5.820766e-11,0.0,3.0338764e-05,1
125404000,125404000,0.31650415,-0.009123504,-0.0032403446,-0.9485418,1.0,5.820766e-11,0.0,3.0338764e-05,1
125504000,125504000,0.31653944,-0.00971575,-0.0035867908,-0.9485228,1.0,5.820766e-11,0.0,3.0338764e-05,1
125600000,125600000,0.3166498,-0.010248168,-0.0038730663,-0.9484793,1.0,5.820766e-11,0.0,3.0338764e-05,1
125700000,125700000,0.31679896,-0.0107398145,-0.004197589,-0.9484226,1.0,5.820766e-11,0.0,3.0338764e-05,1
125800000,125800000,0.31691724,-0.0112518035,-0.004438685,-0.94837606,1.0,5.820766e-11,0.0,3.0338764e-05,1
125900000,125900000,0.3170165,-0.011635616,-0.0047062472,-0.94833696,1.0,5.820766e-11,0.0,3.0338764e-05,1
126000000,126000000,0.3171576,-0.012029067,-0.004906273,-0.948284,1.0,5.820766e-11,0.0,3.0338764e-05,1
126104000,126104000,0.3172032,-0.012436959,-0.005090039,-0.9482624,1.0,5.820766e-11,0.0,3.0338764e-05,1
126200000,126200000,0.31727576,-0.012795985,-0.005391092,-0.9482317,1.0,5.820766e-11,0.0,3.0338764e-05,1
126300000,126300000,0.31742483,-0.013178867,-0.005645608,-0.9481751,1.0,5.820766e-11,0.0,3.0338764e-05,1
126400000,126400000,0.31753734,-0.013484334,-0.005805636,-0.94813216,1.0,5.820766e-11,0.0,3.0338764e-05,1
126500000,126500000,0.3176759,-0.013892442,-0.006031928,-0.94807845,1.0,5.820766e-11,0.0,3.0338764e-05,1
126600000,126600000,0.31787303,-0.0142923305,-0.0062467824,-0.948005,1.0,5.820766e-11,0.0,3.0338764e-05,1
126700000,126700000,0.3180842,-0.0146297505,-0.006425,-0.94792783,1.0,5.820766e-11,0.0,3.0338764e-05,1
126800000,126800000,0.3183089,-0.014971546,-0.0065968647,-0.9478459,1.0,5.820766e-11,0.0,3.0338764e-05,1
126904000,126904000,0.31845242,-0.015298518,-0.006757244,-0.9477914,1.0,5.820766e-11,0.0,3.0338764e-05,1
127000000,127000000,0.31864133,-0.015701963,-0.0069302786,-0.94772005,1.0,5.820766e-11,0.0,3.0338764e-05,1
127104000,127104000,0.31886467,-0.016044976,-0.0071125226,-0.94763774,1.0,5.820766e-11,0.0,3.0338764e-05,1
127200000,127200000,0.31901726,-0.01634334,-0.0072280783,-0.9475804,1.0,5.820766e-11,0.0,3.0338764e-05,1
127300000,127300000,0.3191683,-0.016765278,-0.0074252333,-0.9475206,1.0,5.820766e-11,0.0,3.0338764e-05,1
127400000,127400000,0.31940472,-0.01710857,-0.007655561,-0.9474331,1.0,5.820766e-11,0.0,3.0338764e-05,1
127500000,127500000,0.31965244,-0.01869611,-0.008263112,-0.94731444,1.0,5.820766e-11,0.0,3.0338764e-05,1
127600000,127600000,0.31912136,-0.06717715,-0.024788612,-0.94500494,1.0,5.820766e-11,0.0,3.0338764e-05,1
127704000,127704000,0.31666812,-0.12637337,-0.0460281,-0.9389529,1.0,5.820766e-11,0.0,3.0338764e-05,1
127800000,127800000,0.31649956,-0.120843366,-0.04610939,-0.9397334,1.0,5.820766e-11,0.0,3.0338764e-05,1
127900000,127900000,0.31740448,-0.102585465,-0.041540343,-0.94180954,1.0,5.820766e-11,0.0,3.0338764e-05,1
128004000,128004000,0.31823003,-0.097468965,-0.04081964,-0.94210577,1.0,5.820766e-11,0.0,3.0338764e-05,1
128100000,128100000,0.31931055,-0.095139,-0.040704526,-0.9419833,1.0,5.820766e-11,0.0,3.0338764e-05,1
128200000,128200000,0.3207687,-0.09037892,-0.03974977,-0.94199747,1.0,5.820766e-11,0.0,3.0338764e-05,1
128300000,128300000,0.32126704,-0.10766153,-0.04610812,-0.93971837,1.0,5.820766e-11,0.0,3.0338764e-05,1
128400000,128400000,0.31883234,-0.16716883,-0.06723192,-0.93052703,1.0,5.820766e-11,0.0,3.0338764e-05,1
128500000,128500000,0.317477,-0.18682405,-0.075797334,-0.92658514,1.0,5.820766e-11,0.0,3.0338764e-05,1
128604000,128604000,0.32053095,-0.15582176,-0.06687684,-0.9319373,1.0,5.820766e-11,0.0,3.0338764e-05,1
128700000,128700000,0.32251763,-0.14106555,-0.062682346,-0.9338918,1.0,5.820766e-11,0.0,3.0338764e-05,1
128800000,128800000,0.3243721,-0.13112812,-0.059892435,-0.9348802,1.0,5.820766e-11,0.0,3.0338764e-05,1
128900000,128900000,0.32642302,-0.11867748,-0.055921208,-0.93607515,1.0,5.820766e-11,0.0,3.0338764e-05,1
129000000,129000000,0.3265606,-0.13808568,-0.06284741,-0.9329205,1.0,5.820766e-11,0.0,3.0338764e-05,1
129100000,129100000,0.3232039,-0.19532207,-0.08353237,-0.9221773,1.0,5.820766e-11,0.0,3.0338764e-05,1
129200000,129200000,0.32347718,-0.19790468,-0.08590941,-0.92131203,1.0,5.820766e-11,0.0,3.0338764e-05,1
129304000,129304000,0.327751,-0.1595686,-0.07353646,-0.92828315,1.0,5.820766e-11,0.0,3.0338764e-05,1
129404000,129404000,0.3303024,-0.14090735,-0.06743769,-0.9308586,1.0,5.820766e-11,0.0,3.0338764e-05,1
129500000,129500000,0.3327822,-0.124029994,-0.06145715,-0.9327891,1.0,5.820766e-11,0.0,3.0338764e-05,1
129600000,129600000,0.33523065,-0.10415454,-0.05423019,-0.9347895,1.0,5.820766e-11,0.0,3.0338764e-05,1
129700000,129700000,0.33749303,-0.08423494,-0.046663664,-0.9363896,1.0,5.820766e-11,0.0,3.0338764e-05,1
129804000,129804000,0.3394736,-0.06468638,-0.038883734,-0.9375828,1.0,5.820766e-11,0.0,3.0338764e-05,1
129900000,129900000,0.3409414,-0.04964797,-0.032578,-0.93820727,1.0,5.820766e-11,0.0,3.0338764e-05,1
130000000,130000000,0.34207332,-0.036428522,-0.02655627,-0.93859136,1.0,5.820766e-11,0.0,3.0338764e-05,1
130100000,130100000,0.3430037,-0.02528248,-0.021356218,-0.9387509,1.0,5.820766e-11,0.0,3.0338764e-05,1
130200000,130200000,0.34382954,-0.015998807,-0.016658125,-0.938748,1.0,5.820766e-11,0.0,3.0338764e-05,1
130300000,130300000,0.3446665,-0.008357585,-0.012643725,-0.93860286,1.0,5.820766e-11,0.0,3.0338764e-05,1
130400000,130400000,0.34540614,-0.0020628346,-0.009137259,-0.9384066,1.0,5.820766e-11,0.0,3.0338764e-05,1
130504000,130504000,0.3460698,0.0031304595,-0.00606296,-0.938184,1.0,5.820766e-11,0.0,3.0338764e-05,1
130600000,130600000,0.34660015,0.0069831926,-0.0036341867,-0.93797994,1.0,5.820766e-11,0.0,3.0338764e-05,1
130700000,130700000,0.34717414,0.010085092,-0.0014766351,-0.9377453,1.0,5.820766e-11,0.0,3.0338764e-05,1
130800000,130800000,0.34753838,0.012420301,0.00043189613,-0.9375834,1.0,5.820766e-11,0.0,3.0338764e-05,1
130900000,130900000,0.34786958,0.014119979,0.0018688386,-0.93743473,1.0,5.820766e-11,0.0,3.0338764e-05,1
131000000,131000000,0.3482277,0.015266616,0.0030759447,-0.93728065,1.0,5.820766e-11,0.0,3.0338764e-05,1
131100000,131100000,0.3484067,0.015909307,0.003966321,-0.93720007,1.0,5.820766e-11,0.0,3.0338764e-05,1
131204000,131204000,0.34869936,0.01605659,0.0046410672,-0.93708557,1.0,5.820766e-11,0.0,3.0338764e-05,1
131300000,131300000,0.34891552,0.015883127,0.0050834855,-0.9370059,1.0,5.820766e-11,0.0,3.0338764e-05,1
131400000,131400000,0.34913927,0.015467908,0.005356631,-0.9369279,1.0,5.820766e-11,0.0,3.0338764e-05,1
131500000,131500000,0.3492217,0.014872652,0.0055110524,-0.936906,1.0,5.820766e-11,0.0,3.0338764e-05,1
131600000,131600000,0.34941107,0.013999257,0.005571494,-0.9368484,1.0,5.820766e-11,0.0,3.0338764e-05,1
131700000,131700000,0.34945613,0.0130211925,0.005432919,-0.93684655,1.0,5.820766e-11,0.0,3.0338764e-05,1
131800000,131800000,0.34965873,-0.010337649,-0.003050359,-0.9368152,1.0,5.820766e-11,0.0,3.0338764e-05,1
131900000,131900000,0.34883982,-0.06562707,-0.024139987,-0.9345701,1.0,5.820766e-11,0.0,3.0338764e-05,1
132000000,132000000,0.3480967,-0.075199865,-0.029098619,-0.93398446,1.0,5.820766e-11,0.0,3.0338764e-05,1
132100000,132100000,0.34868416,-0.056418877,-0.023324769,-0.9352499,1.0,5.820766e-11,0.0,3.0338764e-05,1
132200000,132200000,0.34924474,-0.046878994,-0.020540394,-0.93563277,1.0,5.820766e-11,0.0,3.0338764e-05,1
132304000,132304000,0.35013473,-0.038904417,-0.018005572,-0.9357179,1.0,5.820766e-11,0.0,3.0338764e-05,1
132400000,132400000,0.35092857,-0.032564018,-0.015895287,-0.93570095,1.0,5.820766e-11,0.0,3.0338764e-05,1
132500000,132500000,0.3517708,-0.026868198,-0.013858904,-0.93559784,1.0,5.820766e-11,0.0,3.0338764e-05,1
132604000,132604000,0.35241044,-0.022517545,-0.012295032,-0.93549377,1.0,5.820766e-11,0.0,3.0338764e-05,1
132700000,132700000,0.35169923,-0.0657557,-0.028615179,-0.9333623,1.0,5.820766e-11,0.0,3.0338764e-05,1
132804000,132804000,0.34918633,-0.11920681,-0.0497027,-0.92811006,1.0,5.820766e-11,0.0,3.0338764e-05,1
132900000,132900000,0.34980932,-0.10147928,-0.044538736,-0.9302428,1.0,5.820766e-11,0.0,3.0338764e-05,1
133004000,133004000,0.35102755,-0.08044731,-0.03772273,-0.93213993,1.0,5.820766e-11,0.0,3.0338764e-05,1
133104000,133104000,0.35223445,-0.067765765,-0.03341753,-0.93285686,1.0,5.820766e-11,0.0,3.0338764e-05,1
133200000,133200000,0.35368946,-0.05628242,-0.029244829,-0.93321,1.0,5.820766e-11,0.0,3.0338764e-05,1
133300000,133300000,0.35510653,-0.045812447,-0.025259798,-0.9333609,1.0,5.820766e-11,0.0,3.0338764e-05,1
133400000,133400000,0.35634583,-0.0371175,-0.021777233,-0.9333626,1.0,5.820766e-11,0.0,3.0338764e-05,1
133500000,133500000,0.35560688,-0.08111344,-0.03845282,-0.9303149,1.0,5.820766e-11,0.0,3.0338764e-05,1
133600000,133600000,0.35306892,-0.13275833,-0.058906075,-0.92425525,1.0,5.820766e-11,0.0,3.0338764e-05,1
133700000,133700000,0.35430807,-0.11221454,-0.052344564,-0.9268947,1.0,5.820766e-11,0.0,3.0338764e-05,1
133800000,133800000,0.35598317,-0.08908832,-0.04438161,-0.92917687,1.0,5.820766e-11,0.0,3.0338764e-05,1
133900000,133900000,0.35737926,-0.074361764,-0.038977455,-0.930178,1.0,5.820766e-11,0.0,3.0338764e-05,1
134000000,134000000,0.35902143,-0.05998013,-0.03341837,-0.9308003,1.0,5.820766e-11,0.0,3.0338764e-05,1
134100000,134100000,0.3604734,-0.047365498,-0.028325468,-0.9311354,1.0,5.820766e-11,0.0,3.0338764e-05,1
134200000,134200000,0.36183384,-0.036692455,-0.02376793,-0.93121696,1.0,5.820766e-11,0.0,3.0338764e-05,1
134300000,134300000,0.36227158,-0.05078791,-0.028689701,-0.9302456,1.0,5.820766e-11,0.0,3.0338764e-05,1
134400000,134400000,0.3604171,-0.108063616,-0.050900545,-0.9251113,1.0,5.820766e-11,0.0,3.0338764e-05,1
134500000,134500000,0.359993,-0.117632486,-0.055644255,-0.92383516,1.0,5.820766e-11,0.0,3.0338764e-05,1
134600000,134600000,0.361927,-0.0877954,-0.04476667,-0.9269827,1.0,5.820766e-11,0.0,3.0338764e-05,1
134700000,134700000,0.36329633,-0.06971849,-0.03796232,-0.9282855,1.0,5.820766e-11,0.0,3.0338764e-05,1
134800000,134800000,0.36470017,-0.05477328,-0.03195566,-0.9289632,1.0,5.820766e-11,0.0,3.0338764e-05,1
134900000,134900000,0.36606574,-0.04213474,-0.026649563,-0.9292527,1.0,5.820766e-11,0.0,3.0338764e-05,1
135000000,135000000,0.36735576,-0.031432655,-0.021831872,-0.9292928,1.0,5.820766e-11,0.0,3.0338764e-05,1
135100000,135100000,0.3673505,-0.061882947,-0.03321626,-0.927427,1.0,5.820766e-11,0.0,3.0338764e-05,1
135200000,135200000,0.3653506,-0.11570392,-0.054839358,-0.9220218,1.0,5.820766e-11,0.0,3.0338764e-05,1
135300000,135300000,0.366051,-0.10563079,-0.051892404,-0.923123,1.0,5.820766e-11,0.0,3.0338764e-05,1
135400000,135400000,0.3677526,-0.080230445,-0.042423528,-0.9254844,1.0,5.820766e-11,0.0,3.0338764e-05,1
135500000,135500000,0.36916944,-0.0628157,-0.035570513,-0.9265543,1.0,5.820766e-11,0.0,3.0338764e-05,1
135600000,135600000,0.37060872,-0.0483213,-0.029560525,-0.92706007,1.0,5.820766e-11,0.0,3.0338764e-05,1
135700000,135700000,0.3714495,-0.05345933,-0.031134523,-0.9263898,1.0,5.820766e-11,0.0,3.0338764e-05,1
135800000,135800000,0.36972386,-0.110392615,-0.053860545,-0.92098695,1.0,5.820766e-11,0.0,3.0338764e-05,1
135900000,135900000,0.36906916,-0.1265621,-0.061339397,-0.9186988,1.0,5.820766e-11,0.0,3.0338764e-05,1
136004000,136004000,0.37160516,-0.09238368,-0.04848055,-0.92250997,1.0,5.820766e-11,0.0,3.0338764e-05,1
136100000,136100000,0.3731573,-0.07280627,-0.040681113,-0.9240119,1.0,5.820766e-11,0.0,3.0338764e-05,1
136204000,136204000,0.37472907,-0.055451944,-0.03346324,-0.9248694,1.0,5.820766e-11,0.0,3.0338764e-05,1
136300000,136300000,0.37604812,-0.041958507,-0.027428873,-0.9252432,1.0,5.820766e-11,0.0,3.0338764e-05,1
136400000,136400000,0.37560332,-0.07815892,-0.041609388,-0.9225411,1.0,5.820766e-11,0.0,3.0338764e-05,1
136504000,136504000,0.37321556,-0.13040356,-0.063265406,-0.9163529,1.0,5.820766e-11,0.0,3.0338764e-05,1
136600000,136600000,0.37498534,-0.10757282,-0.05509526,-0.91911834,1.0,5.820766e-11,0.0,3.0338764e-05,1
136700000,136700000,0.37714687,-0.08014203,-0.044411417,-0.9216101,1.0,5.820766e-11,0.0,3.0338764e-05,1
136800000,136800000,0.37882188,-0.05891262,-0.035590596,-0.9229067,1.0,5.820766e-11,0.0,3.0338764e-05,1
136900000,136900000,0.38035178,-0.040840678,-0.027714984,-0.92352396,1.0,5.820766e-11,0.0,3.0338764e-05,1
137000000,137000000,0.38157776,-0.027300106,-0.021366974,-0.92368644,1.0,5.820766e-11,0.0,3.0338764e-05,1
137100000,137100000,0.3807965,-0.07639787,-0.04097771,-0.9205858,1.0,5.820766e-11,0.0,3.0338764e-05,1
137204000,137204000,0.37900576,-0.11941942,-0.059325747,-0.9157369,1.0,5.820766e-11,0.0,3.0338764e-05,1
137300000,137300000,0.3813765,-0.084943056,-0.045809105,-0.91936845,1.0,5.820766e-11,0.0,3.0338764e-05,1
137400000,137400000,0.3829319,-0.058946393,-0.035224684,-0.9212209,1.0,5.820766e-11,0.0,3.0338764e-05,1
137500000,137500000,0.3842851,-0.03782314,-0.026021212,-0.92207235,1.0,5.820766e-11,0.0,3.0338764e-05,1
137600000,137600000,0.38545948,-0.019332321,-0.01746716,-0.9223569,1.0,5.820766e-11,0.0,3.0338764e-05,1
137700000,137700000,0.3864466,-0.003906892,-0.010035985,-0.9222489,1.0,5.820766e-11,0.0,3.0338764e-05,1
137800000,137800000,0.38723853,0.008707142,-0.0035297556,-0.92193174,1.0,5.820766e-11,0.0,3.0338764e-05,1
137900000,137900000,0.38786533,0.018891033,0.0020731222,-0.9215201,1.0,5.820766e-11,0.0,3.0338764e-05,1
138000000,138000000,0.38826805,0.026851276,0.0066653644,-0.9211311,1.0,5.820766e-11,0.0,3.0338764e-05,1
138100000,138100000,0.3885349,0.032925963,0.0106062805,-0.92078453,1.0,5.820766e-11,0.0,3.0338764e-05,1
138200000,138200000,0.38862792,0.037370965,0.013720066,-0.92053443,1.0,5.820766e-11,0.0,3.0338764e-05,1
138300000,138300000,0.38886043,0.040371012,0.016126974,-0.92027056,1.0,5.820766e-11,0.0,3.0338764e-05,1
138400000,138400000,0.38910544,0.042079255,0.017822612,-0.920059,1.0,5.820766e-11,0.0,3.0338764e-05,1
138504000,138504000,0.38939777,0.04277032,0.019030455,-0.9198793,1.0,5.820766e-11,0.0,3.0338764e-05,1
138600000,138600000,0.38971987,0.04253893,0.019639736,-0.91974086,1.0,5.820766e-11,0.0,3.0338764e-05,1
138700000,138700000,0.389918,0.04148734,0.019941688,-0.9196984,1.0,5.820766e-11,0.0,3.0338764e-05,1
138800000,138800000,0.3900251,0.03975101,0.019781176,-0.9197331,1.0,5.820766e-11,0.0,3.0338764e-05,1
138900000,138900000,0.38996392,0.037466012,0.019330502,-0.9198646,1.0,5.820766e-11,0.0,3.0338764e-05,1
139000000,139000000,0.38995963,0.034791056,0.018583087,-0.9199869,1.0,5.820766e-11,0.0,3.0338764e-05,1
139100000,139100000,0.3899383,0.031878296,0.017624134,-0.9201203,1.0,5.820766e-11,0.0,3.0338764e-05,1
139200000,139200000,0.3899451,0.02875785,0.016462296,-0.9202417,1.0,5.820766e-11,0.0,3.0338764e-05,1
139300000,139300000,0.38992938,0.025547042,0.0151743665,-0.9203652,1.0,5.820766e-11,0.0,3.0338764e-05,1
139400000,139400000,0.38983512,0.022199536,0.013705447,-0.92051506,1.0,5.820766e-11,0.0,3.0338764e-05,1
139500000,139500000,0.3898098,0.01892661,0.0122526055,-0.9206193,1.0,5.820766e-11,0.0,3.0338764e-05,1
139600000,139600000,0.38983545,0.015694546,0.0107512325,-0.92068803,1.0,5.820766e-11,0.0,3.0338764e-05,1
139700000,139700000,0.3898415,0.012630794,0.009220829,-0.9207492,1.0,5.820766e-11,0.0,3.0338764e-05,1
139800000,139800000,0.38974234,0.009676705,0.007766913,-0.92084044,1.0,5.820766e-11,0.0,3.0338764e-05,1
139900000,139900000,0.38968125,0.006933808,0.006306799,-0.9209022,1.0,5.820766e-11,0.0,3.0338764e-05,1
140000000,140000000,0.38961047,0.0044734073,0.00496262,-0.92095554,1.0,5.820766e-11,0.0,3.0338764e-05,1
140100000,140100000,0.3895926,0.002123035,0.003692583,-0.9209775,1.0,5.820766e-11,0.0,3.0338764e-05,1
140200000,140200000,0.38954824,0.00016962284,0.0025674975,-0.92100257,1.0,5.820766e-11,0.0,3.0338764e-05,1
140300000,140300000,0.3895167,-0.00156198,0.0014494227,-0.9210169,1.0,5.820766e-11,0.0,3.0338764e-05,1
140400000,140400000,0.38958257,-0.0030228787,0.00057798874,-0.9209865,1.0,5.820766e-11,0.0,3.0338764e-05,1
140500000,140500000,0.38961312,-0.0042602792,-0.00023356779,-0.9209688,1.0,5.820766e-11,0.0,3.0338764e-05,1
140600000,140600000,0.38969103,-0.0052369954,-0.0009087204,-0.92093045,1.0,5.820766e-11,0.0,3.0338764e-05,1
140700000,140700000,0.38975018,-0.005914568,-0.0015017341,-0.9209004,1.0,5.820766e-11,0.0,3.0338764e-05,1
140800000,140800000,0.38989422,-0.006478444,-0.0020044404,-0.9208348,1.0,5.820766e-11,0.0,3.0338764e-05,1
140900000,140900000,0.39000934,-0.0068427008,-0.0024248094,-0.9207823,1.0,5.820766e-11,0.0,3.0338764e-05,1
141000000,141000000,0.39014938,-0.007014101,-0.0027433312,-0.9207209,1.0,5.820766e-11,0.0,3.0338764e-05,1
141100000,141100000,0.39028457,-0.00708654,-0.0029003532,-0.9206625,1.0,5.820766e-11,0.0,3.0338764e-05,1
141200000,141200000,0.39048216,-0.0070391498,-0.0030311735,-0.9205786,1.0,5.820766e-11,0.0,3.0338764e-05,1
141300000,141300000,0.39062923,-0.0068861386,-0.0031647037,-0.9205169,1.0,5.820766e-11,0.0,3.0338764e-05,1
141400000,141400000,0.39081323,-0.006636532,-0.0031090432,-0.92044085,1.0,5.820766e-11,0.0,3.0338764e-05,1
141500000,141500000,0.39090607,-0.006173098,-0.0030963405,-0.92040473,1.0,5.820766e-11,0.0,3.0338764e-05,1
141600000,141600000,0.39110756,-0.005751156,-0.0029882838,-0.92032224,1.0,5.820766e-11,0.0,3.0338764e-05,1
141700000,141700000,0.39135337,-0.005248746,-0.0028331506,-0.92022115,1.0,5.820766e-11,0.0,3.0338764e-05,1
141800000,141800000,0.39155763,-0.0047701155,-0.0026961558,-0.9201373,1.0,5.820766e-11,0.0,3.0338764e-05,1
141900000,141900000,0.39176425,-0.0041536605,-0.002495368,-0.9200528,1.0,5.820766e-11,0.0,3.0338764e-05,1
142000000,142000000,0.39200774,-0.003636416,-0.0022233827,-0.9199521,1.0,5.820766e-11,0.0,3.0338764e-05,1
142100000,142100000,0.39217526,-0.0030160348,-0.0020684998,-0.91988325,1.0,5.820766e-11,0.0,3.0338764e-05,1
142200000,142200000,0.39242414,-0.0024294816,-0.0016801519,-0.9197797,1.0,5.820766e-11,0.0,3.0338764e-05,1
142300000,142300000,0.39256665,-0.001955525,-0.0014558713,-0.9197204,1.0,5.820766e-11,0.0,3.0338764e-05,1
142400000,142400000,0.39276913,-0.0015726312,-0.0012727793,-0.91963494,1.0,5.820766e-11,0.0,3.0338764e-05,1
142504000,142504000,0.39296633,-0.0011246182,-0.0011062834,-0.9195515,1.0,5.820766e-11,0.0,3.0338764e-05,1
142600000,142600000,0.39315683,-0.0007741488,-0.0010053811,-0.91947055,1.0,5.820766e-11,0.0,3.0338764e-05,1
142700000,142700000,0.3932781,-0.00035036966,-0.0007888712,-0.9194191,1.0,5.820766e-11,0.0,3.0338764e-05,1
142800000,142800000,0.39361122,-0.00013274267,-0.0006393919,-0.9192768,1.0,5.820766e-11,0.0,3.0338764e-05,1
142900000,142900000,0.39387128,0.0001118159,-0.0005183363,-0.9191655,1.0,5.820766e-11,0.0,3.0338764e-05,1
143000000,143000000,0.39404935,0.0003381448,-0.0003505078,-0.9190892,1.0,5.820766e-11,0.0,3.0338764e-05,1
143100000,143100000,0.39425597,0.0005649579,-0.00029801426,-0.91900057,1.0,5.820766e-11,0.0,3.0338764e-05,1
143200000,143200000,0.39447075,0.00065599533,-0.00013105235,-0.9189083,1.0,5.820766e-11,0.0,3.0338764e-05,1
143300000,143300000,0.39470044,0.0007630866,-5.3337695e-05,-0.91880953,1.0,5.820766e-11,0.0,3.0338764e-05,1
143400000,143400000,0.39484143,0.00087600836,8.731447e-06,-0.91874886,1.0,5.820766e-11,0.0,3.0338764e-05,1
143500000,143500000,0.395068,0.0009716014,3.3101158e-05,-0.9186514,1.0,5.820766e-11,0.0,3.0338764e-05,1
143600000,143600000,0.39526677,0.001047075,0.0001101487,-0.91856575,1.0,5.820766e-11,0.0,3.0338764e-05,1
143700000,143700000,0.39543253,0.0010359604,0.00017034236,-0.9184944,1.0,5.820766e-11,0.0,3.0338764e-05,1
143800000,143800000,0.3955641,0.001164487,0.00022822706,-0.91843766,1.0,5.820766e-11,0.0,3.0338764e-05,1
143900000,143900000,0.39571056,0.0012237947,0.00024649454,-0.91837454,1.0,5.820766e-11,0.0,3.0338764e-05,1
144000000,144000000,0.39581656,0.0012258706,0.00028385562,-0.9183288,1.0,5.820766e-11,0.0,3.0338764e-05,1
144100000,144100000,0.39604908,0.0012517232,0.00033752364,-0.9182285,1.0,5.820766e-11,0.0,3.0338764e-05,1
144200000,144200000,0.3961764,0.001231935,0.00037479773,-0.91817355,1.0,5.820766e-11,0.0,3.0338764e-05,1
144300000,144300000,0.39624906,0.0012797087,0.00037695805,-0.91814214,1.0,5.820766e-11,0.0,3.0338764e-05,1
144400000,144400000,0.3964152,0.0012903649,0.00042520004,-0.91807044,1.0,5.820766e-11,0.0,3.0338764e-05,1
144500000,144500000,0.3967251,0.0013135191,0.00041350105,-0.9179365,1.0,5.820766e-11,0.0,3.0338764e-05,1
144600000,144600000,0.39692932,0.0013349503,0.00046851585,-0.9178481,1.0,5.820766e-11,0.0,3.0338764e-05,1
144700000,144700000,0.397113,0.0014737863,0.0004886249,-0.9177685,1.0,5.820766e-11,0.0,3.0338764e-05,1
144800000,144800000,0.39728588,0.0014547298,0.00046012134,-0.9176936,1.0,5.820766e-11,0.0,3.0338764e-05,1
144900000,144900000,0.39742154,0.0014215346,0.00050306995,-0.91763496,1.0,5.820766e-11,0.0,3.0338764e-05,1
145000000,145000000,0.3976152,0.0014628841,0.00061059336,-0.9175509,1.0,5.820766e-11,0.0,3.0338764e-05,1
