timestamp,noutputs,output[0],output[1],output[2],output[3],output[4],output[5],output[6],output[7],output[8],output[9],output[10],output[11],output[12],output[13],output[14],output[15]
84804000,10,900.0,1173.0,1623.0,1376.0,1504.0,1500.0,1503.0,1499.0,1489.0,900.0,0.0,0.0,0.0,0.0,0.0,0.0
84880000,10,900.0,1173.0,1623.0,1376.0,1504.0,1500.0,1503.0,1499.0,1489.0,900.0,0.0,0.0,0.0,0.0,0.0,0.0
84980000,10,900.0,1175.0,1621.0,1378.0,1504.0,1500.0,1503.0,1499.0,1489.0,900.0,0.0,0.0,0.0,0.0,0.0,0.0
85080000,10,900.0,1175.0,1622.0,1377.0,1504.0,1500.0,1503.0,1499.0,1489.0,900.0,0.0,0.0,0.0,0.0,0.0,0.0
85180000,10,900.0,1174.0,1625.0,1374.0,1504.0,1500.0,1503.0,1499.0,1489.0,900.0,0.0,0.0,0.0,0.0,0.0,0.0
85280000,10,900.0,1174.0,1624.0,1375.0,1504.0,1500.0,1503.0,1499.0,1489.0,900.0,0.0,0.0,0.0,0.0,0.0,0.0
85380000,10,900.0,1174.0,1624.0,1375.0,1504.0,1500.0,1503.0,1499.0,1489.0,900.0,0.0,0.0,0.0,0.0,0.0,0.0
85480000,10,900.0,1176.0,1621.0,1378.0,1504.0,1500.0,1503.0,1499.0,1489.0,900.0,0.0,0.0,0.0,0.0,0.0,0.0
85580000,10,900.0,1176.0,1622.0,1377.0,1504.0,1500.0,1503.0,1499.0,1489.0,900.0,0.0,0.0,0.0,0.0,0.0,0.0
85680000,10,900.0,1176.0,1621.0,1378.0,1504.0,1500.0,1503.0,1499.0,1489.0,900.0,0.0,0.0,0.0,0.0,0.0,0.0
85780000,10,900.0,1178.0,1625.0,1374.0,1504.0,1500.0,1503.0,1499.0,1489.0,900.0,0.0,0.0,0.0,0.0,0.0,0.0
85880000,10,900.0,1178.0,1621.0,1378.0,1504.0,1500.0,1503.0,1499.0,1489.0,900.0,0.0,0.0,0.0,0.0,0.0,0.0
85980000,10,900.0,1174.0,1624.0,1375.0,1504.0,1500.0,1503.0,1499.0,1489.0,900.0,0.0,0.0,0.0,0.0,0.0,0.0
86080000,10,900.0,1174.0,1624.0,1375.0,1504.0,1500.0,1503.0,1499.0,1489.0,900.0,0.0,0.0,0.0,0.0,0.0,0.0
86180000,10,900.0,1174.0,1622.0,1377.0,1504.0,1500.0,1503.0,1499.0,1489.0,900.0,0.0,0.0,0.0,0.0,0.0,0.0
86280000,10,900.0,1173.0,1622.0,1377.0,1504.0,1500.0,1503.0,1499.0,1489.0,900.0,0.0,0.0,0.0,0.0,0.0,0.0
86380000,10,900.0,1174.0,1625.0,1374.0,1504.0,1500.0,1503.0,1499.0,1489.0,900.0,0.0,0.0,0.0,0.0,0.0,0.0
86480000,10,900.0,1173.0,1627.0,1372.0,1504.0,1500.0,1503.0,1499.0,1489.0,900.0,0.0,0.0,0.0,0.0,0.0,0.0
86580000,10,900.0,1172.0,1625.0,1374.0,1504.0,1500.0,1503.0,1499.0,1489.0,900.0,0.0,0.0,0.0,0.0,0.0,0.0
86680000,10,900.0,1174.0,1626.0,1373.0,1504.0,1500.0,1503.0,1499.0,1489.0,900.0,0.0,0.0,0.0,0.0,0.0,0.0
86780000,10,900.0,1173.0,1622.0,1377.0,1504.0,1500.0,1503.0,1499.0,1489.0,900.0,0.0,0.0,0.0,0.0,0.0,0.0
86880000,10,900.0,1174.0,1624.0,1375.0,1504.0,1500.0,1503.0,1499.0,1489.0,900.0,0.0,0.0,0.0,0.0,0.0,0.0
86980000,10,900.0,1173.0,1623.0,1376.0,1504.0,1500.0,1503.0,1499.0,1489.0,900.0,0.0,0.0,0.0,0.0,0.0,0.0
87080000,10,900.0,1173.0,1624.0,1375.0,1504.0,1500.0,1503.0,1499.0,1489.0,900.0,0.0,0.0,0.0,0.0,0.0,0.0
87184000,10,900.0,1171.0,1626.0,1373.0,1504.0,1500.0,1503.0,1499.0,1489.0,900.0,0.0,0.0,0.0,0.0,0.0,0.0
87284000,10,900.0,1171.0,1623.0,1376.0,1504.0,1500.0,1503.0,1499.0,1489.0,900.0,0.0,0.0,0.0,0.0,0.0,0.0
87380000,10,900.0,1171.0,1625.0,1374.0,1504.0,1500.0,1503.0,1499.0,1489.0,900.0,0.0,0.0,0.0,0.0,0.0,0.0
87480000,10,900.0,1171.0,1624.0,1375.0,1504.0,1500.0,1503.0,1499.0,1489.0,900.0,0.0,0.0,0.0,0.0,0.0,0.0
87580000,10,900.0,1171.0,1627.0,1372.0,1504.0,1500.0,1503.0,1499.0,1489.0,900.0,0.0,0.0,0.0,0.0,0.0,0.0
87680000,10,900.0,1171.0,1625.0,1374.0,1504.0,1500.0,1503.0,1499.0,1489.0,900.0,0.0,0.0,0.0,0.0,0.0,0.0
87780000,10,900.0,1172.0,1626.0,1373.0,1504.0,1500.0,1503.0,1499.0,1489.0,900.0,0.0,0.0,0.0,0.0,0.0,0.0
87880000,10,900.0,1172.0,1627.0,1372.0,1504.0,1500.0,1503.0,1499.0,1489.0,900.0,0.0,0.0,0.0,0.0,0.0,0.0
87980000,10,900.0,1174.0,1624.0,1375.0,1504.0,1500.0,1503.0,1499.0,1489.0,900.0,0.0,0.0,0.0,0.0,0.0,0.0
88080000,10,900.0,1175.0,1624.0,1375.0,1504.0,1500.0,1503.0,1499.0,1489.0,900.0,0.0,0.0,0.0,0.0,0.0,0.0
88180000,10,900.0,1174.0,1625.0,1374.0,1504.0,1500.0,1503.0,1499.0,1489.0,900.0,0.0,0.0,0.0,0.0,0.0,0.0
88280000,10,900.0,1175.0,1621.0,1378.0,1504.0,1500.0,1503.0,1499.0,1489.0,900.0,0.0,0.0,0.0,0.0,0.0,0.0
88380000,10,900.0,1174.0,1624.0,1375.0,1504.0,1500.0,1503.0,1499.0,1489.0,900.0,0.0,0.0,0.0,0.0,0.0,0.0
88484000,10,900.0,1175.0,1623.0,1376.0,1504.0,1500.0,1503.0,1499.0,1489.0,900.0,0.0,0.0,0.0,0.0,0.0,0.0
88580000,10,900.0,1175.0,1623.0,1376.0,1504.0,1500.0,1503.0,1499.0,1489.0,900.0,0.0,0.0,0.0,0.0,0.0,0.0
88680000,10,900.0,1178.0,1622.0,1377.0,1504.0,1500.0,1503.0,1499.0,1489.0,900.0,0.0,0.0,0.0,0.0,0.0,0.0
88780000,10,900.0,1178.0,1623.0,1376.0,1504.0,1500.0,1503.0,1499.0,1489.0,900.0,0.0,0.0,0.0,0.0,0.0,0.0
88880000,10,900.0,1176.0,1624.0,1375.0,1504.0,1500.0,1503.0,1499.0,1489.0,900.0,0.0,0.0,0.0,0.0,0.0,0.0
88980000,10,900.0,1176.0,1626.0,1373.0,1504.0,1500.0,1503.0,1499.0,1489.0,900.0,0.0,0.0,0.0,0.0,0.0,0.0
89080000,10,900.0,1176.0,1626.0,1373.0,1504.0,1500.0,1503.0,1499.0,1489.0,900.0,0.0,0.0,0.0,0.0,0.0,0.0
89180000,10,900.0,1174.0,1624.0,1375.0,1504.0,1500.0,1503.0,1499.0,1489.0,900.0,0.0,0.0,0.0,0.0,0.0,0.0
89280000,10,900.0,1174.0,1625.0,1374.0,1504.0,1500.0,1503.0,1499.0,1489.0,900.0,0.0,0.0,0.0,0.0,0.0,0.0
89380000,10,900.0,1173.0,1627.0,1372.0,1504.0,1500.0,1503.0,1499.0,1489.0,900.0,0.0,0.0,0.0,0.0,0.0,0.0
89480000,10,900.0,1173.0,1625.0,1374.0,1504.0,1500.0,1503.0,1499.0,1489.0,900.0,0.0,0.0,0.0,0.0,0.0,0.0
89580000,10,900.0,1175.0,1627.0,1372.0,1504.0,1500.0,1503.0,1499.0,1489.0,900.0,0.0,0.0,0.0,0.0,0.0,0.0
89680000,10,900.0,1176.0,1626.0,1373.0,1504.0,1500.0,1503.0,1499.0,1489.0,900.0,0.0,0.0,0.0,0.0,0.0,0.0
89780000,10,900.0,1175.0,1625.0,1374.0,1504.0,1500.0,1503.0,1499.0,1489.0,900.0,0.0,0.0,0.0,0.0,0.0,0.0
89880000,10,900.0,1177.0,1623.0,1376.0,1504.0,1500.0,1503.0,1499.0,1489.0,900.0,0.0,0.0,0.0,0.0,0.0,0.0
89980000,10,900.0,1176.0,1623.0,1376.0,1504.0,1500.0,1503.0,1499.0,1489.0,900.0,0.0,0.0,0.0,0.0,0.0,0.0
90080000,10,900.0,1173.0,1623.0,1376.0,1504.0,1500.0,1503.0,1499.0,1489.0,900.0,0.0,0.0,0.0,0.0,0.0,0.0
90180000,10,900.0,1173.0,1625.0,1374.0,1504.0,1500.0,1503.0,1499.0,1489.0,900.0,0.0,0.0,0.0,0.0,0.0,0.0
90280000,10,900.0,1172.0,1622.0,1377.0,1504.0,1500.0,1503.0,1499.0,1489.0,900.0,0.0,0.0,0.0,0.0,0.0,0.0
90380000,10,900.0,1173.0,1625.0,1374.0,1504.0,1500.0,1503.0,1499.0,1489.0,900.0,0.0,0.0,0.0,0.0,0.0,0.0
90480000,10,900.0,1173.0,1624.0,1375.0,1504.0,1500.0,1503.0,1499.0,1489.0,900.0,0.0,0.0,0.0,0.0,0.0,0.0
90584000,10,900.0,1174.0,1624.0,1375.0,1504.0,1500.0,1503.0,1499.0,1489.0,900.0,0.0,0.0,0.0,0.0,0.0,0.0
90680000,10,900.0,1174.0,1629.0,1370.0,1773.0,1668.0,1226.0,1121.0,1762.0,900.0,0.0,0.0,0.0,0.0,0.0,0.0
90780000,10,900.0,1176.0,1614.0,1385.0,1967.0,1784.0,1032.0,1000.0,1956.0,900.0,0.0,0.0,0.0,0.0,0.0,0.0
90880000,10,900.0,1181.0,1628.0,1371.0,1983.0,1793.0,1016.0,1000.0,1972.0,900.0,0.0,0.0,0.0,0.0,0.0,0.0
90980000,10,900.0,1192.0,1628.0,1371.0,1814.0,1692.0,1185.0,1063.0,1804.0,900.0,0.0,0.0,0.0,0.0,0.0,0.0
91080000,10,900.0,1203.0,1618.0,1381.0,1526.0,1519.0,1473.0,1467.0,1515.0,900.0,0.0,0.0,0.0,0.0,0.0,0.0
91184000,10,900.0,1208.0,1630.0,1369.0,1334.0,1217.0,1899.0,1782.0,1207.0,900.0,0.0,0.0,0.0,0.0,0.0,0.0
91280000,10,900.0,1205.0,1612.0,1387.0,1224.0,1033.0,2000.0,1966.0,1023.0,900.0,0.0,0.0,0.0,0.0,0.0,0.0
91380000,10,900.0,1199.0,1617.0,1382.0,1214.0,1017.0,2000.0,1982.0,1006.0,900.0,0.0,0.0,0.0,0.0,0.0,0.0
91480000,10,900.0,1188.0,1620.0,1379.0,1315.0,1185.0,1944.0,1814.0,1174.0,900.0,0.0,0.0,0.0,0.0,0.0,0.0
91580000,10,900.0,1181.0,1603.0,1396.0,1488.0,1473.0,1541.0,1526.0,1463.0,900.0,0.0,0.0,0.0,0.0,0.0,0.0
91680000,10,900.0,1179.0,1628.0,1371.0,1504.0,1500.0,1503.0,1499.0,1489.0,900.0,0.0,0.0,0.0,0.0,0.0,0.0
91780000,10,900.0,1178.0,1632.0,1367.0,1504.0,1500.0,1503.0,1499.0,1489.0,900.0,0.0,0.0,0.0,0.0,0.0,0.0
91880000,10,900.0,1176.0,1629.0,1370.0,1504.0,1500.0,1503.0,1499.0,1489.0,900.0,0.0,0.0,0.0,0.0,0.0,0.0
91980000,10,900.0,1174.0,1626.0,1373.0,1504.0,1500.0,1503.0,1499.0,1489.0,900.0,0.0,0.0,0.0,0.0,0.0,0.0
92080000,10,900.0,1174.0,1625.0,1374.0,1504.0,1500.0,1503.0,1499.0,1489.0,900.0,0.0,0.0,0.0,0.0,0.0,0.0
92180000,10,900.0,1174.0,1624.0,1375.0,1504.0,1500.0,1503.0,1499.0,1489.0,900.0,0.0,0.0,0.0,0.0,0.0,0.0
92280000,10,900.0,1174.0,1623.0,1376.0,1504.0,1500.0,1503.0,1499.0,1489.0,900.0,0.0,0.0,0.0,0.0,0.0,0.0
92380000,10,900.0,1174.0,1623.0,1376.0,1504.0,1500.0,1503.0,1499.0,1489.0,900.0,0.0,0.0,0.0,0.0,0.0,0.0
92480000,10,900.0,1174.0,1624.0,1375.0,1504.0,1500.0,1503.0,1499.0,1489.0,900.0,0.0,0.0,0.0,0.0,0.0,0.0
92580000,10,900.0,1173.0,1623.0,1376.0,1504.0,1500.0,1503.0,1499.0,1489.0,900.0,0.0,0.0,0.0,0.0,0.0,0.0
92680000,10,900.0,1171.0,1624.0,1375.0,1504.0,1500.0,1503.0,1499.0,1489.0,900.0,0.0,0.0,0.0,0.0,0.0,0.0
92780000,10,900.0,1172.0,1625.0,1374.0,1504.0,1500.0,1503.0,1499.0,1489.0,900.0,0.0,0.0,0.0,0.0,0.0,0.0
92880000,10,900.0,1173.0,1621.0,1378.0,1504.0,1500.0,1503.0,1499.0,1489.0,900.0,0.0,0.0,0.0,0.0,0.0,0.0
92980000,10,900.0,1171.0,1623.0,1376.0,1504.0,1500.0,1503.0,1499.0,1489.0,900.0,0.0,0.0,0.0,0.0,0.0,0.0
93080000,10,900.0,1173.0,1622.0,1377.0,1504.0,1500.0,1503.0,1499.0,1489.0,900.0,0.0,0.0,0.0,0.0,0.0,0.0
93180000,10,900.0,1173.0,1620.0,1379.0,1504.0,1500.0,1503.0,1499.0,1489.0,900.0,0.0,0.0,0.0,0.0,0.0,0.0
93280000,10,900.0,1172.0,1621.0,1378.0,1504.0,1500.0,1503.0,1499.0,1489.0,900.0,0.0,0.0,0.0,0.0,0.0,0.0
93380000,10,900.0,1172.0,1623.0,1376.0,1504.0,1500.0,1503.0,1499.0,1489.0,900.0,0.0,0.0,0.0,0.0,0.0,0.0
93480000,10,900.0,1174.0,1623.0,1376.0,1504.0,1500.0,1503.0,1499.0,1489.0,900.0,0.0,0.0,0.0,0.0,0.0,0.0
93580000,10,900.0,1176.0,1623.0,1376.0,1504.0,1500.0,1503.0,1499.0,1489.0,900.0,0.0,0.0,0.0,0.0,0.0,0.0
93680000,10,900.0,1174.0,1625.0,1374.0,1504.0,1500.0,1503.0,1499.0,1489.0,900.0,0.0,0.0,0.0,0.0,0.0,0.0
93780000,10,900.0,1173.0,1625.0,1374.0,1504.0,1500.0,1503.0,1499.0,1489.0,900.0,0.0,0.0,0.0,0.0,0.0,0.0
93880000,10,900.0,1175.0,1624.0,1375.0,1504.0,1500.0,1503.0,1499.0,1489.0,900.0,0.0,0.0,0.0,0.0,0.0,0.0
93980000,10,900.0,1176.0,1626.0,1373.0,1504.0,1500.0,1503.0,1499.0,1489.0,900.0,0.0,0.0,0.0,0.0,0.0,0.0
94080000,10,900.0,1178.0,1622.0,1377.0,1504.0,1500.0,1503.0,1499.0,1489.0,900.0,0.0,0.0,0.0,0.0,0.0,0.0
94180000,10,900.0,1179.0,1622.0,1377.0,1504.0,1500.0,1503.0,1499.0,1489.0,900.0,0.0,0.0,0.0,0.0,0.0,0.0
94280000,10,900.0,1180.0,1624.0,1375.0,1504.0,1500.0,1503.0,1499.0,1489.0,900.0,0.0,0.0,0.0,0.0,0.0,0.0
94380000,10,900.0,1179.0,1625.0,1374.0,1504.0,1500.0,1503.0,1499.0,1489.0,900.0,0.0,0.0,0.0,0.0,0.0,0.0
94480000,10,900.0,1180.0,1625.0,1374.0,1504.0,1500.0,1503.0,1499.0,1489.0,900.0,0.0,0.0,0.0,0.0,0.0,0.0
94580000,10,900.0,1179.0,1627.0,1372.0,1504.0,1500.0,1503.0,1499.0,1489.0,900.0,0.0,0.0,0.0,0.0,0.0,0.0
94680000,10,900.0,1178.0,1626.0,1373.0,1504.0,1500.0,1503.0,1499.0,1489.0,900.0,0.0,0.0,0.0,0.0,0.0,0.0
94780000,10,900.0,1176.0,1626.0,1373.0,1504.0,1500.0,1503.0,1499.0,1489.0,900.0,0.0,0.0,0.0,0.0,0.0,0.0
94880000,10,900.0,1174.0,1630.0,1369.0,1504.0,1500.0,1503.0,1499.0,1489.0,900.0,0.0,0.0,0.0,0.0,0.0,0.0
94980000,10,900.0,1172.0,1629.0,1370.0,1504.0,1500.0,1503.0,1499.0,1489.0,900.0,0.0,0.0,0.0,0.0,0.0,0.0
95080000,10,900.0,1172.0,1629.0,1370.0,1504.0,1500.0,1503.0,1499.0,1489.0,900.0,0.0,0.0,0.0,0.0,0.0,0.0
95180000,10,900.0,1173.0,1627.0,1372.0,1504.0,1500.0,1503.0,1499.0,1489.0,900.0,0.0,0.0,0.0,0.0,0.0,0.0
95280000,10,900.0,1173.0,1628.0,1371.0,1504.0,1500.0,1503.0,1499.0,1489.0,900.0,0.0,0.0,0.0,0.0,0.0,0.0
95380000,10,900.0,1172.0,1629.0,1370.0,1504.0,1500.0,1503.0,1499.0,1489.0,900.0,0.0,0.0,0.0,0.0,0.0,0.0
95480000,10,900.0,1172.0,1631.0,1368.0,1504.0,1500.0,1503.0,1499.0,1489.0,900.0,0.0,0.0,0.0,0.0,0.0,0.0
95580000,10,900.0,1174.0,1624.0,1375.0,1504.0,1500.0,1503.0,1499.0,1489.0,900.0,0.0,0.0,0.0,0.0,0.0,0.0
95680000,10,900.0,1176.0,1627.0,1372.0,1504.0,1500.0,1503.0,1499.0,1489.0,900.0,0.0,0.0,0.0,0.0,0.0,0.0
95780000,10,900.0,1176.0,1625.0,1374.0,1504.0,1500.0,1503.0,1499.0,1489.0,900.0,0.0,0.0,0.0,0.0,0.0,0.0
95880000,10,900.0,1176.0,1628.0,1371.0,1504.0,1500.0,1503.0,1499.0,1489.0,900.0,0.0,0.0,0.0,0.0,0.0,0.0
95980000,10,900.0,1174.0,1626.0,1373.0,1504.0,1500.0,1503.0,1499.0,1489.0,900.0,0.0,0.0,0.0,0.0,0.0,0.0
96080000,10,900.0,1175.0,1623.0,1376.0,1504.0,1500.0,1503.0,1499.0,1489.0,900.0,0.0,0.0,0.0,0.0,0.0,0.0
96180000,10,900.0,1176.0,1626.0,1373.0,1504.0,1500.0,1503.0,1499.0,1489.0,900.0,0.0,0.0,0.0,0.0,0.0,0.0
96280000,10,900.0,1175.0,1627.0,1372.0,1504.0,1500.0,1503.0,1499.0,1489.0,900.0,0.0,0.0,0.0,0.0,0.0,0.0
96380000,10,900.0,1174.0,1628.0,1371.0,1504.0,1500.0,1503.0,1499.0,1489.0,900.0,0.0,0.0,0.0,0.0,0.0,0.0
96480000,10,900.0,1174.0,1628.0,1371.0,1504.0,1500.0,1503.0,1499.0,1489.0,900.0,0.0,0.0,0.0,0.0,0.0,0.0
96580000,10,900.0,1175.0,1626.0,1373.0,1504.0,1500.0,1503.0,1499.0,1489.0,900.0,0.0,0.0,0.0,0.0,0.0,0.0
96680000,10,900.0,1174.0,1627.0,1372.0,1504.0,1500.0,1503.0,1499.0,1489.0,900.0,0.0,0.0,0.0,0.0,0.0,0.0
96780000,10,900.0,1175.0,1627.0,1372.0,1504.0,1500.0,1503.0,1499.0,1489.0,900.0,0.0,0.0,0.0,0.0,0.0,0.0
96880000,10,900.0,1175.0,1629.0,1370.0,1504.0,1500.0,1503.0,1499.0,1489.0,900.0,0.0,0.0,0.0,0.0,0.0,0.0
96980000,10,900.0,1174.0,1626.0,1373.0,1504.0,1500.0,1503.0,1499.0,1489.0,900.0,0.0,0.0,0.0,0.0,0.0,0.0
97080000,10,900.0,1173.0,1626.0,1373.0,1504.0,1500.0,1503.0,1499.0,1489.0,900.0,0.0,0.0,0.0,0.0,0.0,0.0
97180000,10,900.0,1173.0,1625.0,1374.0,1504.0,1500.0,1503.0,1499.0,1489.0,900.0,0.0,0.0,0.0,0.0,0.0,0.0
97280000,10,900.0,1174.0,1630.0,1369.0,1504.0,1500.0,1503.0,1499.0,1489.0,900.0,0.0,0.0,0.0,0.0,0.0,0.0
97380000,10,900.0,1176.0,1627.0,1372.0,1504.0,1500.0,1503.0,1499.0,1489.0,900.0,0.0,0.0,0.0,0.0,0.0,0.0
97480000,10,900.0,1176.0,1626.0,1373.0,1504.0,1500.0,1503.0,1499.0,1489.0,900.0,0.0,0.0,0.0,0.0,0.0,0.0
97580000,10,900.0,1176.0,1626.0,1373.0,1504.0,1500.0,1503.0,1499.0,1489.0,900.0,0.0,0.0,0.0,0.0,0.0,0.0
97680000,10,900.0,1176.0,1625.0,1374.0,1504.0,1500.0,1503.0,1499.0,1489.0,900.0,0.0,0.0,0.0,0.0,0.0,0.0
97784000,10,900.0,1174.0,1631.0,1368.0,1504.0,1500.0,1503.0,1499.0,1489.0,900.0,0.0,0.0,0.0,0.0,0.0,0.0
97880000,10,900.0,1172.0,1629.0,1370.0,1504.0,1500.0,1503.0,1499.0,1489.0,900.0,0.0,0.0,0.0,0.0,0.0,0.0
97980000,10,900.0,1174.0,1628.0,1371.0,1504.0,1500.0,1503.0,1499.0,1489.0,900.0,0.0,0.0,0.0,0.0,0.0,0.0
98080000,10,900.0,1176.0,1627.0,1372.0,1504.0,1500.0,1503.0,1499.0,1489.0,900.0,0.0,0.0,0.0,0.0,0.0,0.0
98180000,10,900.0,1175.0,1627.0,1372.0,1504.0,1500.0,1503.0,1499.0,1489.0,900.0,0.0,0.0,0.0,0.0,0.0,0.0
98280000,10,900.0,1177.0,1629.0,1370.0,1504.0,1500.0,1503.0,1499.0,1489.0,900.0,0.0,0.0,0.0,0.0,0.0,0.0
98380000,10,900.0,1176.0,1628.0,1371.0,1504.0,1500.0,1503.0,1499.0,1489.0,900.0,0.0,0.0,0.0,0.0,0.0,0.0
98480000,10,900.0,1176.0,1628.0,1371.0,1504.0,1500.0,1503.0,1499.0,1489.0,900.0,0.0,0.0,0.0,0.0,0.0,0.0
98580000,10,900.0,1175.0,1628.0,1371.0,1504.0,1500.0,1503.0,1499.0,1489.0,900.0,0.0,0.0,0.0,0.0,0.0,0.0
98680000,10,900.0,1174.0,1631.0,1368.0,1504.0,1500.0,1503.0,1499.0,1489.0,900.0,0.0,0.0,0.0,0.0,0.0,0.0
98780000,10,900.0,1174.0,1632.0,1367.0,1504.0,1500.0,1503.0,1499.0,1489.0,900.0,0.0,0.0,0.0,0.0,0.0,0.0
98880000,10,900.0,1172.0,1632.0,1367.0,1504.0,1500.0,1503.0,1499.0,1489.0,900.0,0.0,0.0,0.0,0.0,0.0,0.0
98980000,10,900.0,1173.0,1631.0,1368.0,1504.0,1500.0,1503.0,1499.0,1489.0,900.0,0.0,0.0,0.0,0.0,0.0,0.0
99080000,10,900.0,1175.0,1632.0,1367.0,1504.0,1500.0,1503.0,1499.0,1489.0,900.0,0.0,0.0,0.0,0.0,0.0,0.0
99180000,10,900.0,1174.0,1629.0,1370.0,1504.0,1500.0,1503.0,1499.0,1489.0,900.0,0.0,0.0,0.0,0.0,0.0,0.0
99280000,10,900.0,1174.0,1631.0,1368.0,1504.0,1500.0,1503.0,1499.0,1489.0,900.0,0.0,0.0,0.0,0.0,0.0,0.0
99380000,10,900.0,1176.0,1628.0,1371.0,1504.0,1500.0,1503.0,1499.0,1489.0,900.0,0.0,0.0,0.0,0.0,0.0,0.0
99480000,10,900.0,1175.0,1630.0,1369.0,1504.0,1500.0,1503.0,1499.0,1489.0,900.0,0.0,0.0,0.0,0.0,0.0,0.0
99580000,10,900.0,1175.0,1632.0,1367.0,1504.0,1500.0,1503.0,1499.0,1489.0,900.0,0.0,0.0,0.0,0.0,0.0,0.0
99680000,10,900.0,1175.0,1629.0,1370.0,1504.0,1500.0,1503.0,1499.0,1489.0,900.0,0.0,0.0,0.0,0.0,0.0,0.0
99780000,10,900.0,1177.0,1629.0,1370.0,1504.0,1500.0,1503.0,1499.0,1489.0,900.0,0.0,0.0,0.0,0.0,0.0,0.0
99880000,10,900.0,1178.0,1628.0,1371.0,1504.0,1500.0,1503.0,1499.0,1489.0,900.0,0.0,0.0,0.0,0.0,0.0,0.0
99980000,10,900.0,1177.0,1632.0,1367.0,1504.0,1500.0,1503.0,1499.0,1489.0,900.0,0.0,0.0,0.0,0.0,0.0,0.0
100080000,10,900.0,1176.0,1631.0,1368.0,1504.0,1500.0,1503.0,1499.0,1489.0,900.0,0.0,0.0,0.0,0.0,0.0,0.0
100180000,10,900.0,1177.0,1632.0,1367.0,1504.0,1500.0,1503.0,1499.0,1489.0,900.0,0.0,0.0,0.0,0.0,0.0,0.0
100280000,10,900.0,1176.0,1633.0,1366.0,1504.0,1500.0,1503.0,1499.0,1489.0,900.0,0.0,0.0,0.0,0.0,0.0,0.0
100380000,10,900.0,1177.0,1632.0,1367.0,1504.0,1500.0,1503.0,1499.0,1489.0,900.0,0.0,0.0,0.0,0.0,0.0,0.0
100480000,10,900.0,1177.0,1633.0,1366.0,1504.0,1500.0,1503.0,1499.0,1489.0,900.0,0.0,0.0,0.0,0.0,0.0,0.0
100580000,10,900.0,1177.0,1631.0,1368.0,1504.0,1500.0,1503.0,1499.0,1489.0,900.0,0.0,0.0,0.0,0.0,0.0,0.0
100680000,10,900.0,1180.0,1633.0,1366.0,1504.0,1500.0,1503.0,1499.0,1489.0,900.0,0.0,0.0,0.0,0.0,0.0,0.0
100780000,10,900.0,1181.0,1631.0,1368.0,1504.0,1500.0,1503.0,1499.0,1489.0,900.0,0.0,0.0,0.0,0.0,0.0,0.0
100880000,10,900.0,1179.0,1632.0,1367.0,1504.0,1500.0,1503.0,1499.0,1489.0,900.0,0.0,0.0,0.0,0.0,0.0,0.0
100980000,10,900.0,1177.0,1633.0,1366.0,1504.0,1500.0,1503.0,1499.0,1489.0,900.0,0.0,0.0,0.0,0.0,0.0,0.0
101080000,10,900.0,1175.0,1634.0,1365.0,1504.0,1500.0,1503.0,1499.0,1489.0,900.0,0.0,0.0,0.0,0.0,0.0,0.0
101180000,10,900.0,1173.0,1633.0,1366.0,1504.0,1500.0,1503.0,1499.0,1489.0,900.0,0.0,0.0,0.0,0.0,0.0,0.0
101280000,10,900.0,1172.0,1633.0,1366.0,1504.0,1500.0,1503.0,1499.0,1489.0,900.0,0.0,0.0,0.0,0.0,0.0,0.0
101384000,10,900.0,1173.0,1634.0,1365.0,1504.0,1500.0,1503.0,1499.0,1489.0,900.0,0.0,0.0,0.0,0.0,0.0,0.0
101480000,10,900.0,1172.0,1635.0,1364.0,1504.0,1500.0,1503.0,1499.0,1489.0,900.0,0.0,0.0,0.0,0.0,0.0,0.0
101580000,10,900.0,1172.0,1634.0,1365.0,1504.0,1500.0,1503.0,1499.0,1489.0,900.0,0.0,0.0,0.0,0.0,0.0,0.0
101680000,10,900.0,1172.0,1635.0,1364.0,1504.0,1500.0,1503.0,1499.0,1489.0,900.0,0.0,0.0,0.0,0.0,0.0,0.0
101780000,10,900.0,1173.0,1633.0,1366.0,1504.0,1500.0,1503.0,1499.0,1489.0,900.0,0.0,0.0,0.0,0.0,0.0,0.0
101880000,10,900.0,1174.0,1633.0,1366.0,1504.0,1500.0,1503.0,1499.0,1489.0,900.0,0.0,0.0,0.0,0.0,0.0,0.0
101980000,10,900.0,1174.0,1632.0,1367.0,1504.0,1500.0,1503.0,1499.0,1489.0,900.0,0.0,0.0,0.0,0.0,0.0,0.0
102080000,10,900.0,1176.0,1634.0,1365.0,1504.0,1500.0,1503.0,1499.0,1489.0,900.0,0.0,0.0,0.0,0.0,0.0,0.0
102180000,10,900.0,1175.0,1634.0,1365.0,1504.0,1500.0,1503.0,1499.0,1489.0,900.0,0.0,0.0,0.0,0.0,0.0,0.0
102284000,10,900.0,1176.0,1633.0,1366.0,1504.0,1500.0,1503.0,1499.0,1489.0,900.0,0.0,0.0,0.0,0.0,0.0,0.0
102380000,10,900.0,1178.0,1636.0,1363.0,1504.0,1500.0,1503.0,1499.0,1489.0,900.0,0.0,0.0,0.0,0.0,0.0,0.0
102480000,10,900.0,1180.0,1632.0,1367.0,1504.0,1500.0,1503.0,1499.0,1489.0,900.0,0.0,0.0,0.0,0.0,0.0,0.0
102580000,10,900.0,1180.0,1633.0,1366.0,1504.0,1500.0,1503.0,1499.0,1489.0,900.0,0.0,0.0,0.0,0.0,0.0,0.0
102680000,10,900.0,1179.0,1635.0,1364.0,1504.0,1500.0,1503.0,1499.0,1489.0,900.0,0.0,0.0,0.0,0.0,0.0,0.0
102780000,10,900.0,1179.0,1637.0,1362.0,1504.0,1500.0,1503.0,1499.0,1489.0,900.0,0.0,0.0,0.0,0.0,0.0,0.0
102880000,10,900.0,1180.0,1634.0,1365.0,1504.0,1500.0,1503.0,1499.0,1489.0,900.0,0.0,0.0,0.0,0.0,0.0,0.0
102980000,10,900.0,1178.0,1638.0,1361.0,1504.0,1500.0,1503.0,1499.0,1489.0,900.0,0.0,0.0,0.0,0.0,0.0,0.0
103080000,10,900.0,1179.0,1635.0,1364.0,1504.0,1500.0,1503.0,1499.0,1489.0,900.0,0.0,0.0,0.0,0.0,0.0,0.0
103180000,10,900.0,1178.0,1639.0,1360.0,1504.0,1500.0,1503.0,1499.0,1489.0,900.0,0.0,0.0,0.0,0.0,0.0,0.0
103280000,10,900.0,1179.0,1637.0,1362.0,1504.0,1500.0,1503.0,1499.0,1489.0,900.0,0.0,0.0,0.0,0.0,0.0,0.0
103380000,10,900.0,1178.0,1638.0,1361.0,1504.0,1500.0,1503.0,1499.0,1489.0,900.0,0.0,0.0,0.0,0.0,0.0,0.0
103480000,10,900.0,1179.0,1640.0,1359.0,1504.0,1500.0,1503.0,1499.0,1489.0,900.0,0.0,0.0,0.0,0.0,0.0,0.0
103580000,10,900.0,1180.0,1638.0,1361.0,1504.0,1500.0,1503.0,1499.0,1489.0,900.0,0.0,0.0,0.0,0.0,0.0,0.0
103680000,10,900.0,1178.0,1637.0,1362.0,1504.0,1500.0,1503.0,1499.0,1489.0,900.0,0.0,0.0,0.0,0.0,0.0,0.0
103780000,10,900.0,1178.0,1640.0,1359.0,1504.0,1500.0,1503.0,1499.0,1489.0,900.0,0.0,0.0,0.0,0.0,0.0,0.0
103880000,10,900.0,1177.0,1640.0,1359.0,1504.0,1500.0,1503.0,1499.0,1489.0,900.0,0.0,0.0,0.0,0.0,0.0,0.0
103980000,10,900.0,1178.0,1637.0,1362.0,1504.0,1500.0,1503.0,1499.0,1489.0,900.0,0.0,0.0,0.0,0.0,0.0,0.0
104080000,10,900.0,1179.0,1637.0,1362.0,1504.0,1500.0,1503.0,1499.0,1489.0,900.0,0.0,0.0,0.0,0.0,0.0,0.0
104180000,10,900.0,1179.0,1639.0,1360.0,1504.0,1500.0,1503.0,1499.0,1489.0,900.0,0.0,0.0,0.0,0.0,0.0,0.0
104280000,10,900.0,1179.0,1640.0,1359.0,1504.0,1500.0,1503.0,1499.0,1489.0,900.0,0.0,0.0,0.0,0.0,0.0,0.0
104380000,10,900.0,1179.0,1640.0,1359.0,1504.0,1500.0,1503.0,1499.0,1489.0,900.0,0.0,0.0,0.0,0.0,0.0,0.0
104480000,10,900.0,1179.0,1639.0,1360.0,1504.0,1500.0,1503.0,1499.0,1489.0,900.0,0.0,0.0,0.0,0.0,0.0,0.0
104580000,10,900.0,1177.0,1643.0,1356.0,1504.0,1500.0,1503.0,1499.0,1489.0,900.0,0.0,0.0,0.0,0.0,0.0,0.0
104680000,10,900.0,1176.0,1642.0,1357.0,1504.0,1500.0,1503.0,1499.0,1489.0,900.0,0.0,0.0,0.0,0.0,0.0,0.0
104780000,10,900.0,1177.0,1639.0,1360.0,1504.0,1500.0,1503.0,1499.0,1489.0,900.0,0.0,0.0,0.0,0.0,0.0,0.0
104880000,10,900.0,1177.0,1642.0,1357.0,1504.0,1500.0,1503.0,1499.0,1489.0,900.0,0.0,0.0,0.0,0.0,0.0,0.0
104980000,10,900.0,1177.0,1640.0,1359.0,1504.0,1500.0,1503.0,1499.0,1489.0,900.0,0.0,0.0,0.0,0.0,0.0,0.0
105080000,10,900.0,1178.0,1641.0,1358.0,1504.0,1500.0,1503.0,1499.0,1489.0,900.0,0.0,0.0,0.0,0.0,0.0,0.0
105180000,10,900.0,1180.0,1641.0,1358.0,1504.0,1500.0,1503.0,1499.0,1489.0,900.0,0.0,0.0,0.0,0.0,0.0,0.0
105280000,10,900.0,1180.0,1642.0,1357.0,1504.0,1500.0,1503.0,1499.0,1489.0,900.0,0.0,0.0,0.0,0.0,0.0,0.0
